dual_cam_display/ip_repo/csi_to_axis_1.0/hdl/.Xil/Vivado-10349-ubuntu/hw_ila_data_2/zip_work/waveform.vcd
$date
        2017-May-09 14:54:20
$end
$version
        Vivado v2016.4 (64-bit)
$end
$timescale
        1ps
$end
$scope module dut $end
$var reg 1 " i_system_wrapper/system_i/csi_to_axis_0/U0/parser_inst/packet_size_1 $end
$var reg 1 # u_ila_1_packet_size $end
$var reg 14 $ i_system_wrapper/system_i/csi_to_axis_0/U0/parser_inst/packet_size [15:2] $end
$var reg 32 2 i_system_wrapper/system_i/csi_to_axis_0_m_axis_tdata [31:0] $end
$var reg 8 R i_system_wrapper/system_i/csi2_d_phy_rx_0_RX_MIPI_PPI_DL3_RXDATAHS [7:0] $end
$var reg 8 Z i_system_wrapper/system_i/csi2_d_phy_rx_0_RX_MIPI_PPI_DL2_RXDATAHS [7:0] $end
$var reg 8 b i_system_wrapper/system_i/csi2_d_phy_rx_0_RX_MIPI_PPI_DL1_RXDATAHS [7:0] $end
$var reg 8 j i_system_wrapper/system_i/csi2_d_phy_rx_0_RX_MIPI_PPI_DL0_RXDATAHS [7:0] $end
$var reg 12 r u_ila_1_axis_data_fifo_0_axis_data_count_1 [11:0] $end
$var reg 1 ~ u_ila_1_axis_data_fifo_0_axis_data_count_2 $end
$var reg 1 !" u_ila_1_axis_data_fifo_0_axis_data_count_3 $end
$var reg 1 "" u_ila_1_axis_data_fifo_0_axis_data_count_4 $end
$var reg 1 #" u_ila_1_axis_data_fifo_0_axis_data_count_5 $end
$var reg 1 $" u_ila_1_axis_data_fifo_0_axis_data_count_6 $end
$var reg 1 %" u_ila_1_axis_data_fifo_0_axis_data_count_7 $end
$var reg 1 &" u_ila_1_axis_data_fifo_0_axis_data_count_8 $end
$var reg 1 '" u_ila_1_axis_data_fifo_0_axis_data_count_9 $end
$var reg 1 (" u_ila_1_axis_data_fifo_0_axis_data_count_10 $end
$var reg 1 )" u_ila_1_axis_data_fifo_0_axis_data_count_11 $end
$var reg 1 *" u_ila_1_axis_data_fifo_0_axis_data_count_12 $end
$var reg 1 +" u_ila_1_axis_data_fifo_0_axis_data_count_13 $end
$var reg 1 ," u_ila_1_axis_data_fifo_0_axis_data_count_14 $end
$var reg 1 -" u_ila_1_axis_data_fifo_0_axis_data_count_15 $end
$var reg 1 ." u_ila_1_axis_data_fifo_0_axis_data_count_16 $end
$var reg 1 /" u_ila_1_axis_data_fifo_0_axis_data_count_17 $end
$var reg 1 0" u_ila_1_axis_data_fifo_0_axis_data_count_18 $end
$var reg 1 1" u_ila_1_axis_data_fifo_0_axis_data_count_19 $end
$var reg 1 2" u_ila_1_axis_data_fifo_0_axis_data_count_20 $end
$var reg 1 3" u_ila_1_axis_data_fifo_0_axis_data_count $end
$var reg 32 4" i_system_wrapper/system_i/axis_data_fifo_0_M_AXIS_TDATA [31:0] $end
$var reg 1 T" u_ila_1_transfer_cnt_1 $end
$var reg 1 U" i_system_wrapper/system_i/csi_to_axis_0/U0/parser_inst/transfer_cnt $end
$var reg 13 V" u_ila_1_transfer_cnt [15:3] $end
$var reg 1 c" i_system_wrapper/system_i/axis_data_fifo_0_M_AXIS_TLAST $end
$var reg 1 d" i_system_wrapper/system_i/axis_data_fifo_0_M_AXIS_TREADY $end
$var reg 1 e" i_system_wrapper/system_i/axis_data_fifo_0_M_AXIS_TUSER $end
$var reg 1 f" i_system_wrapper/system_i/axis_data_fifo_0_M_AXIS_TVALID $end
$var reg 1 g" u_ila_1_axis_data_fifo_0_s_axis_tready $end
$var reg 1 h" u_ila_1_csi2_d_phy_rx_0_RX_MIPI_PPI_CL_ENABLE_1 $end
$var reg 1 i" u_ila_1_csi2_d_phy_rx_0_RX_MIPI_PPI_CL_RXCLKACTIVEHS $end
$var reg 1 j" u_ila_1_csi2_d_phy_rx_0_RX_MIPI_PPI_CL_STOPSTATE $end
$var reg 1 k" u_ila_1_csi2_d_phy_rx_0_RX_MIPI_PPI_CL_ENABLE_2 $end
$var reg 1 l" u_ila_1_csi2_d_phy_rx_0_RX_MIPI_PPI_DL0_RXACTIVEHS_1 $end
$var reg 1 m" u_ila_1_csi2_d_phy_rx_0_RX_MIPI_PPI_DL0_RXSYNCHS $end
$var reg 1 n" u_ila_1_csi2_d_phy_rx_0_RX_MIPI_PPI_DL0_RXACTIVEHS $end
$var reg 1 o" u_ila_1_csi2_d_phy_rx_0_RX_MIPI_PPI_CL_ENABLE_3 $end
$var reg 1 p" u_ila_1_csi2_d_phy_rx_0_RX_MIPI_PPI_DL1_RXACTIVEHS_1 $end
$var reg 1 q" u_ila_1_csi2_d_phy_rx_0_RX_MIPI_PPI_DL1_RXSYNCHS $end
$var reg 1 r" u_ila_1_csi2_d_phy_rx_0_RX_MIPI_PPI_DL1_RXACTIVEHS $end
$var reg 1 s" u_ila_1_csi2_d_phy_rx_0_RX_MIPI_PPI_CL_ENABLE_4 $end
$var reg 1 t" u_ila_1_csi2_d_phy_rx_0_RX_MIPI_PPI_DL2_RXACTIVEHS_1 $end
$var reg 1 u" u_ila_1_csi2_d_phy_rx_0_RX_MIPI_PPI_DL2_RXSYNCHS $end
$var reg 1 v" u_ila_1_csi2_d_phy_rx_0_RX_MIPI_PPI_DL2_RXACTIVEHS $end
$var reg 1 w" u_ila_1_csi2_d_phy_rx_0_RX_MIPI_PPI_CL_ENABLE $end
$var reg 1 x" u_ila_1_csi2_d_phy_rx_0_RX_MIPI_PPI_DL3_RXACTIVEHS_1 $end
$var reg 1 y" u_ila_1_csi2_d_phy_rx_0_RX_MIPI_PPI_DL3_RXSYNCHS $end
$var reg 1 z" u_ila_1_csi2_d_phy_rx_0_RX_MIPI_PPI_DL3_RXACTIVEHS $end
$var reg 1 {" i_system_wrapper/system_i/csi_to_axis_0_m_axis_tlast $end
$var reg 1 |" i_system_wrapper/system_i/csi_to_axis_0_m_axis_tuser $end
$var reg 1 }" i_system_wrapper/system_i/csi_to_axis_0_m_axis_tvalid $end
$var reg 1 ~" i_system_wrapper/system_i/csi_to_axis_0/U0/parser_inst/start_of_frame $end
$var reg 1 !# _TRIGGER $end
$var reg 1 "# _WINDOW $end
$var reg 1 ## _GAP $end
$upscope $end
$enddefinitions $end
#0
$dumpvars
0"
0#
b110100100 $
b110000001000000011000000101 2
b100 R
b1100000 Z
b10100 b
b10100000 j
b11 r
0~
0!"
0""
0#"
0$"
0%"
0&"
0'"
0("
0)"
0*"
0+"
0,"
0-"
0."
0/"
00"
01"
02"
03"
b110000001010111011000000101 4"
0T"
1U"
b10111001 V"
0c"
1d"
0e"
1f"
1g"
1h"
1i"
0j"
1k"
1l"
0m"
1n"
1o"
1p"
0q"
1r"
1s"
1t"
0u"
1v"
1w"
1x"
0y"
1z"
0{"
0|"
1}"
0~"
0!#
1"#
0##
$end
#1
b101000001010000010001100100 2
b1010000 Z
b10000 b
b1101011 j
b100110101000000010100000101 4"
0U"
b10111010 V"
#2
b101000001011000001000000101 2
b101 R
b1000000 Z
b10001000 b
b1010000 j
b1001111000001100000010100000110 4"
1U"
#3
b100010111010000010100000100 2
b100 R
b1010100 Z
b10100 b
b110000001000000011000000101 4"
0U"
b10111011 V"
#4
b1111010000001100000010000000101 2
b1011101 R
b1010000 Z
b1000000 j
b101000001010000010001100100 4"
1U"
#5
b100000001000000010100000100 2
b101 R
b10000 j
b101000001011000001000000101 4"
0U"
b10111100 V"
#6
b100000001100000010010111010 2
b1000000 Z
b10000 b
b1100000 j
b100010111010000010100000100 4"
1U"
#7
b101000001010010001000000110 2
b110 R
b1010000 Z
b1000 b
b1010000 j
b1111010000001100000010000000101 4"
0U"
b10111101 V"
#8
b100010001000000010100000101 2
b101 R
b1001000 Z
b11011 b
b100000001000000010100000100 4"
1U"
#9
b1011101000001010000010100000101 2
b10111100 R
b1010000 Z
b10000 b
b1000000 j
b100000001100000010010111010 4"
0U"
b10111110 V"
#10
b101000001010000010100000100 2
b111 R
b1100000 Z
b10100 b
b10100000 j
b101000001010010001000000110 4"
1U"
#11
b101000001010000010000000001 2
b101 R
b1000000 Z
b1100000 j
b100010001000000010100000101 4"
0U"
b10111111 V"
#12
b110000001001100001000000110 2
b110 R
b100000 Z
b10000 b
b1000000 j
b1011101000001010000010100000101 4"
1U"
#13
b101100001010000011000000101 2
b101 R
b1010010 Z
b11100 b
b1010000 j
b101000001010000010100000100 4"
0U"
b11000000 V"
#14
b10111100000001000000010000000101 2
b1001100 R
b1010000 Z
b10000 b
b1000000 j
b101000001010000010000000001 4"
1U"
#15
b111000001010000010100000100 2
b110 R
b1000000 Z
b10100 b
b10110000 j
b110000001001100001000000110 4"
0U"
b11000001 V"
#16
b101000001100000010100001010 2
b101 R
b10000 b
b1100100 j
b101100001010000011000000101 4"
1U"
#17
b110000001000000010000000110 2
b11110000 Z
b1111000 b
b1000000 j
b10111100000001000000010000000101 4"
0U"
b11000010 V"
#18
b101001000100000011100000100 2
b1100111 Z
b10000 b
b1010000 j
b111000001010000010100000100 4"
1U"
#19
b1001100000001010000010000000101 2
b101000 R
b1000000 Z
b10100 b
b1000000 j
b101000001100000010100001010 4"
0U"
b11000011 V"
#20
b110000001010000010100000100 2
b101 R
b1100000 Z
b10110000 j
b110000001000000010000000110 4"
1U"
#21
b101000001000000010001001011 2
b100 R
b1000000 Z
b1101111 j
b101001000100000011100000100 4"
0U"
b11000100 V"
#22
b101000001000001111000000110 2
b11110000 Z
b10000100 b
b1010000 j
b1001100000001010000010000000101 4"
1U"
#23
b101011111110000010000000100 2
b101 R
b1010101 Z
b10100 b
b1100000 j
b110000001010000010100000100 4"
0U"
b11000101 V"
#24
b101000000001100000010100000101 2
b11001101 R
b1000000 Z
b1000000 j
b101000001000000010001001011 4"
1U"
#25
b101000001000000010100000100 2
b101 R
b1100000 Z
b10000 b
b11110000 j
b101000001000001111000000110 4"
0U"
b11000110 V"
#26
b100000001100000010111111011 2
b1000000 Z
b10100 b
b1010000 j
b101011111110000010000000100 4"
1U"
#27
b100000001000010000100000110 2
b11 R
b10010000 Z
b101000000001100000010100000101 4"
0U"
b11000111 V"
#28
b101010111110000010100000101 2
b100 R
b1100100 Z
b11000 b
b101000001000000010100000100 4"
1U"
#29
b11001101000001010000010100000110 2
b1001011 R
b1000000 Z
b10100 b
b100000001100000010111111011 4"
0U"
b11001000 V"
#30
b101000001000000010000000100 2
b110 R
b1100000 Z
b11000 b
b0 j
b100000001000010000100000110 4"
1U"
#31
b101000001100000010100001111 2
b100 R
b1000000 Z
b10000 b
b1010011 j
b101010111110000010100000101 4"
0U"
b11001001 V"
#32
b11000001000000010100000101 2
b101 R
b10110000 Z
b11011000 b
b1000000 j
b11001101000001010000010100000110 4"
1U"
#33
b100010010010000011000000101 2
b100 R
b1010001 Z
b11000 b
b1010000 j
b101000001000000010000000100 4"
0U"
b11001010 V"
#34
b1001011000001100000010100000101 2
b1101110 R
b1000000 Z
b10000 b
b101000001100000010100001111 4"
1U"
#35
b110000001000000011000000101 2
b101 R
b1010000 Z
b11000 b
b11110000 j
b11000001000000010100000101 4"
0U"
b11001011 V"
#36
b100000001100000010000110000 2
b10000 b
b1001010 j
b100010010010000011000000101 4"
1U"
#37
b101000001000011011000000101 2
b1111100 b
b1000000 j
b1001011000001100000010100000101 4"
0U"
b11001100 V"
#38
b100000110110000011000000100 2
b100 R
b1011111 Z
b10111 b
b1010000 j
b110000001000000011000000101 4"
1U"
#39
b1101110000001010000010000000101 2
b1111010 R
b1000000 Z
b10000 b
b1000000 j
b100000001100000010000110000 4"
0U"
b11001101 V"
#40
b101000001000000011000000101 2
b110 R
b1010000 Z
b10100 b
b11100000 j
b101000001000011011000000101 4"
1U"
#41
b101000001010000010010101111 2
b100 R
b1011010 j
b100000110110000011000000100 4"
0U"
b11001110 V"
#42
b101000001011101111100000100 2
b101 R
b11000000 Z
b1110000 b
b1010000 j
b1101110000001010000010000000101 4"
1U"
#43
b100111101010000010100000100 2
b1011000 Z
b11011 b
b1100000 j
b101000001000000011000000101 4"
0U"
b11001111 V"
#44
b1111010000001010000010000000101 2
b11110101 R
b11110000 Z
b10000 b
b11000000 j
b101000001010000010010101111 4"
1U"
#45
b110000001000000010100000100 2
b0 R
b11111111 Z
b101000 b
b11110110 j
b101000001011101111100000100 4"
0U"
b11010000 V"
#46
b100000001010000010110101110 2
b11111100 b
b11111111 j
b100111101010000010100000100 4"
1U"
#47
b101000001011101110000000101 2
b11111111 b
b1111010000001010000010000000101 4"
0U"
b11010001 V"
#48
b101100011000000011000000101 2
b110000001000000010100000100 4"
1U"
#49
b11110101000001010000010000000110 2
b100000001010000010110101110 4"
1{"
#50
b111111110000101001101100 2
b101000001011101110000000101 4"
0{"
0}"
1!#
#51
b111111111111111111111111 2
b11001 Z
b10 r
b101100011000000011000000101 4"
0t"
0v"
0x"
0z"
#52
b0 Z
b1 r
b11110101000001010000010000000110 4"
1c"
0l"
0n"
0p"
0r"
#53
b11000000 R
b0 r
0f"
#54
b1111 R
b1100 b
b10111011 j
#55
b11100 R
b10000000 b
b10101001 j
#56
b11111100 R
b0 b
b10001010 j
#57
b1001110 b
b10001000 j
#58
b11000000 R
b0 b
#59
b11100001 R
b1000 b
b10101010 j
#60
b11001011 R
b11000000 b
b10001000 j
#61
b1111 R
b100 b
#62
b11111 R
b10000000 b
b10101000 j
#63
b11111100 R
b0 b
b10001010 j
#64
b1001100 b
b10001000 j
#65
b11000000 R
b0 b
#66
b11100001 R
b1000 b
b10101010 j
#67
b11001111 R
b11000000 b
b10001000 j
#68
b11111 R
b100 b
#69
b11100 R
b10000000 b
b10101000 j
#70
b11111110 R
b0 b
b10001010 j
#71
b11111100 R
b1001100 b
b10001000 j
#72
b11110000 R
b0 b
#73
b11100001 R
b1000 b
b10101010 j
#74
b11001111 R
b11000000 b
b10001000 j
#75
b1111 R
b100 b
#76
b11111 R
b10000000 b
b10101000 j
#77
b11111110 R
b0 b
b10001010 j
#78
b11111100 R
b1001100 b
b10001000 j
#79
b11100001 R
b0 b
#80
b1000 b
b10101010 j
#81
b11001111 R
b11000000 b
b10001000 j
#82
b11111 R
b100 b
#83
b10000000 b
b10101000 j
#84
b10111110 R
b0 b
b10001010 j
#85
b11111100 R
b1001100 b
b10001000 j
#86
b11010000 R
b0 b
#87
b11100001 R
b1000 b
b10101010 j
#88
b11001111 R
b11000000 b
b10001000 j
#89
b11111 R
b100 b
#90
b10000000 b
b10101000 j
#91
b11111110 R
b0 b
b10001010 j
#92
b11111100 R
b1001100 b
b10001000 j
#93
b11111000 R
b0 b
#94
b11000001 R
b1000 b
b10101010 j
#95
b11001111 R
b11000000 b
b10001000 j
#96
b1111 R
b100 b
#97
b11111 R
b10000000 b
b10101000 j
#98
b11111110 R
b0 b
b10001010 j
#99
b11111100 R
b1001100 b
b10001000 j
#100
b11000001 R
b0 b
#101
b11100001 R
b1000 b
b10101010 j
#102
b11001111 R
b11000000 b
b10001000 j
#103
b1111 R
b100 b
#104
b11111 R
b10000000 b
b10101000 j
#105
b11111100 R
b0 b
b10001010 j
#106
b11111101 R
b1001100 b
b10001000 j
#107
b11000000 R
b0 b
#108
b11100001 R
b1000 b
b10101010 j
#109
b11011111 R
b11000000 b
b10001000 j
#110
b11111 R
b100 b
#111
b11100 R
b10000000 b
b10101000 j
#112
b11111110 R
b0 b
b10001010 j
#113
b11111100 R
b1001100 b
b10001000 j
#114
b11110000 R
b0 b
#115
b11100001 R
b1000 b
b10101010 j
#116
b11001111 R
b11000000 b
b10001000 j
#117
b1111 R
b100 b
#118
b11110 R
b10000000 b
b10101000 j
#119
b11111100 R
b0 b
b10001010 j
#120
b1001100 b
b10001000 j
#121
b11000000 R
b0 b
#122
b11000001 R
b1000 b
b10101010 j
#123
b11011111 R
b11000000 b
b10001000 j
#124
b1111 R
b100 b
#125
b11101 R
b10000000 b
b10101000 j
#126
b11111110 R
b0 b
b10001010 j
#127
b11111100 R
b1001100 b
b10001000 j
#128
b11000000 R
b0 b
#129
b11100001 R
b1000 b
b10101010 j
#130
b11001111 R
b11000000 b
b10001000 j
#131
b1111 R
b100 b
#132
b11111 R
b10000000 b
b10101000 j
#133
b11111110 R
b0 b
b10001010 j
#134
b11111100 R
b1001110 b
b10001000 j
#135
b11000000 R
b0 b
#136
b11100001 R
b1000 b
b10101010 j
#137
b11001111 R
b11000000 b
b10001000 j
#138
b1111 R
b100 b
#139
b11111 R
b10000000 b
b10101000 j
#140
b11111110 R
b0 b
b10001010 j
#141
b11111100 R
b1001110 b
b10001000 j
#142
b11110000 R
b0 b
#143
b11100001 R
b1000 b
b10101010 j
#144
b11001111 R
b11100000 b
b10001000 j
#145
b1111 R
b100 b
#146
b11100 R
b10000000 b
b10101000 j
#147
b11111110 R
b0 b
b10001010 j
#148
b11111100 R
b1001100 b
b10001000 j
#149
b11110100 R
b0 b
#150
b11000001 R
b1000 b
b10101010 j
#151
b11001111 R
b11000000 b
b10001000 j
#152
b1111 R
b100 b
#153
b11101 R
b10000000 b
b10101000 j
#154
b11111110 R
b0 b
b10001010 j
#155
b11111100 R
b1001110 b
b10001000 j
#156
b11010000 R
b0 b
#157
b11100001 R
b1000 b
b10101010 j
#158
b11001111 R
b11000000 b
b10001000 j
#159
b1111 R
b100 b
#160
b11111 R
b10000000 b
b10101000 j
#161
b11111110 R
b0 b
b10001010 j
#162
b11111100 R
b1001110 b
b10001000 j
#163
b11000000 R
b0 b
#164
b11100001 R
b1000 b
b10101010 j
#165
b11001111 R
b11000000 b
b10001000 j
#166
b1111 R
b100 b
#167
b11100 R
b10000000 b
b10101000 j
#168
b11111110 R
b0 b
b10001010 j
#169
b11111100 R
b1001100 b
b10001000 j
#170
b11100000 R
b0 b
#171
b11000001 R
b1000 b
b10101010 j
#172
b11011111 R
b11000000 b
b10001000 j
#173
b1001111 R
b100 b
#174
b11111 R
b10000000 b
b10101000 j
#175
b11111100 R
b0 b
b10001010 j
#176
b11111101 R
b1001100 b
b10001000 j
#177
b11000000 R
b0 b
#178
b11000001 R
b1000 b
b10101010 j
#179
b11001111 R
b11000000 b
b10001000 j
#180
b1111 R
b100 b
#181
b11100 R
b10000000 b
b10101000 j
#182
b11111110 R
b0 b
b10001010 j
#183
b11111100 R
b1001100 b
b10001000 j
#184
b11110000 R
b0 b
#185
b11100001 R
b1000 b
b10101010 j
#186
b11001111 R
b11000000 b
b10001000 j
#187
b1111 R
b100 b
#188
b11111 R
b10000000 b
b10101000 j
#189
b11111100 R
b0 b
b10001010 j
#190
b1001110 b
b10001000 j
#191
b11110000 R
b0 b
#192
b11000001 R
b1000 b
b10101010 j
#193
b11001111 R
b11000000 b
b10001000 j
#194
b11111 R
b100 b
#195
b11100 R
b10000000 b
b10101000 j
#196
b11111110 R
b0 b
b10001010 j
#197
b11111100 R
b1100 b
b10001000 j
#198
b11111111 R
b0 b
#199
b11100001 R
b1000 b
b10101010 j
#200
b11011111 R
b11000000 b
b10001000 j
#201
b1111 R
b100 b
#202
b11111 R
b10000000 b
b10101000 j
#203
b11111110 R
b0 b
b10001010 j
#204
b11111100 R
b1001100 b
#205
b11110110 R
b0 b
b10001000 j
#206
b11100001 R
b1000 b
b10101010 j
#207
b11001111 R
b11000000 b
b10001000 j
#208
b11011111 R
b100 b
#209
b11111 R
b10000000 b
b10101000 j
#210
b11111110 R
b0 b
b10001010 j
#211
b11111100 R
b1001100 b
b10001000 j
#212
b11110001 R
b0 b
#213
b11100001 R
b1000 b
b10101010 j
#214
b11011111 R
b11000000 b
b10001000 j
#215
b11001111 R
b100 b
#216
b11111 R
b10000000 b
b10101000 j
#217
b11111110 R
b0 b
b10001010 j
#218
b11111100 R
b1001100 b
b10001000 j
#219
b0 b
#220
b11100001 R
b1000 b
b10101010 j
#221
b11001111 R
b11000000 b
b10001000 j
#222
b111111 R
b100 b
#223
b11111 R
b10000000 b
b10101000 j
#224
b11111110 R
b0 b
b10001010 j
#225
b11111100 R
b1001110 b
b10001000 j
#226
b11110000 R
b0 b
#227
b11100001 R
b1000 b
b10101010 j
#228
b11001111 R
b11100000 b
b10001000 j
#229
b1111 R
b100 b
#230
b11111 R
b10000000 b
b10101000 j
#231
b11111110 R
b0 b
b10001010 j
#232
b11111100 R
b1001110 b
b1000 j
#233
b11000000 R
b0 b
b10001000 j
#234
b11100001 R
b1000 b
b10101010 j
#235
b11001111 R
b11100000 b
b10001000 j
#236
b1111 R
b100 b
#237
b11111 R
b10000000 b
b10101000 j
#238
b11111100 R
b0 b
b10001000 j
#239
b1001110 b
#240
b11110000 R
b0 b
#241
b11100001 R
b1000 b
b10101010 j
#242
b11001111 R
b11100000 b
b10001000 j
#243
b11111 R
b100 b
#244
b10000000 b
b10101000 j
#245
b11111110 R
b0 b
b10001010 j
#246
b11111100 R
b1001110 b
b1000 j
#247
b11111000 R
b0 b
b10001000 j
#248
b11100001 R
b1000 b
b10101010 j
#249
b11001111 R
b11100000 b
b10001000 j
#250
b1111 R
b100 b
#251
b11111 R
b10000000 b
b10101000 j
#252
b11111110 R
b0 b
b10001010 j
#253
b11111100 R
b1001110 b
b10001000 j
#254
b11111010 R
b0 b
#255
b11100001 R
b1000 b
b10101010 j
#256
b11001111 R
b11100000 b
b10001000 j
#257
b11111 R
b100 b
#258
b10000000 b
b10101000 j
#259
b11111110 R
b0 b
b10001010 j
#260
b11111100 R
b1001110 b
b10001000 j
#261
b11110000 R
b0 b
#262
b11100001 R
b1000 b
b10101010 j
#263
b11001111 R
b11100000 b
b10001000 j
#264
b11111 R
b100 b
#265
b10000000 b
b10101000 j
#266
b11111110 R
b0 b
b10001010 j
#267
b11111100 R
b1001110 b
b10001000 j
#268
b11111000 R
b0 b
#269
b11100001 R
b1000 b
b10101010 j
#270
b11001111 R
b11100000 b
b10001000 j
#271
b10111111 R
b100 b
#272
b11111 R
b10000000 b
b10101000 j
#273
b11111110 R
b0 b
b10001010 j
#274
b11111100 R
b1001110 b
b10001000 j
#275
b11000000 R
b0 b
#276
b11100001 R
b1000 b
b10101010 j
#277
b11001111 R
b11100000 b
b10001000 j
#278
b11111 R
b100 b
#279
b1111 R
b10000000 b
b10101000 j
#280
b11111110 R
b0 b
b10001010 j
#281
b11111100 R
b1001110 b
b10001000 j
#282
b11111000 R
b0 b
#283
b11100001 R
b1000 b
b10101010 j
#284
b11001111 R
b11100000 b
b10001000 j
#285
b11111 R
b100 b
#286
b10000000 b
b10101000 j
#287
b11111110 R
b0 b
b10001010 j
#288
b11111100 R
b1001110 b
b10001000 j
#289
b11110000 R
b0 b
#290
b11100001 R
b1000 b
b10101010 j
#291
b11001111 R
b11100000 b
b1000 j
#292
b1111 R
b100 b
b10001000 j
#293
b1100 R
b10000000 b
b10101000 j
#294
b11111110 R
b0 b
b10001010 j
#295
b11111100 R
b1001110 b
b10001000 j
#296
b11110000 R
b0 b
#297
b11100001 R
b1000 b
b10101010 j
#298
b11001111 R
b11100000 b
b10001000 j
#299
b101111 R
b100 b
#300
b1111 R
b10000000 b
b10101000 j
#301
b11111110 R
b0 b
b10001010 j
#302
b11111100 R
b1001110 b
b10001000 j
#303
b11001000 R
b0 b
#304
b11100001 R
b1000 b
b10101010 j
#305
b11001111 R
b11100000 b
b10001000 j
#306
b1111 R
b100 b
#307
b11100 R
b10000000 b
b10101000 j
#308
b11111110 R
b0 b
b10001010 j
#309
b11111100 R
b1001110 b
b10000000 j
#310
b11011000 R
b0 b
b10001000 j
#311
b11100000 R
b1000 b
b10101010 j
#312
b11001111 R
b11100000 b
b10001000 j
#313
b101111 R
b100 b
#314
b1110 R
b10000000 b
b10101000 j
#315
b11111110 R
b0 b
b10001010 j
#316
b11111100 R
b1001110 b
b10001000 j
#317
b11010000 R
b0 b
#318
b11100000 R
b10001010 j
#319
b11001111 R
b11100000 b
b1000 j
#320
b1111 R
b100 b
b10001000 j
#321
b0 b
b10101000 j
#322
b11111110 R
b10001000 j
#323
b11111100 R
b1001110 b
b10000000 j
#324
b11110000 R
b0 b
b10001000 j
#325
b11100000 R
b1000 b
b10001010 j
#326
b11001111 R
b11100000 b
b1000 j
#327
b100 b
b10001000 j
#328
b1111 R
b0 b
b10101000 j
#329
b11111110 R
b10001010 j
#330
b11111100 R
b1000110 b
b10001000 j
#331
b11110000 R
b0 b
#332
b11100000 R
b10101010 j
#333
b11001111 R
b1100000 b
b1000 j
#334
b10101111 R
b100 b
b10001000 j
#335
b1101 R
b0 b
b10101000 j
#336
b11111110 R
b10001010 j
#337
b11111100 R
b1000110 b
b10000000 j
#338
b11111010 R
b0 b
b10001000 j
#339
b11100000 R
b10101010 j
#340
b11001111 R
b1100000 b
b1000 j
#341
b1101111 R
b100 b
b10001000 j
#342
b1101 R
b0 b
b10101000 j
#343
b11111110 R
b10001010 j
#344
b11111100 R
b1000110 b
b10000000 j
#345
b11010000 R
b0 b
b10001000 j
#346
b11100000 R
b100 b
b10101010 j
#347
b11001111 R
b1100000 b
b1000 j
#348
b1111 R
b100 b
b10001000 j
#349
b1101 R
b0 b
b10101000 j
#350
b11111110 R
b10001000 j
#351
b11111100 R
b1000110 b
b10000000 j
#352
b11010010 R
b0 b
b10001000 j
#353
b11100000 R
b10101010 j
#354
b11001111 R
b1100000 b
b1000 j
#355
b101111 R
b100 b
b10001000 j
#356
b1111 R
b1000000 b
b10101000 j
#357
b11111110 R
b0 b
b10001010 j
#358
b11111100 R
b1000110 b
b10001000 j
#359
b11010000 R
b0 b
#360
b11100000 R
b10001010 j
#361
b11001111 R
b1100000 b
b1000 j
#362
b1101111 R
b100 b
b10001000 j
#363
b1100 R
b10000000 b
b10101000 j
#364
b11111110 R
b0 b
b10001000 j
#365
b11111100 R
b1000110 b
#366
b11010000 R
b0 b
#367
b11100000 R
b10101010 j
#368
b11001111 R
b11100000 b
b10001000 j
#369
b111111 R
b100 b
#370
b11111 R
b10000000 b
b10101000 j
#371
b11111110 R
b0 b
b10001010 j
#372
b11111100 R
b1001110 b
b10001000 j
#373
b11011100 R
b0 b
#374
b11100001 R
b1000 b
b10101010 j
#375
b11001111 R
b11100000 b
b10001000 j
#376
b1111 R
b100 b
#377
b11111 R
b10000000 b
b10101000 j
#378
b11111110 R
b0 b
b10001010 j
#379
b11111100 R
b1001110 b
b10001000 j
#380
b11110010 R
b0 b
#381
b11100001 R
b1000 b
b10101010 j
#382
b11001111 R
b11100000 b
b10001000 j
#383
b1111 R
b100 b
#384
b11111 R
b10000000 b
b10101000 j
#385
b11111110 R
b0 b
b10001010 j
#386
b11111100 R
b1001110 b
b10001000 j
#387
b11010000 R
b0 b
#388
b11101001 R
b1000 b
b10101010 j
#389
b11001111 R
b11100000 b
b10001000 j
#390
b11111 R
b100 b
#391
b10000000 b
b10101000 j
#392
b11111110 R
b0 b
b10001010 j
#393
b11111100 R
b1001110 b
b10001000 j
#394
b11110000 R
b0 b
#395
b11100000 R
b1000 b
b10101010 j
#396
b11001111 R
b11000000 b
b10001000 j
#397
b1111 R
b100 b
#398
b11110 R
b10000000 b
b10101000 j
#399
b11111110 R
b0 b
b10001010 j
#400
b11111100 R
b1001110 b
b10001000 j
#401
b11110000 R
b0 b
#402
b11100001 R
b1000 b
b10101010 j
#403
b11001111 R
b11100000 b
b10001000 j
#404
b1111 R
b100 b
#405
b11100 R
b10000000 b
b10101000 j
#406
b11111100 R
b0 b
b10001010 j
#407
b1001110 b
b10001000 j
#408
b11110000 R
b0 b
#409
b11100001 R
b1000 b
b10101010 j
#410
b11001111 R
b11100000 b
b10001000 j
#411
b1111 R
b100 b
#412
b11111 R
b10000000 b
b10101000 j
#413
b11111110 R
b0 b
b10001010 j
#414
b11111100 R
b1001110 b
b10001000 j
#415
b11110000 R
b0 b
#416
b11100001 R
b1000 b
b10101010 j
#417
b11001111 R
b11100000 b
b10001000 j
#418
b1111 R
b100 b
#419
b11111 R
b10000000 b
b10101000 j
#420
b11111110 R
b0 b
b10001010 j
#421
b11111100 R
b1001110 b
b10001000 j
#422
b11110000 R
b0 b
#423
b11100001 R
b1000 b
b10101010 j
#424
b11001111 R
b11100000 b
b10001000 j
#425
b11111 R
b100 b
#426
b1111 R
b10000000 b
b10101000 j
#427
b11111110 R
b0 b
b10001010 j
#428
b11111100 R
b1001110 b
b10000000 j
#429
b11010000 R
b0 b
b10001000 j
#430
b11100001 R
b1000 b
b10101010 j
#431
b11001111 R
b11100000 b
b10001000 j
#432
b1111 R
b100 b
#433
b11111 R
b10000000 b
b10101000 j
#434
b11111110 R
b0 b
b10001010 j
#435
b11111100 R
b1001110 b
b10001000 j
#436
b11111110 R
b0 b
#437
b11100001 R
b1000 b
b10101010 j
#438
b11001111 R
b11100000 b
b1000 j
#439
b1111 R
b100 b
b10001000 j
#440
b10000000 b
b10101000 j
#441
b11111110 R
b0 b
b10001010 j
#442
b11111100 R
b1001110 b
b10000000 j
#443
b11110100 R
b0 b
b10001000 j
#444
b11100000 R
b1000 b
b10101010 j
#445
b11001111 R
b11100000 b
b10001000 j
#446
b1111 R
b100 b
#447
b10000000 b
b10101000 j
#448
b11111110 R
b0 b
b10001010 j
#449
b11111100 R
b1001110 b
b10001000 j
#450
b11110000 R
b0 b
#451
b11100001 R
b10101010 j
#452
b11001111 R
b11100000 b
b10001000 j
#453
b1111 R
b100 b
#454
b11111 R
b10000000 b
b10101000 j
#455
b11111110 R
b0 b
b10001010 j
#456
b11111100 R
b1000110 b
b10001000 j
#457
b11110000 R
b0 b
#458
b11100000 R
b10101010 j
#459
b11001111 R
b11100000 b
b10001000 j
#460
b1111 R
b100 b
#461
b10000000 b
b10101000 j
#462
b11111110 R
b0 b
b10001010 j
#463
b11111100 R
b1001110 b
b10001000 j
#464
b11110000 R
b0 b
#465
b11100000 R
b1000 b
b10101010 j
#466
b11001111 R
b11100000 b
b10001000 j
#467
b11111 R
b100 b
