dual_cam_display/ip_repo/axis_raw_unpack_1.0/hdl/.Xil/Vivado-127369-ubuntu/hw_ila_data_1/zip_work/waveform.vcd
$date
        2017-May-13 18:28:54
$end
$version
        Vivado v2016.4 (64-bit)
$end
$timescale
        1ps
$end
$scope module dut $end
$var reg 10 " i_system_wrapper/system_i/axis_raw_unpack_0/U0/pixel_d [9:0] $end
$var reg 1 , u_ila_1_axi_vdma_0_M_AXI_S2MM_AWBURST $end
$var reg 1 - u_ila_0_axi_vdma_0_M_AXI_S2MM_AWBURST_1 $end
$var reg 2 . i_system_wrapper/system_i/axi_vdma_0_M_AXI_S2MM_BRESP [1:0] $end
$var reg 32 0 i_system_wrapper/system_i/axi_vdma_0_M_AXI_S2MM_WDATA [31:0] $end
$var reg 1 P u_ila_0_axi_vdma_0_M_AXI_S2MM_AWCACHE_1 $end
$var reg 1 Q u_ila_0_axi_vdma_0_M_AXI_S2MM_AWCACHE $end
$var reg 1 R u_ila_0_axi_vdma_0_M_AXI_S2MM_AWBURST_2 $end
$var reg 1 S u_ila_0_axi_vdma_0_M_AXI_S2MM_AWBURST_3 $end
$var reg 1 T u_ila_0_axi_vdma_0_M_AXI_S2MM_AWBURST_4 $end
$var reg 1 U u_ila_0_axi_vdma_0_M_AXI_S2MM_AWBURST_5 $end
$var reg 1 V u_ila_0_axi_vdma_0_M_AXI_S2MM_AWBURST_6 $end
$var reg 10 W i_system_wrapper/system_i/axis_raw_unpack_0_M_AXIS_TDATA [9:0] $end
$var reg 6 a u_ila_1_axi_vdma_0_s2mm_frame_ptr_out [5:0] $end
$var reg 2 g u_ila_1_axi_vdma_0_axi_vdma_tstvec_1 [3:2] $end
$var reg 1 i u_ila_1_axi_vdma_0_axi_vdma_tstvec_2 $end
$var reg 1 j u_ila_1_axi_vdma_0_axi_vdma_tstvec_3 $end
$var reg 4 k u_ila_0_axi_vdma_0_axi_vdma_tstvec_1 [15:12] $end
$var reg 1 o u_ila_1_axi_vdma_0_axi_vdma_tstvec_4 $end
$var reg 1 p u_ila_1_axi_vdma_0_axi_vdma_tstvec_5 $end
$var reg 1 q u_ila_1_axi_vdma_0_axi_vdma_tstvec_6 $end
$var reg 2 r u_ila_1_axi_vdma_0_axi_vdma_tstvec_7 [32:31] $end
$var reg 4 t u_ila_0_axi_vdma_0_axi_vdma_tstvec [15:12] $end
$var reg 1 x u_ila_1_axi_vdma_0_axi_vdma_tstvec $end
$var reg 24 y i_system_wrapper/system_i/axis_raw_demosaic_0_M_AXIS_TDATA [23:0] $end
$var reg 1 3" u_ila_0_axi_vdma_0_M_AXI_S2MM_AWBURST_7 $end
$var reg 1 4" u_ila_1_axi_vdma_0_M_AXI_S2MM_AWSIZE $end
$var reg 1 5" u_ila_0_axi_vdma_0_M_AXI_S2MM_AWBURST_8 $end
$var reg 32 6" i_system_wrapper/system_i/axis_data_fifo_0_M_AXIS_TDATA [31:0] $end
$var reg 4 V" i_system_wrapper/system_i/axi_vdma_0_M_AXI_S2MM_WSTRB [3:0] $end
$var reg 32 Z" i_system_wrapper/system_i/axi_vdma_0_M_AXI_S2MM_AWADDR [31:0] $end
$var reg 5 z" u_ila_1_axi_vdma_0_M_AXI_S2MM_AWLEN [4:0] $end
$var reg 1 !# u_ila_0_axi_vdma_0_M_AXI_S2MM_AWBURST_9 $end
$var reg 1 "# u_ila_0_axi_vdma_0_M_AXI_S2MM_AWBURST_10 $end
$var reg 1 ## u_ila_0_axi_vdma_0_M_AXI_S2MM_AWBURST $end
$var reg 10 $# i_system_wrapper/system_i/axis_raw_unpack_0/U0/pixel_c [9:0] $end
$var reg 4 .# cam1_data_lp_n_IBUF [3:0] $end
$var reg 4 2# cam1_data_lp_p_IBUF [3:0] $end
$var reg 10 6# i_system_wrapper/system_i/axis_raw_unpack_0/U0/pixel_b [9:0] $end
$var reg 1 @# u_ila_1_axi_vdma_0_M_AXI_S2MM_AWREADY $end
$var reg 1 A# i_system_wrapper/system_i/axi_vdma_0_M_AXI_S2MM_AWVALID $end
$var reg 1 B# i_system_wrapper/system_i/axi_vdma_0_M_AXI_S2MM_BREADY $end
$var reg 1 C# i_system_wrapper/system_i/axi_vdma_0_M_AXI_S2MM_BVALID $end
$var reg 1 D# u_ila_1_axi_vdma_0_M_AXI_S2MM_WLAST $end
$var reg 1 E# i_system_wrapper/system_i/axi_vdma_0_M_AXI_S2MM_WREADY $end
$var reg 1 F# i_system_wrapper/system_i/axi_vdma_0_M_AXI_S2MM_WVALID $end
$var reg 1 G# u_ila_1_axi_vdma_0_s2mm_buffer_almost_full $end
$var reg 1 H# u_ila_1_axi_vdma_0_s2mm_buffer_full $end
$var reg 1 I# u_ila_1_axi_vdma_0_s2mm_fsync_out $end
$var reg 1 J# i_system_wrapper/system_i/axi_vdma_0_s2mm_introut $end
$var reg 1 K# u_ila_1_axi_vdma_0_s2mm_prmry_reset_out_n $end
$var reg 1 L# u_ila_1_axi_vdma_0_s2mm_prmtr_update $end
$var reg 1 M# i_system_wrapper/system_i/axis_data_fifo_0_M_AXIS_TLAST $end
$var reg 1 N# i_system_wrapper/system_i/axis_data_fifo_0_M_AXIS_TREADY $end
$var reg 1 O# i_system_wrapper/system_i/axis_data_fifo_0_M_AXIS_TUSER $end
$var reg 1 P# i_system_wrapper/system_i/axis_data_fifo_0_M_AXIS_TVALID $end
$var reg 1 Q# i_system_wrapper/system_i/axis_raw_demosaic_0_M_AXIS_TLAST $end
$var reg 1 R# i_system_wrapper/system_i/axis_raw_demosaic_0_M_AXIS_TREADY $end
$var reg 1 S# i_system_wrapper/system_i/axis_raw_demosaic_0_M_AXIS_TUSER $end
$var reg 1 T# i_system_wrapper/system_i/axis_raw_demosaic_0_M_AXIS_TVALID $end
$var reg 1 U# i_system_wrapper/system_i/axis_raw_unpack_0_M_AXIS_TLAST $end
$var reg 1 V# i_system_wrapper/system_i/axis_raw_unpack_0_M_AXIS_TREADY $end
$var reg 1 W# i_system_wrapper/system_i/axis_raw_unpack_0_M_AXIS_TUSER $end
$var reg 1 X# i_system_wrapper/system_i/axis_raw_unpack_0_M_AXIS_TVALID $end
$var reg 1 Y# \i_system_wrapper/system_i/csi2_d_phy_rx_0/U0/bits_gen[0].line_if_inst/data_s $end
$var reg 1 Z# \i_system_wrapper/system_i/csi2_d_phy_rx_0/U0/bits_gen[2].line_if_inst/data_s $end
$var reg 1 [# \i_system_wrapper/system_i/csi2_d_phy_rx_0/U0/bits_gen[3].line_if_inst/data_s $end
$var reg 1 \# \i_system_wrapper/system_i/csi2_d_phy_rx_0/U0/bits_gen[1].line_if_inst/data_s $end
$var reg 1 ]# u_ila_1_sys_cpu_resetn $end
$var reg 1 ^# i_system_wrapper/system_i/axis_raw_unpack_0/U0/transfer_valid_reg_n_0 $end
$var reg 1 _# _TRIGGER $end
$var reg 1 `# _WINDOW $end
$var reg 1 a# _GAP $end
$upscope $end
$enddefinitions $end
#0
$dumpvars
b1001011000 "
0,
0-
b0 .
b0 0
1P
1Q
0R
0S
0T
0U
0V
b101110110 W
b1 a
b0 g
0i
0j
b0 k
1o
0p
0q
b10 r
b0 t
0x
b11101001001001001110011 y
03"
04"
05"
b111010100101100101110100111110 6"
b0 V"
b0 Z"
b0 z"
0!#
0"#
0##
b101110111 $#
b1111 .#
b1111 2#
b11111010 6#
1@#
0A#
1B#
0C#
0D#
0E#
0F#
0G#
0H#
0I#
0J#
1K#
0L#
0M#
1N#
0O#
0P#
0Q#
1R#
0S#
0T#
0U#
1V#
0W#
0X#
1Y#
0Z#
1[#
0\#
1]#
1^#
0_#
1`#
0a#
$end
#1
0Y#
0[#
#2
1[#
#4
1Y#
#6
0Y#
0[#
#7
1[#
#8
1Y#
#9
0Y#
0[#
#10
1[#
#12
1Y#
#14
0Y#
0[#
#15
1[#
#16
1Y#
#17
0Y#
0[#
#20
b1011 2#
#27
b1010 2#
#28
b0 2#
#29
b1011 .#
b1000 2#
#30
b0 .#
b0 2#
#36
1Y#
#38
0Y#
#66
1Y#
1Z#
1[#
1\#
#68
0Z#
0\#
#69
0Y#
0[#
#70
1Y#
1Z#
1\#
#71
0Y#
0Z#
1[#
#72
1Z#
0\#
#73
1Y#
1\#
#74
0Z#
0\#
#75
1Z#
1\#
#76
0Y#
0Z#
0[#
#77
0\#
#78
1Z#
#79
1Y#
0Z#
#80
1Z#
1[#
#81
0[#
1\#
#82
0Y#
0Z#
1[#
#84
1Y#
0\#
#85
0[#
#87
1Z#
1[#
1\#
#88
0Y#
0Z#
0[#
0\#
#89
1Y#
1[#
1\#
#90
0[#
#91
1[#
0\#
#92
0Y#
#93
1\#
#94
0[#
0\#
#95
1Y#
1Z#
1[#
1\#
#99
0Y#
#100
b1111100 "
b110001000111110011010100011111 6"
b11010111 $#
b1111100 6#
1O#
1P#
0[#
0\#
1_#
#101
b100000100 "
b11101001 W
b110110001 $#
b11110111 6#
0N#
0P#
1X#
0Z#
#102
b1111100 W
0V#
1\#
#103
b100000111 "
b11110001100100001110111111000 6"
b110110011 $#
b11110110 6#
0O#
1P#
1Y#
1Z#
1[#
#104
b11100001001001001110011 y
1T#
1V#
0Y#
0[#
0\#
#105
b11010111 W
b10 g
0T#
0V#
1Y#
1[#
1\#
#106
b0 g
0[#
0\#
#107
b11100000100111110001011 y
1T#
1V#
0Z#
#108
b1111100 W
b10 g
0T#
0V#
0Y#
#109
b0 g
1Y#
1Z#
#110
b11010110100111110001011 y
1T#
1V#
0Y#
0Z#
#111
b10 g
1N#
0T#
0V#
0X#
1Y#
1\#
#112
b11101111 "
b11101000 W
b0 g
1q
b110011000111101111001000111011 6"
b1111011 $#
b11001000 6#
0N#
1W#
1X#
1Z#
1[#
#113
0q
b11010110100111101101101 y
1T#
1V#
0Y#
#114
b11110110 W
b10 g
1S#
0T#
0V#
0W#
1Y#
0\#
#115
b0 g
1q
0Y#
0Z#
#116
0q
b11100000100111101101101 y
1T#
1V#
1\#
#117
b110110011 W
b10 g
0S#
0T#
0V#
0[#
0\#
#118
b0 g
1q
1[#
#119
0q
b11100000111010010001000 y
1T#
1V#
1Y#
1Z#
1\#
#120
b100000111 W
b10 g
0T#
0V#
0Y#
#121
b0 g
1q
1Y#
0Z#
0\#
#122
0q
b100111110111010010001000 y
1T#
1V#
#123
b10 g
1N#
0T#
0V#
0X#
0Y#
1Z#
0[#
1\#
#124
b11001001 "
b1110110 W
b0 g
1q
b100000010100010011001000100000 6"
b10000001 $#
b11001100 6#
0N#
1X#
0Z#
0\#
#125
0q
b100111110111100001101101 y
1T#
1V#
1Y#
1Z#
1[#
#126
b11001000 W
b10 g
0T#
0V#
0Y#
0Z#
0[#
#127
b0 g
1q
1Y#
1Z#
1[#
#128
0q
b10011010111100001101101 y
1T#
1V#
1\#
#129
b1111011 W
b10 g
0T#
0V#
0Z#
0\#
#130
b0 g
1q
1Z#
#131
0q
b10011010110011110001000 y
1T#
1V#
0Z#
0[#
#132
b11101111 W
b10 g
0T#
0V#
#133
b0 g
1q
0Y#
#134
0q
b10011110110011110001000 y
1T#
1V#
1[#
1\#
#135
b10 g
1N#
0T#
0V#
0X#
1Y#
1Z#
0[#
#136
b11010101 "
b1111001 W
b0 g
1q
b1100001001101010001110100110100 6"
b1110110 $#
b11010000 6#
0N#
1X#
0Y#
1[#
#137
0q
b10011110111001001101110 y
1T#
1V#
1Y#
0\#
#138
b11001100 W
b10 g
0T#
0V#
0Y#
0Z#
#139
b0 g
1q
1Z#
#140
0q
b10011100111001001101110 y
1T#
1V#
0Z#
0[#
#141
b10000001 W
b10 g
0T#
0V#
1Y#
1[#
1\#
#142
b0 g
1q
0[#
0\#
#143
0q
b10011100110100001101100 y
1T#
1V#
0Y#
1\#
#144
b11001001 W
b10 g
0T#
0V#
1Y#
1[#
0\#
#145
b0 g
1q
1\#
#146
0q
b10100010110100001101100 y
1T#
1V#
1Z#
#147
b10 g
1N#
0T#
0V#
0X#
0Z#
0\#
#148
b100000100 "
b10000001 W
b0 g
1q
b110100001000010011001100100001 6"
b1111010 $#
b11001100 6#
1X#
0Y#
0[#
0^#
#149
b11010011 "
0q
b10100010110011110000100 y
b11111001101000010000111011000 6"
b10000101 $#
b11001110 6#
0N#
1T#
1V#
1[#
1^#
#150
b11010000 W
b10 g
0T#
0V#
1Y#
1Z#
1\#
#151
b0 g
1q
0Y#
0Z#
#152
0q
1T#
1V#
1Y#
0[#
0\#
#153
b1110110 W
b10 g
0T#
0V#
0Y#
1Z#
1[#
1\#
#154
b0 g
1q
#155
0q
b10100010110100101101000 y
1T#
1V#
1Y#
#156
b11010101 W
b10 g
0T#
0V#
0Y#
0Z#
0[#
0\#
#157
b0 g
1q
1Y#
#158
0q
b10011010110100101101000 y
1T#
1V#
0Y#
1Z#
#159
b10 g
1N#
0T#
0V#
0X#
0Z#
1[#
1\#
#160
b11010010 "
b10000100 W
b0 g
1q
b111000001000011010100000110100 6"
b1111110 $#
b11010010 6#
0N#
1X#
1Y#
1Z#
0\#
#161
0q
b10011010110101101101110 y
1T#
1V#
0[#
1\#
#162
b11001110 W
b10 g
0T#
0V#
1[#
0\#
#163
b0 g
1q
0Y#
0[#
#164
0q
b10100100110101101101110 y
1T#
1V#
1Y#
0Z#
1[#
1\#
#165
b10000101 W
b10 g
0T#
0V#
0Y#
0[#
0\#
#166
b0 g
1q
1Y#
1\#
#167
0q
b10100100110100101101010 y
1T#
1V#
#168
b11010011 W
b10 g
0T#
0V#
0Y#
1[#
#169
b0 g
1q
0\#
#170
0q
1T#
1V#
1Y#
#171
b10 g
1N#
0T#
0V#
0X#
1Z#
1\#
#172
b11010111 "
b10000100 W
b0 g
1q
b100001110000000011010100100000 6"
b10000000 $#
b11100000 6#
0N#
1X#
0Y#
0Z#
0[#
0\#
#173
0q
b10100100110101011001001 y
1T#
1V#
1Y#
1Z#
1\#
#174
b11010010 W
b10 g
0T#
0V#
0Y#
0Z#
0\#
#175
b0 g
1q
1Y#
#176
0q
1T#
1V#
1Z#
#177
b1111110 W
b10 g
0T#
0V#
1[#
#178
b0 g
1q
0Y#
#179
0q
b10100100110101001100101 y
1T#
1V#
0[#
1\#
#180
b11010010 W
b10 g
0T#
0V#
1Y#
0Z#
1[#
#181
b0 g
1q
0Y#
1Z#
0[#
0\#
#182
0q
b10100000110101001100101 y
1T#
1V#
0Z#
#183
b10 g
1N#
0T#
0V#
0X#
1[#
#184
b11011010 "
b10000100 W
b0 g
1q
b10101000001101100010000100110101 6"
b10000110 $#
b11010110 6#
0N#
1X#
1Z#
#185
0q
b10100000110101010000011 y
1T#
1V#
1\#
#186
b11100000 W
b10 g
0T#
0V#
#187
b0 g
1q
1Y#
#188
0q
b10100100110101010000011 y
1T#
1V#
0Y#
0Z#
0[#
0\#
#189
b10000000 W
b10 g
0T#
0V#
1Y#
1Z#
1[#
1\#
#190
b0 g
1q
0Y#
0Z#
0[#
0\#
#191
0q
b10100100110111011001011 y
1T#
1V#
1Y#
1Z#
1\#
#192
b11010111 W
b10 g
0T#
0V#
0Y#
#193
b0 g
1q
1Y#
1[#
#194
0q
b10100000110111011001011 y
1T#
1V#
0Y#
0Z#
0[#
#195
b10 g
1N#
0T#
0V#
0X#
1Z#
#196
b11010000 "
b10000100 W
b0 g
1q
b110101001000000011010000100010 6"
b1111110 $#
b11100000 6#
1X#
1Y#
1[#
0^#
#197
b11010100 "
0q
b10100000110101101101010 y
b100100001101100010001000110100 6"
b10000011 $#
b11010001 6#
0N#
1T#
1V#
0Y#
0Z#
0[#
0\#
1^#
#198
b11010110 W
b10 g
0T#
0V#
#199
b0 g
1q
1Y#
#200
0q
b10100100110101101101010 y
1T#
1V#
1Z#
1\#
#201
b10000110 W
b10 g
0T#
0V#
0Z#
1[#
0\#
#202
b0 g
1q
1Z#
0[#
1\#
#203
0q
b10100100110101101111011 y
1T#
1V#
0Z#
1[#
#204
b11011010 W
b10 g
0T#
0V#
0Y#
1Z#
0[#
0\#
#205
b0 g
1q
1Y#
1\#
#206
0q
1T#
1V#
0Y#
0Z#
1[#
0\#
#207
b10 g
1N#
0T#
0V#
0X#
1\#
#208
b11011010 "
b10001000 W
b0 g
1q
b110111000111111011110100110110 6"
b10010011 $#
b11011011 6#
0N#
1X#
#209
0q
b10100100110110001111101 y
1T#
1V#
1Z#
0\#
#210
b11010001 W
b10 g
0T#
0V#
0Z#
1\#
#211
b0 g
1q
1Y#
0\#
#212
0q
b10100110110110001111101 y
1T#
1V#
1Z#
1\#
#213
b10000011 W
b10 g
0T#
0V#
0Y#
0Z#
0[#
#214
b0 g
1q
1Z#
1[#
#215
0q
b10100110110101001111101 y
1T#
1V#
0[#
#216
b11010100 W
b10 g
0T#
0V#
1Y#
#217
b0 g
1q
#218
0q
b10100010110101001111101 y
1T#
1V#
0Y#
1[#
0\#
#219
b10 g
1N#
0T#
0V#
0X#
1\#
#220
b11010010 "
b10001001 W
b0 g
1q
b100001101010110011010000100000 6"
b10000010 $#
b11011110 6#
0N#
1X#
0Z#
0[#
0\#
#221
0q
b10100010110101001111100 y
1T#
1V#
1Y#
1[#
1\#
#222
b11011011 W
b10 g
0T#
0V#
0Y#
0[#
0\#
#223
b0 g
1q
1Z#
#224
0q
b10100110110101001111100 y
1T#
1V#
1Y#
0Z#
#225
b10010011 W
b10 g
0T#
0V#
0Y#
1[#
1\#
#226
b0 g
1q
1Y#
0[#
#227
0q
b10100110110110001111011 y
1T#
1V#
1Z#
#228
b11011010 W
b10 g
0T#
0V#
0Z#
#229
b0 g
1q
1[#
0\#
#230
0q
b10101110110110001111011 y
1T#
1V#
0Y#
0[#
#231
b10 g
1N#
0T#
0V#
0X#
1\#
#232
b11101100 "
b1111111 W
b0 g
1q
b100000001110110010010100111010 6"
b10010110 $#
b11101000 6#
0N#
1X#
1Y#
1Z#
1[#
#233
0q
b10101110110110001100110 y
1T#
1V#
0Y#
#234
b11011110 W
b10 g
0T#
0V#
0Z#
0\#
#235
b0 g
1q
#236
0q
b10100000110110001100110 y
1T#
1V#
0[#
#237
b10000010 W
b10 g
0T#
0V#
1Y#
1Z#
1[#
#238
b0 g
1q
0Z#
1\#
#239
0q
b10100000110110101111011 y
1T#
1V#
1Z#
#240
b11010010 W
b10 g
0T#
0V#
0[#
#241
b0 g
1q
0Z#
1[#
#242
0q
b10100010110110101111011 y
1T#
1V#
0Y#
1Z#
#243
b10 g
1N#
0T#
0V#
0X#
1Y#
0Z#
#244
b11010100 "
b10000100 W
b0 g
1q
b111100001000110011100000100100 6"
b10010010 $#
b11011101 6#
1X#
0Y#
1Z#
0\#
0^#
#245
b11110001 "
0q
b10100010110101001111001 y
b100010001101110010001001010001 6"
b10001101 $#
b11100000 6#
0N#
1T#
1V#
1\#
1^#
#246
b11101000 W
b10 g
0T#
0V#
0[#
0\#
#247
b0 g
1q
1[#
1\#
#248
0q
b10100100110101001111001 y
1T#
1V#
1Y#
0Z#
0\#
#249
b10010110 W
b10 g
0T#
0V#
#250
b0 g
1q
0Y#
#251
0q
b10100100111000001100010 y
1T#
1V#
1Y#
#252
b11101100 W
b10 g
0T#
0V#
0Y#
0[#
#253
b0 g
1q
1Y#
1Z#
1[#
1\#
#254
0q
b10110000111000001100010 y
1T#
1V#
0Y#
0Z#
0[#
0\#
#255
b10 g
1N#
0T#
0V#
0X#
#256
b11011010 "
b10010001 W
b0 g
1q
b111000001001001001100000110110 6"
b10001001 $#
b11011110 6#
0N#
1X#
1Z#
#257
0q
b10110000111000101011110 y
1T#
1V#
0Z#
#258
b11100000 W
b10 g
0T#
0V#
1Z#
#259
b0 g
1q
1Y#
1[#
1\#
#260
0q
b10101100111000101011110 y
1T#
1V#
0Y#
0Z#
0[#
#261
b10001101 W
b10 g
0T#
0V#
0\#
#262
b0 g
1q
1\#
#263
0q
b10101100110111001011110 y
1T#
1V#
0\#
#264
b11110001 W
b10 g
0T#
0V#
1[#
1\#
#265
b0 g
1q
#266
0q
b10101010110111001011110 y
1T#
1V#
0[#
#267
b10 g
1N#
0T#
0V#
0X#
1Y#
1[#
#268
b11011110 "
b10001000 W
b0 g
1q
b100001101111000011011100100010 6"
b10001011 $#
b11100011 6#
0N#
1X#
0[#
0\#
#269
0q
b10101010111001001011111 y
1T#
1V#
1Z#
1[#
#270
b11011110 W
b10 g
0T#
0V#
0Y#
0Z#
0[#
#271
b0 g
1q
1[#
1\#
#272
0q
b10100110111001001011111 y
1T#
1V#
0[#
#273
b10001001 W
b10 g
0T#
0V#
1Y#
1Z#
1[#
0\#
#274
b0 g
1q
0Y#
0Z#
1\#
#275
0q
b10100110110110101100000 y
1T#
1V#
1Z#
#276
b11011010 W
b10 g
0T#
0V#
0Z#
#277
b0 g
1q
0[#
0\#
#278
0q
1T#
1V#
1[#
#279
b10 g
1N#
0T#
0V#
0X#
1Y#
1Z#
0[#
#280
b11100110 "
b10010000 W
b0 g
1q
b10111111001110010010001100111000 6"
b10001111 $#
0N#
1X#
0Y#
#281
0q
b10100110110110001010011 y
1T#
1V#
1Y#
1[#
1\#
#282
b11100011 W
b10 g
0T#
0V#
0Y#
#283
b0 g
1q
1Y#
#284
0q
b10101100110110001010011 y
1T#
1V#
0Y#
0Z#
0[#
0\#
#285
b10001011 W
b10 g
0T#
0V#
1[#
1\#
#286
b0 g
1q
0\#
#287
0q
b10101100110111001100010 y
1T#
1V#
1Z#
#288
b11011110 W
b10 g
0T#
0V#
0Z#
1\#
#289
b0 g
1q
1Y#
1Z#
0[#
#290
0q
b10101000110111001100010 y
1T#
1V#
0Y#
0Z#
1[#
#291
b10 g
1N#
0T#
0V#
0X#
1Y#
1Z#
#292
b11110000 "
b10000111 W
b0 g
1q
b111101001000110011111000100100 6"
b10001010 $#
b11100001 6#
1X#
0Y#
0Z#
0[#
0\#
0^#
#293
b11110111 "
0q
b10101000110110101010010 y
b100110001110100010000011111001 6"
b10001111 $#
b11111010 6#
0N#
1T#
1V#
1\#
1^#
#294
b11100011 W
b10 g
0T#
0V#
1Y#
1[#
0\#
#295
b0 g
1q
0Y#
1Z#
0[#
1\#
#296
0q
b10100110110110101010010 y
1T#
1V#
0Z#
1[#
0\#
#297
b10001111 W
b10 g
0T#
0V#
1Y#
1Z#
1\#
#298
b0 g
1q
0[#
#299
0q
b10100110110111001100111 y
1T#
1V#
0\#
#300
b11100110 W
b10 g
0T#
0V#
0Y#
0Z#
#301
b0 g
1q
1Z#
1\#
#302
0q
b10101010110111001100111 y
1T#
1V#
1Y#
0Z#
0\#
#303
b10 g
1N#
0T#
0V#
0X#
1Z#
1[#
1\#
#304
b11100000 "
b10010001 W
b0 g
1q
b111010001001100000101100111000 6"
b10011000 $#
b11101010 6#
0N#
1X#
0Z#
#305
0q
b10101010110111101010100 y
1T#
1V#
1Z#
#306
b11111010 W
b10 g
0T#
0V#
0Z#
0\#
#307
b0 g
1q
#308
0q
b10101100110111101010100 y
1T#
1V#
0Y#
#309
b10001111 W
b10 g
0T#
0V#
0[#
#310
b0 g
1q
1Z#
#311
0q
b10101100111010101100110 y
1T#
1V#
0Z#
1[#
1\#
#312
b11110111 W
b10 g
0T#
0V#
1Z#
0[#
0\#
#313
b0 g
1q
1Y#
1[#
1\#
#314
0q
b10101010111010101100110 y
1T#
1V#
0Z#
0[#
0\#
#315
b10 g
1N#
0T#
0V#
0X#
0Y#
1Z#
#316
b11101001 "
b10000011 W
b0 g
1q
b100011011110000011101000100011 6"
b10001111 $#
0N#
1X#
0Z#
#317
0q
b10101010111010001010100 y
1T#
1V#
1Z#
1[#
1\#
#318
b11101010 W
b10 g
0T#
0V#
0Z#
0[#
0\#
#319
b0 g
1q
1Z#
1\#
#320
0q
b10100010111010001010100 y
1T#
1V#
1Y#
1[#
0\#
#321
b10011000 W
b10 g
0T#
0V#
0[#
1\#
#322
b0 g
1q
0\#
#323
0q
b10100010111000001100110 y
1T#
1V#
1\#
#324
b11100000 W
b10 g
0T#
0V#
0Z#
0\#
#325
b0 g
1q
#326
0q
b10110000111000001100110 y
1T#
1V#
0Y#
1[#
#327
b10 g
1N#
0T#
0V#
0X#
1\#
#328
b11010100 "
b10011000 W
b0 g
1q
b101111001101010010001100111000 6"
b10001110 $#
b11100011 6#
0N#
1X#
1Z#
0\#
#329
0q
b10110000110111001010100 y
1T#
1V#
0Z#
1\#
#330
b11101010 W
b10 g
0T#
0V#
1Y#
#331
b0 g
1q
0Y#
0[#
#332
0q
1T#
1V#
0\#
#333
b10001111 W
b10 g
0T#
0V#
#334
b0 g
1q
#335
0q
b10110000111000001101001 y
1T#
1V#
1Y#
1[#
1\#
#336
b11101001 W
b10 g
0T#
0V#
1Z#
0[#
0\#
#337
b0 g
1q
1[#
1\#
#338
0q
b10101010111000001101001 y
1T#
1V#
0[#
#339
b10 g
1N#
0T#
0V#
0X#
0Y#
#340
b11110100 "
b10001111 W
b0 g
1q
b110111001000110011010100100010 6"
b10011010 $#
b11101000 6#
1X#
0Z#
0\#
0^#
#341
b11011110 "
0q
b10101010111000001010110 y
b11111001110000010000010011111 6"
b10001101 $#
b11010111 6#
0N#
1T#
1V#
1Z#
1^#
#342
b11100011 W
b10 g
0T#
0V#
1[#
#343
b0 g
1q
0Z#
#344
0q
1T#
1V#
1Z#
#345
b10001110 W
b10 g
0T#
0V#
1Y#
1\#
#346
b0 g
1q
0Y#
0\#
#347
0q
b10101010110111001101010 y
1T#
1V#
1\#
#348
b11010100 W
b10 g
0T#
0V#
1Y#
0Z#
0[#
0\#
#349
b0 g
1q
0Y#
1\#
#350
0q
1T#
1V#
0\#
#351
b10 g
1N#
0T#
0V#
0X#
1\#
#352
b11100010 "
b10001011 W
b0 g
1q
b110110001000011010010000111000 6"
b1111110 $#
b11100001 6#
0N#
1X#
0\#
#353
0q
b10101010110101001010111 y
1T#
1V#
1Y#
1\#
#354
b11010111 W
b10 g
0T#
0V#
#355
b0 g
1q
1Z#
1[#
#356
0q
b10101000110101001010111 y
1T#
1V#
0Z#
0\#
#357
b10001101 W
b10 g
0T#
0V#
0Y#
0[#
#358
b0 g
1q
1Z#
1\#
#359
0q
b10101000110101101101101 y
1T#
1V#
0Z#
0\#
#360
b11011110 W
b10 g
0T#
0V#
1Y#
1\#
#361
b0 g
1q
1Z#
1[#
#362
0q
b10101010110101101101101 y
1T#
1V#
0\#
#363
b10 g
1N#
0T#
0V#
0X#
1\#
#364
b11011001 "
b10000000 W
b0 g
1q
b11101011100010011011000100000 6"
b10000011 $#
b11011000 6#
0N#
1X#
0Y#
0Z#
0[#
0\#
#365
0q
b10101010110110101010100 y
1T#
1V#
1Y#
1Z#
1[#
#366
b11100001 W
b10 g
0T#
0V#
0Y#
0Z#
#367
b0 g
1q
1Z#
#368
0q
b10100000110110101010100 y
1T#
1V#
0Z#
0[#
1\#
#369
b1111110 W
b10 g
0T#
0V#
1Y#
1Z#
1[#
#370
b0 g
1q
0[#
#371
0q
b10100000110111001101011 y
1T#
1V#
0Y#
0Z#
1[#
0\#
#372
b11100010 W
b10 g
0T#
0V#
1Y#
1\#
#373
b0 g
1q
0Y#
0[#
#374
0q
1T#
1V#
#375
b10 g
1N#
0T#
0V#
0X#
0\#
#376
b10000101 W
b0 g
1q
b1110011001101100010001100110100 6"
b10001111 $#
b11010000 6#
0N#
1X#
1[#
1\#
#377
0q
b10100000110111001010010 y
1T#
1V#
1Z#
0\#
#378
b11011000 W
b10 g
0T#
0V#
1Y#
1\#
#379
b0 g
1q
#380
0q
b10100100110111001010010 y
1T#
1V#
0Y#
0Z#
0[#
0\#
#381
b10000011 W
b10 g
0T#
0V#
1Y#
#382
b0 g
1q
0Y#
#383
0q
b10100100110101101101010 y
1T#
1V#
1[#
#384
b11011001 W
b10 g
0T#
0V#
0[#
1\#
#385
b0 g
1q
1[#
#386
0q
b10100010110101101101010 y
1T#
1V#
1Y#
#387
b10 g
1N#
0T#
0V#
0X#
1Z#
0[#
0\#
#388
b11011100 "
b1110111 W
b0 g
1q
b110011000111000011001000100000 6"
b1111110 $#
b11011000 6#
1X#
1[#
0^#
#389
b11001111 "
0q
b10100010110110001011000 y
b11111001100110001111011111101 6"
b1110011 $#
b11001011 6#
0N#
1T#
1V#
0Y#
0Z#
1^#
#390
b11010000 W
b10 g
0T#
0V#
1Y#
0[#
1\#
#391
b0 g
1q
0Y#
0\#
#392
0q
b10011010110110001011000 y
1T#
1V#
1Y#
1Z#
1\#
#393
b10001111 W
b10 g
0T#
0V#
0Y#
1[#
0\#
#394
b0 g
1q
1Y#
1\#
#395
0q
b10011010110100101101010 y
1T#
1V#
#396
b11011001 W
b10 g
0T#
0V#
0Y#
0Z#
0[#
#397
b0 g
1q
1Z#
#398
0q
b10101010110100101101010 y
1T#
1V#
0\#
#399
b10 g
1N#
0T#
0V#
0X#
1Y#
#400
b1000101 "
b10000001 W
b0 g
1q
b110100000111010101001000010001 6"
b1111101 $#
b11001100 6#
0N#
1X#
0Y#
0Z#
#401
0q
b10101010110110001011000 y
1T#
1V#
1Z#
#402
b11001011 W
b10 g
0T#
0V#
1Y#
1[#
1\#
#403
b0 g
1q
0Z#
#404
0q
b10100010110110001011000 y
1T#
1V#
1Z#
#405
b1110011 W
b10 g
0T#
0V#
0Z#
0[#
0\#
#406
b0 g
1q
1Z#
1[#
1\#
#407
0q
b10100010110100001101110 y
1T#
1V#
0Y#
0Z#
0[#
#408
b11001111 W
b10 g
0T#
0V#
1Y#
1Z#
1[#
#409
b0 g
1q
0Y#
0[#
#410
0q
b10011000110100001101110 y
1T#
1V#
1[#
#411
b10 g
1N#
0T#
0V#
0X#
1Y#
0[#
#412
b11000101 "
b1111010 W
b0 g
1q
b11111010101100011000100011111 6"
b11010001 6#
0N#
1X#
0Y#
0Z#
0\#
#413
0q
b10011000110100101011000 y
1T#
1V#
1[#
1\#
