dual_cam_display/ip_repo/axis_raw_unpack_1.0/hdl/.Xil/Vivado-127369-ubuntu/hw_ila_data_2/zip_work/waveform.vcd
$date
        2017-May-13 18:48:19
$end
$version
        Vivado v2016.4 (64-bit)
$end
$timescale
        1ps
$end
$scope module dut $end
$var reg 1 " u_ila_0_pixel_counter_Q $end
$var reg 15 # i_system_wrapper/system_i/pixel_counter_Q [15:1] $end
$var reg 8 2 i_system_wrapper/system_i/csi2_d_phy_rx_0_RX_MIPI_PPI_DL3_RXDATAHS [7:0] $end
$var reg 8 : i_system_wrapper/system_i/csi2_d_phy_rx_0_RX_MIPI_PPI_DL2_RXDATAHS [7:0] $end
$var reg 32 B i_system_wrapper/system_i/csi_to_axis_0_m_axis_tdata [31:0] $end
$var reg 11 b u_ila_0_axis_data_fifo_0_axis_data_count [10:0] $end
$var reg 1 m u_ila_1_axis_data_fifo_0_axis_data_count_1 $end
$var reg 1 n u_ila_1_axis_data_fifo_0_axis_data_count_2 $end
$var reg 1 o u_ila_1_axis_data_fifo_0_axis_data_count_3 $end
$var reg 1 p u_ila_1_axis_data_fifo_0_axis_data_count_4 $end
$var reg 1 q u_ila_1_axis_data_fifo_0_axis_data_count_5 $end
$var reg 1 r u_ila_1_axis_data_fifo_0_axis_data_count_6 $end
$var reg 1 s u_ila_1_axis_data_fifo_0_axis_data_count_7 $end
$var reg 1 t u_ila_1_axis_data_fifo_0_axis_data_count_8 $end
$var reg 1 u u_ila_1_axis_data_fifo_0_axis_data_count_9 $end
$var reg 1 v u_ila_1_axis_data_fifo_0_axis_data_count_10 $end
$var reg 1 w u_ila_1_axis_data_fifo_0_axis_data_count_11 $end
$var reg 1 x u_ila_1_axis_data_fifo_0_axis_data_count_12 $end
$var reg 1 y u_ila_1_axis_data_fifo_0_axis_data_count_13 $end
$var reg 1 z u_ila_1_axis_data_fifo_0_axis_data_count_14 $end
$var reg 1 { u_ila_1_axis_data_fifo_0_axis_data_count_15 $end
$var reg 1 | u_ila_1_axis_data_fifo_0_axis_data_count_16 $end
$var reg 1 } u_ila_1_axis_data_fifo_0_axis_data_count_17 $end
$var reg 1 ~ u_ila_1_axis_data_fifo_0_axis_data_count_18 $end
$var reg 1 !" u_ila_1_axis_data_fifo_0_axis_data_count_19 $end
$var reg 1 "" u_ila_1_axis_data_fifo_0_axis_data_count_20 $end
$var reg 1 #" u_ila_1_axis_data_fifo_0_axis_data_count $end
$var reg 1 $" u_ila_0_line_counter_Q $end
$var reg 15 %" i_system_wrapper/system_i/line_counter_Q [15:1] $end
$var reg 8 4" i_system_wrapper/system_i/csi2_d_phy_rx_0_RX_MIPI_PPI_DL1_RXDATAHS [7:0] $end
$var reg 8 <" i_system_wrapper/system_i/csi2_d_phy_rx_0_RX_MIPI_PPI_DL0_RXDATAHS [7:0] $end
$var reg 16 D" i_system_wrapper/system_i/csi_to_axis_0/U0/merge_data [15:0] $end
$var reg 1 T" u_ila_1_transfer_cnt_1 $end
$var reg 1 U" i_system_wrapper/system_i/csi_to_axis_0/U0/parser_inst/transfer_cnt $end
$var reg 13 V" u_ila_1_transfer_cnt [15:3] $end
$var reg 32 c" i_system_wrapper/system_i/csi_to_axis_0/U0/data_in [31:0] $end
$var reg 1 %# i_system_wrapper/system_i/csi_to_axis_0/U0/parser_inst/packet_size_1 $end
$var reg 1 &# u_ila_1_packet_size $end
$var reg 14 '# i_system_wrapper/system_i/csi_to_axis_0/U0/parser_inst/packet_size [15:2] $end
$var reg 1 5# u_ila_0_axis_data_fifo_0_s_axis_tready $end
$var reg 1 6# u_ila_1_csi2_d_phy_rx_0_RX_MIPI_PPI_CL_ENABLE_1 $end
$var reg 1 7# u_ila_0_csi2_d_phy_rx_0_RX_MIPI_PPI_CL_RXCLKACTIVEHS $end
$var reg 1 8# u_ila_0_csi2_d_phy_rx_0_RX_MIPI_PPI_CL_STOPSTATE $end
$var reg 1 9# u_ila_1_csi2_d_phy_rx_0_RX_MIPI_PPI_CL_ENABLE_2 $end
$var reg 1 :# u_ila_1_csi2_d_phy_rx_0_RX_MIPI_PPI_DL0_RXACTIVEHS_1 $end
$var reg 1 ;# u_ila_0_csi2_d_phy_rx_0_RX_MIPI_PPI_DL0_RXSYNCHS $end
$var reg 1 <# u_ila_1_csi2_d_phy_rx_0_RX_MIPI_PPI_DL0_RXACTIVEHS $end
$var reg 1 =# u_ila_1_csi2_d_phy_rx_0_RX_MIPI_PPI_CL_ENABLE_3 $end
$var reg 1 ># u_ila_1_csi2_d_phy_rx_0_RX_MIPI_PPI_DL1_RXACTIVEHS_1 $end
$var reg 1 ?# u_ila_0_csi2_d_phy_rx_0_RX_MIPI_PPI_DL1_RXSYNCHS $end
$var reg 1 @# u_ila_1_csi2_d_phy_rx_0_RX_MIPI_PPI_DL1_RXACTIVEHS $end
$var reg 1 A# u_ila_1_csi2_d_phy_rx_0_RX_MIPI_PPI_CL_ENABLE_4 $end
$var reg 1 B# u_ila_1_csi2_d_phy_rx_0_RX_MIPI_PPI_DL2_RXACTIVEHS_1 $end
$var reg 1 C# u_ila_0_csi2_d_phy_rx_0_RX_MIPI_PPI_DL2_RXSYNCHS $end
$var reg 1 D# u_ila_1_csi2_d_phy_rx_0_RX_MIPI_PPI_DL2_RXACTIVEHS $end
$var reg 1 E# u_ila_1_csi2_d_phy_rx_0_RX_MIPI_PPI_CL_ENABLE $end
$var reg 1 F# u_ila_1_csi2_d_phy_rx_0_RX_MIPI_PPI_DL3_RXACTIVEHS_1 $end
$var reg 1 G# u_ila_0_csi2_d_phy_rx_0_RX_MIPI_PPI_DL3_RXSYNCHS $end
$var reg 1 H# u_ila_1_csi2_d_phy_rx_0_RX_MIPI_PPI_DL3_RXACTIVEHS $end
$var reg 1 I# i_system_wrapper/system_i/csi_to_axis_0_m_axis_tlast $end
$var reg 1 J# i_system_wrapper/system_i/csi_to_axis_0_m_axis_tuser $end
$var reg 1 K# i_system_wrapper/system_i/csi_to_axis_0_m_axis_tvalid $end
$var reg 1 L# i_system_wrapper/system_i/csi_to_axis_0/U0/lane_merge_inst_n_9 $end
$var reg 1 M# i_system_wrapper/system_i/csi_to_axis_0/U0/lane_merge_inst_n_10 $end
$var reg 1 N# i_system_wrapper/system_i/csi_to_axis_0/U0/lane_merge_inst_n_11 $end
$var reg 1 O# i_system_wrapper/system_i/csi_to_axis_0/U0/lane_merge_inst_n_12 $end
$var reg 1 P# i_system_wrapper/system_i/csi_to_axis_0/U0/lane_merge_inst_n_13 $end
$var reg 1 Q# i_system_wrapper/system_i/csi_to_axis_0/U0/lane_merge_inst_n_14 $end
$var reg 1 R# i_system_wrapper/system_i/csi_to_axis_0/U0/lane_merge_inst_n_15 $end
$var reg 1 S# i_system_wrapper/system_i/csi_to_axis_0/U0/lane_merge_inst_n_16 $end
$var reg 1 T# i_system_wrapper/system_i/csi_to_axis_0/U0/lane_merge_inst_n_17 $end
$var reg 1 U# i_system_wrapper/system_i/csi_to_axis_0/U0/lane_merge_inst_n_18 $end
$var reg 1 V# i_system_wrapper/system_i/csi_to_axis_0/U0/lane_merge_inst_n_19 $end
$var reg 1 W# i_system_wrapper/system_i/csi_to_axis_0/U0/lane_merge_inst_n_20 $end
$var reg 1 X# i_system_wrapper/system_i/csi_to_axis_0/U0/lane_merge_inst_n_21 $end
$var reg 1 Y# i_system_wrapper/system_i/csi_to_axis_0/U0/lane_merge_inst_n_22 $end
$var reg 1 Z# i_system_wrapper/system_i/csi_to_axis_0/U0/lane_merge_inst_n_23 $end
$var reg 1 [# i_system_wrapper/system_i/csi_to_axis_0/U0/lane_merge_inst_n_24 $end
$var reg 1 \# i_system_wrapper/system_i/csi_to_axis_0/U0/merge_valid $end
$var reg 1 ]# u_ila_0_proc_sys_reset_0_peripheral_aresetn $end
$var reg 1 ^# i_system_wrapper/system_i/csi_to_axis_0/U0/parser_inst/start_of_frame $end
$var reg 1 _# _TRIGGER $end
$var reg 1 `# _WINDOW $end
$var reg 1 a# _GAP $end
$upscope $end
$enddefinitions $end
#0
$dumpvars
0"
b0 #
b111010 2
b0 :
b11111111000000000000000011111111 B
b10 b
0m
0n
0o
0p
0q
0r
0s
0t
0u
0v
0w
0x
0y
0z
0{
0|
0}
0~
0!"
0""
0#"
0$"
b101111100 %"
b0 4"
b111010 <"
b11111111 D"
0T"
1U"
b11010001 V"
b11111111000000000000000011111111 c"
1%#
0&#
b10100100111011 '#
15#
16#
17#
08#
19#
0:#
0;#
0<#
1=#
0>#
0?#
0@#
1A#
0B#
0C#
0D#
1E#
0F#
0G#
0H#
0I#
0J#
0K#
1L#
1M#
1N#
1O#
1P#
1Q#
1R#
1S#
0T#
0U#
0V#
0W#
0X#
0Y#
0Z#
0[#
0\#
1]#
1^#
0_#
1`#
0a#
$end
#1
b11111000 2
b1 4"
b10101010 <"
#2
b11111001 2
b10011100 4"
b10110000 <"
#3
b10100011 2
b0 4"
b10101000 <"
#4
b11000011 2
b10000 4"
b10100011 <"
#5
b10011111 2
b11000000 4"
b10 <"
#6
b111111 2
b1001 4"
b10001010 <"
#7
b111010 2
b0 4"
b111010 <"
#8
b11111000 2
b1 4"
b10101010 <"
#9
b11111001 2
b10011100 4"
b10100000 <"
#10
b10101001 2
b0 4"
b10101000 <"
#11
b11000011 2
b10100011 <"
#12
b10011111 2
b11000000 4"
b1010 <"
#13
b11111111 2
b1001 4"
b10001010 <"
#14
b111010 2
b0 4"
b111010 <"
#15
b11111000 2
b1 4"
b10101010 <"
#16
b11111001 2
b10011100 4"
b10110000 <"
#17
b10110011 2
b0 4"
b10101000 <"
#18
b11000011 2
b10100011 <"
#19
b10011111 2
b11000000 4"
b0 <"
#20
b10111111 2
b1001 4"
b10001010 <"
#21
b111011 2
b0 4"
b11010 <"
#22
b11111100 2
b1 4"
b10101010 <"
#23
b11111001 2
b10011100 4"
b10110000 <"
#24
b10100001 2
b0 4"
b10001000 <"
#25
b11000011 2
b10100011 <"
#26
b10011111 2
b11000000 4"
b1010 <"
#27
b10111111 2
b1001 4"
b10001010 <"
#28
b111011 2
b0 4"
b111000 <"
#29
b11111100 2
b10101010 <"
#30
b11111001 2
b10011100 4"
b10100000 <"
#31
b10100011 2
b0 4"
b10001000 <"
#32
b11000011 2
b10000 4"
b10100011 <"
#33
b10011111 2
b11000000 4"
b0 <"
#34
b111111 2
b1001 4"
b10001010 <"
#35
b111010 2
b0 4"
b11000 <"
#36
b11111100 2
b101010 <"
#37
b11111001 2
b10011100 4"
b10100000 <"
#38
b10100011 2
b0 4"
b10001000 <"
#39
b11000011 2
b10100011 <"
#40
b10011111 2
b11000000 4"
b1000 <"
#41
b111111 2
b1001 4"
b1010 <"
#42
b111010 2
b0 4"
b11000 <"
#43
b11111000 2
b1 4"
b1010 <"
#44
b11111001 2
b10011100 4"
b10100000 <"
#45
b10100011 2
b0 4"
b10001000 <"
#46
b11000011 2
b10100011 <"
#47
b10011111 2
b11000000 4"
b0 <"
#48
b10111111 2
b1001 4"
b10001010 <"
#49
b111011 2
b0 4"
b11000 <"
#50
b11111100 2
b1 4"
b1010 <"
#51
b11111001 2
b10011100 4"
b10100000 <"
#52
b10111011 2
b0 4"
b10101000 <"
#53
b11000011 2
b10000 4"
b10100011 <"
#54
b10011111 2
b11000000 4"
b1000 <"
#55
b10111111 2
b1001 4"
b10001010 <"
#56
b111010 2
b0 4"
b111000 <"
#57
b11111100 2
b1010 <"
#58
b11111001 2
b10011100 4"
b10110000 <"
#59
b10111011 2
b0 4"
b10001000 <"
#60
b11000011 2
b10000 4"
b10100001 <"
#61
b10011111 2
b11000000 4"
b1000 <"
#62
b10111111 2
b1001 4"
b10001010 <"
#63
b111011 2
b0 4"
b11010 <"
#64
b11111100 2
b10001010 <"
#65
b11111001 2
b10011100 4"
b10000000 <"
#66
b10111011 2
b0 4"
b10001000 <"
#67
b11000011 2
b10000 4"
b10100011 <"
#68
b10011111 2
b11000000 4"
b1000 <"
#69
b111111 2
b1001 4"
b10001010 <"
#70
b111110 2
b0 4"
b111000 <"
#71
b0 2
b1 4"
b0 <"
#72
b0 4"
#74
1C#
#75
1;#
1?#
1B#
1D#
1G#
#76
1:#
1<#
1>#
1@#
0C#
1F#
1H#
#77
0;#
0?#
0G#
#78
b0 c"
#79
b1000 4"
b10000000 <"
b0 D"
0L#
0M#
0N#
0O#
0P#
0Q#
0R#
0S#
#80
b0 B
b0 4"
b10001000 <"
#81
b1 2
b1 <"
b10000000 c"
#82
b0 2
b0 <"
b10000000 D"
b1010001000 c"
#83
b10000000 B
b1010001000 D"
b1000000000000000000000001 c"
#84
b1010001000 B
b1 D"
b0 c"
1S#
#85
b1000000000000000000000001 B
b0 D"
0S#
#86
b0 B
#92
b11100000 2
b11100000 :
b10000000 4"
b11100000 <"
#93
b1101110 2
b11010 :
b1011 4"
b10101110 <"
#94
b11000100 2
b1111100 :
b11101001 4"
b10001000 <"
b11100000111000000000000011100000 c"
#95
b10001000 2
b11001000 :
b10 4"
b111100 <"
b11100000 D"
b10111000101110001011100010111000 c"
1L#
1M#
1N#
1T#
1U#
1V#
#96
b11010000 2
b10000000 :
b11100000111000000000000011100000 B
b10010010 4"
b11010110 <"
b1011100010111000 D"
b11011000001101001000000101011 c"
0M#
1O#
1P#
0U#
1W#
1X#
#97
b10000100 2
b10100 :
b10111000101110001011100010111000 B
b111011 4"
b1111000 <"
b110001000111110010111000100010 c"
1\#
#98
b10001100 2
b10111110 :
b11100011 4"
b11001100 <"
b1001000000101011 D"
b100010001100100010000010001111 c"
0L#
0N#
1R#
1S#
0T#
0V#
0W#
0X#
1Y#
1Z#
#99
b11000101 2
b1111100 :
b11011000001101001000000101011 B
b110001 4"
b10000000 <"
b10111000100010 D"
0U"
b0 V"
b110100001000001011100100110101 c"
0%#
b110100100 '#
1N#
0P#
0R#
1W#
1X#
1[#
#100
b10000000 2
b11001000 :
b110001000111110010111000100010 B
b10110011 4"
b1010100 <"
b10000010001111 D"
1U"
b100001100001010011001100011110 c"
1J#
1K#
0O#
1R#
0S#
1V#
0X#
0Y#
0[#
0^#
1_#
#101
1"
b11000000 2
b10000100 :
b100010001100100010000010001111 B
b0 %"
b110001 4"
b11001110 <"
b1011100100110101 D"
0U"
b1 V"
b1100011001011110001111000110011 c"
0J#
1O#
1Q#
0R#
0W#
0Z#
#102
0"
b1 #
b10000100 2
b1000000 :
b110100001000001011100100110101 B
b11 b
b11110001 4"
b10000000 <"
b11001100011110 D"
1U"
b110001000111110011001100100000 c"
0O#
0Q#
1S#
1T#
0V#
1Y#
1[#
#103
1"
b1010100 2
b10111100 :
b100001100001010011001100011110 B
b100 b
b10 4"
b10110100 <"
b1111000110011 D"
0U"
b10 V"
b100000001100100001101110010101 c"
1M#
1R#
0T#
1V#
1X#
1Z#
#104
0"
b10 #
b11000100 2
b1111000 :
b1100011001011110001111000110011 B
b101 b
b110010 4"
b1111000 <"
b11001100100000 D"
1U"
b110000001000010001001100110011 c"
0M#
1O#
0R#
0V#
1W#
#105
1"
b1110100 2
b10111100 :
b110001000111110011001100100000 B
b110 b
b11010011 4"
b10011000 <"
b1101110010101 D"
0U"
b11 V"
b100001000100000010111100100000 c"
0O#
0S#
1V#
0X#
0Y#
0[#
#106
0"
b11 #
b11000100 2
b1110100 :
b100000001100100001101110010101 B
b111 b
b11000001 4"
b11000110 <"
b1001100110011 D"
1U"
b10101001011110010000000101101 c"
1O#
0W#
0Z#
1[#
#107
1"
b1101000 2
b11010000 :
b110000001000010001001100110011 B
b1000 b
b11011011 4"
b1110100 <"
b10111100100000 D"
0U"
b100 V"
b110001000111100011001100011110 c"
0O#
1S#
0V#
1W#
0[#
#108
0"
b100 #
b10111000 2
b10101011 :
b100001000100000010111100100000 B
b11010010 4"
b10110100 <"
b10000000101101 D"
1U"
b11101001011110001110110100110 c"
0N#
1O#
1Q#
1V#
0W#
1X#
1Y#
1Z#
1[#
#109
1"
b11000011 2
b1100100 :
b10101001011110010000000101101 B
b1 4"
b1111100 <"
b11001100011110 D"
0U"
b101 V"
b110001000111011011110000110001 c"
1N#
0Q#
0V#
1W#
0[#
#110
0"
b101 #
b1101100 2
b10111000 :
b110001000111100011001100011110 B
b11110011 4"
b1010100 <"
b1110110100110 D"
1U"
b11010111101000010110100011101 c"
0N#
1P#
1Q#
1V#
0W#
1[#
#111
1"
b10111100 2
b1110100 :
b11101001011110001110110100110 B
b10010001 4"
b10111110 <"
b1011110000110001 D"
0U"
b110 V"
b11101110001010100001110100101101 c"
1N#
0P#
0Q#
0V#
1W#
0Z#
#112
0"
b110 #
b1101000 2
b10100000 :
b110001000111011011110000110001 B
b1001 b
b11101111 4"
b1110100 <"
b10110100011101 D"
1U"
b110000000110010011000000011111 c"
0N#
1P#
1R#
0S#
1T#
1U#
1V#
0X#
0[#
#113
1"
b11101100 2
b10111110 :
b11010111101000010110100011101 B
b1010 b
b11010010 4"
b10111100 <"
b1110100101101 D"
0U"
b111 V"
b11011001011100001111110010101 c"
1L#
1M#
1N#
0O#
1Q#
0T#
0U#
0W#
1X#
0Y#
1Z#
#114
0"
b111 #
b10111001 2
b1110100 :
b11101110001010100001110100101101 B
b1011 b
b11100001 4"
b1111000 <"
b11000000011111 D"
1U"
b101111000111011111100100101111 c"
0L#
0M#
1O#
0P#
0Q#
0R#
0V#
1W#
0Z#
1[#
#115
1"
b1111100 2
b11000000 :
b110000000110010011000000011111 B
b10100010 4"
b11010000 <"
b1111110010101 D"
0U"
b1000 V"
b11010101010000010111000011101 c"
0N#
1P#
1R#
1S#
1V#
0W#
1Y#
1Z#
0[#
#116
0"
b1000 #
b10101100 2
b1101000 :
b11011001011100001111110010101 B
b1100 b
b10110001 4"
b10100110 <"
b1111100100101111 D"
1U"
b1111011001011110001110100101111 c"
1N#
0O#
1Q#
0V#
1W#
0Z#
1[#
#117
1"
b1100000 2
b110000 :
b101111000111011111100100101111 B
b1101 b
b101 4"
b1101100 <"
b10111000011101 D"
0U"
b1001 V"
b101110000111010010111000011110 c"
0N#
1O#
0Q#
0S#
1T#
1V#
0W#
0Y#
0[#
#118
0"
b1001 #
b10101100 2
b10111010 :
b11010101010000010111000011101 B
b1110 b
b10100011 4"
b10111000 <"
b1110100101111 D"
1U"
b11111001100000001101010110100 c"
1M#
1N#
1S#
0T#
1Y#
1Z#
1[#
#119
1"
b10110000 2
b1110100 :
b1111011001011110001110100101111 B
b1111 b
b11010001 4"
b1101100 <"
b10111000011110 D"
0U"
b1010 V"
b101011000110100101101100101001 c"
0M#
0O#
1Q#
0S#
0V#
1W#
0Z#
#120
0"
b1010 #
b1110100 2
b10111000 :
b101110000111010010111000011110 B
b11000010 4"
b10011000 <"
b1101010110100 D"
1U"
b11000100011000011000000011011 c"
0N#
1O#
1S#
1V#
0X#
0Y#
0[#
#121
1"
b10111100 2
b1111100 :
b11111001100000001101010110100 B
b10000 b
b10010001 4"
b10111110 <"
b101101100101001 D"
0U"
b1011 V"
b101011001011100001101000101110 c"
1N#
0O#
0Q#
0V#
1X#
1Z#
#122
0"
b1011 #
b1110100 2
b11101000 :
b101011000110100101101100101001 B
b10001 b
b11010011 4"
b1101110 <"
b11000000011011 D"
1U"
b101100000111010010110100011011 c"
0N#
1O#
0R#
0S#
1T#
0W#
1Y#
0Z#
#123
1"
b1010000 2
b11001001 :
b11000100011000011000000011011 B
b10010 b
b11110010 4"
b11000000 <"
b1101000101110 D"
0U"
b1100 V"
b11101001011100001110010100110 c"
1N#
0O#
1R#
1S#
0T#
1V#
1Z#
#124
0"
b1100 #
b10111101 2
b1110000 :
b101011001011100001101000101110 B
b10011 b
b10001 4"
b10000100 <"
b10110100011011 D"
1U"
b101111000111110011100110101111 c"
1Q#
0R#
0S#
0V#
1W#
0Z#
1[#
#125
1"
b1110000 2
b10111000 :
b101100000111010010110100011011 B
b10010 b
b10100011 4"
b10000000 <"
b1110010100110 D"
0U"
b1101 V"
b11101011110100010110100011011 c"
0N#
1O#
1S#
1V#
0W#
1Z#
0[#
#126
0"
b1101 #
b11000000 2
b1101100 :
b11101001011100001110010100110 B
b10011 b
b10000001 4"
b10110000 <"
b11100110101111 D"
1U"
b1010100001100100001111100110000 c"
1N#
0O#
1R#
0V#
1W#
1[#
#127
1"
b1101000 2
b1010000 :
b101111000111110011100110101111 B
b10100 b
b11001 4"
b1110000 <"
b10110100011011 D"
0U"
b1110 V"
b101111000111000011000100100001 c"
0N#
1O#
0R#
1U#
1V#
0Y#
0[#
#128
0"
b1110 #
b11001100 2
b11001001 :
b11101011110100010110100011011 B
b10101 b
b10110011 4"
b10111000 <"
b1111100110000 D"
1U"
b11100001011100001101000100000 c"
1M#
0P#
0S#
0U#
0X#
#129
1"
b10111000 2
b1101100 :
b1010100001100100001111100110000 B
b10110 b
b10001 4"
b1111000 <"
b11000100100001 D"
0U"
b1111 V"
b110000000110111001100000101100 c"
0M#
1N#
0O#
1P#
1R#
1S#
0V#
1X#
1Y#
0Z#
#130
0"
b1111 #
b1110100 2
b10110100 :
b101111000111000011000100100001 B
b11000011 4"
b11100100 <"
b1101000100000 D"
1U"
b11010010101000011000100011100 c"
0N#
1O#
0R#
0S#
1V#
0W#
1Z#
#131
1"
b11000000 2
b1110100 :
b11100001011100001101000100000 B
b10111 b
b10010001 4"
b10111110 <"
b1001100000101100 D"
0U"
b10000 V"
b110011001100100001101100101110 c"
1N#
0P#
0Q#
0V#
1W#
0Y#
1[#
#132
0"
b10000 #
b1100100 2
b100 :
b110000000110111001100000101100 B
b11000 b
b11101110 4"
b1101000 <"
b11000100011100 D"
1U"
b101110000110110011000100011110 c"
0N#
1P#
1R#
1U#
0X#
1Y#
0Z#
0[#
#133
1"
b1111100 2
b11000101 :
b11010010101000011000100011100 B
b11001 b
b11110010 4"
b10111100 <"
b1101100101110 D"
0U"
b10001 V"
b11101001011010001110010111001 c"
1N#
0P#
1S#
0U#
1V#
0Y#
1Z#
#134
0"
b10001 #
b10111110 2
b1101000 :
b110011001100100001101100101110 B
b11010 b
b1 4"
b1101000 <"
b11000100011110 D"
1U"
b110000000111011110100100101111 c"
0O#
1P#
1Q#
0S#
0V#
1X#
1[#
#135
1"
b1110100 2
b11000000 :
b101110000110110011000100011110 B
b11011 b
b11000011 4"
b11110000 <"
b1110010111001 D"
0U"
b10010 V"
b11001010000010010111000011010 c"
0N#
1O#
0R#
1S#
1V#
0W#
1Y#
0Z#
#136
0"
b10010 #
b11000000 2
b1101100 :
b11101001011010001110010111001 B
b10001 4"
b11001010 <"
b1110100100101111 D"
1U"
b10011111001100010001111100101111 c"
1N#
0P#
0Q#
0S#
0V#
1W#
#137
1"
b1111000 2
b11000000 :
b110000000111011110100100101111 B
b11100 b
b1001 4"
b1101100 <"
b10111000011010 D"
0U"
b10011 V"
b101111000110100011000000011010 c"
0N#
1P#
1S#
1U#
0W#
0X#
0Y#
#138
0"
b10011 #
b11011000 2
b10011000 :
b11001010000010010111000011010 B
b11101 b
b10110011 4"
b11000100 <"
b1111100101111 D"
1U"
b11101001100000001110010111100 c"
1L#
1Q#
1R#
0U#
1V#
1W#
#139
1"
b11000001 2
b1111000 :
b10011111001100010001111100101111 B
b11110 b
b11110001 4"
b1110000 <"
b11000000011010 D"
0U"
b10100 V"
b110000000110111001000100110010 c"
0L#
1N#
0O#
0V#
1X#
1Z#
0[#
#140
0"
b10100 #
b1101100 2
b11010000 :
b101111000110100011000000011010 B
b11111 b
b10 4"
b10111000 <"
b1110010111100 D"
1U"
b11110001100000011000000011011 c"
0N#
1O#
0R#
1V#
0X#
0Z#
#141
1"
b10111000 2
b1111100 :
b11101001100000001110010111100 B
b11010010 4"
b11001010 <"
b1001000100110010 D"
0U"
b10101 V"
b1110110001001100001101100110001 c"
1N#
0P#
0Q#
0S#
0V#
1X#
1Z#
1[#
#142
0"
b10101 #
b1111000 2
b1110100 :
b110000000110111001000100110010 B
b100000 b
b10001 4"
b1010100 <"
b11000000011011 D"
1U"
b110000000111100010111100011100 c"
0N#
1P#
1Q#
1R#
1V#
0X#
0Z#
0[#
#143
1"
b1001000 2
b11000101 :
b11110001100000011000000011011 B
b100001 b
b11 4"
b11001000 <"
b1101100110001 D"
0U"
b10110 V"
b11011001101000010000010101110 c"
1M#
1N#
0P#
0W#
1Y#
1Z#
#144
0"
b10110 #
b11000011 2
b1111100 :
b1110110001001100001101100110001 B
b100010 b
b110010 4"
b1110000 <"
b10111100011100 D"
1U"
b101110000111110001110100110010 c"
0M#
0Q#
0R#
0V#
1W#
1X#
#145
1"
b10000100 2
b11001100 :
b110000000111100010111100011100 B
b100011 b
b11110011 4"
b101100 <"
b10000010101110 D"
0U"
b10111 V"
b11110010111010011000100010101 c"
0N#
1P#
1R#
1S#
1V#
0X#
0Z#
#146
0"
b10111 #
b11110100 2
b10010100 :
b11011001101000010000010101110 B
b100010 b
b1010001 4"
b11011000 <"
b1110100110010 D"
1U"
b11010010001100010010000000110010 c"
1N#
0O#
1Q#
0S#
0V#
1X#
1Z#
1[#
#147
1"
b10011000 2
b11111000 :
b101110000111110001110100110010 B
b100011 b
b10100 4"
b10011100 <"
b11000100010101 D"
0U"
b11000 V"
b110000000111110011001100011100 c"
0N#
1O#
1U#
0Z#
#148
0"
b11000 #
b1001000 2
b1000010 :
b11110010111010011000100010101 B
b100100 b
b10100100 4"
b100000 <"
b10000000110010 D"
1U"
b100001001100110001111100001011 c"
1L#
1M#
0P#
0Q#
0U#
1V#
0X#
0Y#
#149
1"
b110111 2
b10100101 :
b11010010001100010010000000110010 B
b100101 b
b11110010 4"
b10110001 <"
b11001100011100 D"
0U"
b11001 V"
b111101001001010100010100110110 c"
0L#
0M#
1N#
0R#
0V#
1X#
1Y#
1Z#
#150
0"
b11001 #
b11001001 2
b1100000 :
b110000000111110011001100011100 B
b100110 b
b11010100 4"
b1101000 <"
b1111100001011 D"
1U"
b100110101111100100000100100111 c"
0O#
1S#
1V#
0X#
0Y#
#151
1"
b1110100 2
b10110101 :
b100001001100110001111100001011 B
b11100010 4"
b10001111 <"
b100010100110110 D"
0U"
b11010 V"
b11010010010100000010101001001000 c"
1O#
1P#
1Q#
0W#
1Y#
0Z#
#152
0"
b11010 #
b11001001 2
b11011000 :
b111101001001010100010100110110 B
b100111 b
b1001101 4"
b11001001 <"
b100000100100111 D"
1U"
b1001101001010010100111100101100 c"
0O#
0P#
1R#
0S#
1T#
1W#
1X#
1Z#
0[#
#153
1"
b1100000 2
b11010011 :
b100110101111100100000100100111 B
b101000 b
b1010110 4"
b10100100 <"
b10101001001000 D"
0U"
b11011 V"
b110010010110000010110111011010 c"
1L#
1M#
0N#
1O#
0Q#
0T#
1U#
0V#
0X#
0Y#
0Z#
#154
0"
b11011 #
b110111 2
b11001101 :
b11010010010100000010101001001000 B
b101001 b
b1010011 4"
b11010101 <"
b100111100101100 D"
1U"
b1011101001011011101111001100011 c"
0L#
0O#
1P#
1Q#
0R#
1S#
0U#
1V#
0W#
1X#
1[#
#155
1"
b11001101 2
b1011000 :
b1001101001010010100111100101100 B
b101010 b
b100101 4"
b11101100 <"
b10110111011010 D"
0U"
b11100 V"
b110010111101100110010000110010 c"
0M#
1N#
1O#
0P#
0Q#
1R#
0S#
1U#
0V#
1W#
0[#
#156
0"
b11100 #
b10011000 2
b11110001 :
b110010010110000010110111011010 B
b101011 b
b11 4"
b1110011 <"
b1101111001100011 D"
1U"
b11011000011101000011010101101001 c"
1M#
0N#
1P#
1Q#
0R#
1S#
0U#
1V#
0W#
1Y#
1[#
#157
1"
b11100001 2
b11011000 :
b1011101001011011101111001100011 B
b1110001 4"
b11111101 <"
b110010000110010 D"
0U"
b11101 V"
b1001101001100110101010100110101 c"
0M#
1N#
0P#
0Q#
1R#
0S#
1T#
1U#
1W#
0X#
1Z#
0[#
#158
0"
b11101 #
b1110000 2
b10011101 :
b110010111101100110010000110010 B
b101100 b
b11110110 4"
b10011000 <"
b11010101101001 D"
1U"
b110011010101100011001011111011 c"
1L#
1M#
0N#
1P#
0R#
0T#
0Z#
#159
1"
b10110101 2
b1101 :
b11011000011101000011010101101001 B
b101101 b
b11110011 4"
b11111101 <"
b101010100110101 D"
0U"
b11110 V"
b1100110001111000001000001011100 c"
0L#
0O#
1Q#
1S#
0U#
0Y#
1Z#
1[#
#160
0"
b11110 #
b11100101 2
b1101101 :
b1001101001100110101010100110101 B
b101110 b
b10100110 4"
b11010100 <"
b11001011111011 D"
1U"
b111000011101100110011100111111 c"
0M#
1N#
1O#
0P#
0Q#
1R#
1U#
0V#
1Y#
0[#
#161
1"
b1001000 2
b11010101 :
b110011010101100011001011111011 B
b101111 b
b10110011 4"
b1011010 <"
b1000001011100 D"
0U"
b11111 V"
b1011100011001110011111101100110 c"
1M#
0O#
1Q#
0S#
0U#
1V#
1X#
0Z#
#162
0"
b11111 #
b11110101 2
b1010000 :
b1100110001111000001000001011100 B
b10010100 4"
b11011101 <"
b110011100111111 D"
1U"
b1101101010000110110111100111111 c"
0M#
1O#
1P#
0Q#
0R#
1U#
0X#
1Z#
#163
1"
b11011000 2
b10101000 :
b111000011101100110011100111111 B
b110000 b
b100101 4"
b1111000 <"
b11111101100110 D"
0U"
b100000 V"
b111001010110110011101010110101 c"
1M#
0N#
1Q#
0W#
1[#
#164
0"
b100000 #
b11111110 2
b11111101 :
b1011100011001110011111101100110 B
b110001 b
b1000101 4"
b111001 <"
b110111100111111 D"
1U"
b1010010001101010100101101010110 c"
1N#
0O#
1S#
0V#
0Y#
#165
1"
b11111111 2
b11111111 :
b1101101010000110110111100111111 B
b110010 b
b11111010 4"
b11000010 <"
b11101010110101 D"
0U"
b100001 V"
b111101000101000101100100110111 c"
0M#
1O#
0Q#
1W#
1X#
