dual_cam_display/ip_repo/csi_to_axis_1.0/hdl/.Xil/Vivado-17059-ubuntu/hw_ila_data_2/zip_work/waveform.vcd
$date
        2017-May-09 17:47:21
$end
$version
        Vivado v2016.4 (64-bit)
$end
$timescale
        1ps
$end
$scope module dut $end
$var reg 1 " i_system_wrapper/system_i/csi_to_axis_0/U0/parser_inst/packet_size_1 $end
$var reg 1 # u_ila_1_packet_size $end
$var reg 14 $ i_system_wrapper/system_i/csi_to_axis_0/U0/parser_inst/packet_size [15:2] $end
$var reg 32 2 i_system_wrapper/system_i/csi_to_axis_0_m_axis_tdata [31:0] $end
$var reg 8 R i_system_wrapper/system_i/csi2_d_phy_rx_0_RX_MIPI_PPI_DL3_RXDATAHS [7:0] $end
$var reg 8 Z i_system_wrapper/system_i/csi2_d_phy_rx_0_RX_MIPI_PPI_DL2_RXDATAHS [7:0] $end
$var reg 8 b i_system_wrapper/system_i/csi2_d_phy_rx_0_RX_MIPI_PPI_DL1_RXDATAHS [7:0] $end
$var reg 8 j i_system_wrapper/system_i/csi2_d_phy_rx_0_RX_MIPI_PPI_DL0_RXDATAHS [7:0] $end
$var reg 12 r u_ila_1_axis_data_fifo_0_axis_data_count_1 [11:0] $end
$var reg 1 ~ u_ila_1_axis_data_fifo_0_axis_data_count_2 $end
$var reg 1 !" u_ila_1_axis_data_fifo_0_axis_data_count_3 $end
$var reg 1 "" u_ila_1_axis_data_fifo_0_axis_data_count_4 $end
$var reg 1 #" u_ila_1_axis_data_fifo_0_axis_data_count_5 $end
$var reg 1 $" u_ila_1_axis_data_fifo_0_axis_data_count_6 $end
$var reg 1 %" u_ila_1_axis_data_fifo_0_axis_data_count_7 $end
$var reg 1 &" u_ila_1_axis_data_fifo_0_axis_data_count_8 $end
$var reg 1 '" u_ila_1_axis_data_fifo_0_axis_data_count_9 $end
$var reg 1 (" u_ila_1_axis_data_fifo_0_axis_data_count_10 $end
$var reg 1 )" u_ila_1_axis_data_fifo_0_axis_data_count_11 $end
$var reg 1 *" u_ila_1_axis_data_fifo_0_axis_data_count_12 $end
$var reg 1 +" u_ila_1_axis_data_fifo_0_axis_data_count_13 $end
$var reg 1 ," u_ila_1_axis_data_fifo_0_axis_data_count_14 $end
$var reg 1 -" u_ila_1_axis_data_fifo_0_axis_data_count_15 $end
$var reg 1 ." u_ila_1_axis_data_fifo_0_axis_data_count_16 $end
$var reg 1 /" u_ila_1_axis_data_fifo_0_axis_data_count_17 $end
$var reg 1 0" u_ila_1_axis_data_fifo_0_axis_data_count_18 $end
$var reg 1 1" u_ila_1_axis_data_fifo_0_axis_data_count_19 $end
$var reg 1 2" u_ila_1_axis_data_fifo_0_axis_data_count_20 $end
$var reg 1 3" u_ila_1_axis_data_fifo_0_axis_data_count $end
$var reg 32 4" i_system_wrapper/system_i/axis_data_fifo_0_M_AXIS_TDATA [31:0] $end
$var reg 1 T" u_ila_1_transfer_cnt_1 $end
$var reg 1 U" i_system_wrapper/system_i/csi_to_axis_0/U0/parser_inst/transfer_cnt $end
$var reg 13 V" u_ila_1_transfer_cnt [15:3] $end
$var reg 1 c" i_system_wrapper/system_i/axis_data_fifo_0_M_AXIS_TLAST $end
$var reg 1 d" i_system_wrapper/system_i/axis_data_fifo_0_M_AXIS_TREADY $end
$var reg 1 e" i_system_wrapper/system_i/axis_data_fifo_0_M_AXIS_TUSER $end
$var reg 1 f" i_system_wrapper/system_i/axis_data_fifo_0_M_AXIS_TVALID $end
$var reg 1 g" u_ila_1_axis_data_fifo_0_s_axis_tready $end
$var reg 1 h" u_ila_1_csi2_d_phy_rx_0_RX_MIPI_PPI_CL_ENABLE_1 $end
$var reg 1 i" u_ila_1_csi2_d_phy_rx_0_RX_MIPI_PPI_CL_RXCLKACTIVEHS $end
$var reg 1 j" u_ila_1_csi2_d_phy_rx_0_RX_MIPI_PPI_CL_STOPSTATE $end
$var reg 1 k" u_ila_1_csi2_d_phy_rx_0_RX_MIPI_PPI_CL_ENABLE_2 $end
$var reg 1 l" u_ila_1_csi2_d_phy_rx_0_RX_MIPI_PPI_DL0_RXACTIVEHS_1 $end
$var reg 1 m" u_ila_1_csi2_d_phy_rx_0_RX_MIPI_PPI_DL0_RXSYNCHS $end
$var reg 1 n" u_ila_1_csi2_d_phy_rx_0_RX_MIPI_PPI_DL0_RXACTIVEHS $end
$var reg 1 o" u_ila_1_csi2_d_phy_rx_0_RX_MIPI_PPI_CL_ENABLE_3 $end
$var reg 1 p" u_ila_1_csi2_d_phy_rx_0_RX_MIPI_PPI_DL1_RXACTIVEHS_1 $end
$var reg 1 q" u_ila_1_csi2_d_phy_rx_0_RX_MIPI_PPI_DL1_RXSYNCHS $end
$var reg 1 r" u_ila_1_csi2_d_phy_rx_0_RX_MIPI_PPI_DL1_RXACTIVEHS $end
$var reg 1 s" u_ila_1_csi2_d_phy_rx_0_RX_MIPI_PPI_CL_ENABLE_4 $end
$var reg 1 t" u_ila_1_csi2_d_phy_rx_0_RX_MIPI_PPI_DL2_RXACTIVEHS_1 $end
$var reg 1 u" u_ila_1_csi2_d_phy_rx_0_RX_MIPI_PPI_DL2_RXSYNCHS $end
$var reg 1 v" u_ila_1_csi2_d_phy_rx_0_RX_MIPI_PPI_DL2_RXACTIVEHS $end
$var reg 1 w" u_ila_1_csi2_d_phy_rx_0_RX_MIPI_PPI_CL_ENABLE $end
$var reg 1 x" u_ila_1_csi2_d_phy_rx_0_RX_MIPI_PPI_DL3_RXACTIVEHS_1 $end
$var reg 1 y" u_ila_1_csi2_d_phy_rx_0_RX_MIPI_PPI_DL3_RXSYNCHS $end
$var reg 1 z" u_ila_1_csi2_d_phy_rx_0_RX_MIPI_PPI_DL3_RXACTIVEHS $end
$var reg 1 {" i_system_wrapper/system_i/csi_to_axis_0_m_axis_tlast $end
$var reg 1 |" i_system_wrapper/system_i/csi_to_axis_0_m_axis_tuser $end
$var reg 1 }" i_system_wrapper/system_i/csi_to_axis_0_m_axis_tvalid $end
$var reg 1 ~" i_system_wrapper/system_i/csi_to_axis_0/U0/parser_inst/start_of_frame $end
$var reg 1 !# _TRIGGER $end
$var reg 1 "# _WINDOW $end
$var reg 1 ## _GAP $end
$upscope $end
$enddefinitions $end
#0
$dumpvars
0"
0#
b110100100 $
b111111111111111100000000 2
b111111 R
b0 Z
b10011 b
b100010 j
b0 r
0~
0!"
0""
0#"
0$"
0%"
0&"
0'"
0("
0)"
0*"
0+"
0,"
0-"
0."
0/"
00"
01"
02"
03"
b10110110000001100000010000000110 4"
0T"
1U"
b11010001 V"
1c"
1d"
0e"
0f"
1g"
1h"
1i"
0j"
1k"
0l"
0m"
0n"
1o"
0p"
0q"
0r"
1s"
0t"
0u"
0v"
1w"
0x"
0y"
0z"
0{"
0|"
0}"
0~"
0!#
1"#
0##
$end
#1
b1111110 R
b0 b
b100000 j
#2
b11111000 R
b10100010 j
#3
b11110011 R
b111000 b
b101010 j
#4
b11111111 R
b1 b
b10 j
#5
b10000111 R
b0 b
b100010 j
#6
b111111 R
b10000000 b
b10101010 j
#7
b11111111 R
b10011 b
b100010 j
#8
b1111111 R
b0 b
#9
b11111010 R
b10 b
b10100010 j
#10
b11110011 R
b111000 b
b101010 j
#11
b11110111 R
b1 b
b10 j
#12
b10000111 R
b100000 b
b100010 j
#13
b111111 R
b10000000 b
b10101010 j
#14
b10011 b
b100010 j
#15
b1111111 R
b0 b
#16
b11111000 R
b10 b
b10100010 j
#17
b11110011 R
b111000 b
b101010 j
#18
b11101111 R
b1 b
b10 j
#19
b10000111 R
b100000 b
b100010 j
#20
b111111 R
b10000000 b
b10101010 j
#21
b10011 b
b100010 j
#22
b1111110 R
b0 b
b100000 j
#23
b11111000 R
b10 b
b10100010 j
#24
b11110011 R
b111000 b
b101010 j
#25
b11011111 R
b1 b
b10 j
#26
b10000011 R
b0 b
b100010 j
#27
b111111 R
b10000000 b
b101010 j
#28
b1111111 R
b10011 b
b100010 j
#29
b0 b
#30
b11111000 R
b10100010 j
#31
b11110011 R
b11000 b
b101010 j
#32
b1 b
b10 j
#33
b10000011 R
b100000 b
b100010 j
#34
b111111 R
b10000000 b
b10101010 j
#35
b1111111 R
b10011 b
b100010 j
#36
b0 b
#37
b11111000 R
b10100010 j
#38
b11110011 R
b111000 b
b101010 j
#39
b11100011 R
b1 b
b10 j
#40
b10000111 R
b0 b
b100010 j
#41
b111111 R
b10000000 b
b101010 j
#42
b11111111 R
b10011 b
b100010 j
#43
b1111111 R
b0 b
#44
b11111000 R
b10 b
b10100010 j
#45
b11110011 R
b111000 b
b101010 j
#46
b11000011 R
b1 b
b10 j
#47
b11 R
b0 b
b100010 j
#48
b0 R
b0 j
#51
1m"
1q"
1u"
1y"
#52
1l"
1n"
1p"
1r"
1t"
1v"
1x"
1z"
#53
0m"
0q"
0u"
0y"
#56
b110000111100000000 2
b1 b
b100010 j
#57
b0 2
b0 b
b100000 j
#58
b0 j
#60
b1000010001000 2
#61
b10000000 2
#62
b0 2
#68
b11100000 R
b10000000 b
#69
b1101110 R
b10101110 Z
b1011 b
b11101110 j
#70
b1100 R
b1000001 Z
b1001001 b
b1001010 j
#71
b10000 R
b11000001 Z
b1000000 b
b10000001 j
#72
b0 Z
b110100 j
#73
b10111000101110001011100010111000 2
b11000001 Z
b1000010 b
b1000001 j
#74
b1100000 R
b10 Z
b1000000 b
b1 j
#75
b11011000001101001000000101011 2
b1100 R
b1 Z
0U"
b0 V"
#76
b11000001010000010000000101 2
b10000 R
1U"
1}"
#77
b100000000110000010011010010 2
b1100 R
b110010 j
b1 r
0U"
b1 V"
#78
b100000001000010010000000100 2
b10000 R
b11000001 Z
b1000110 b
b1000001 j
b10 r
1U"
#79
b100000010110000010000000101 2
b11000 R
b11000010 Z
b110000 b
b1 j
b11 r
b11000001010000010000000101 4"
0U"
b10 V"
0c"
1f"
#80
b11000000001000000010000000100 2
b10010 R
b0 Z
b1000000 b
b100000000110000010011010010 4"
1U"
#81
b11000001000000010000000100 2
b10000 R
b1 Z
b1100000 b
b10000001 j
b100000001000010010000000100 4"
0U"
b11 V"
#82
b100000001000000010011001000 2
b1000000 b
b11100 j
b100000010110000010000000101 4"
1U"
#83
b11000001000110010000000100 2
b1100 R
b1000100 b
b1000001 j
b11000000001000000010000000100 4"
0U"
b100 V"
#84
b100000010110000010000000101 2
b1111100 R
b11000011 Z
b110000 b
b11000001 j
b11000001000000010000000100 4"
1U"
#85
b10000110000000110000001100000100 2
b10011 R
b0 Z
b1000000 b
b0 j
b100000001000000010011001000 4"
0U"
b101 V"
#86
b100000001000000010000000100 2
b10100 R
b1 Z
b1010000 b
b11000001 j
b11000001000110010000000100 4"
1U"
#87
b100000001000000011001110010 2
b10000 R
b11000001 Z
b10000 b
b11001 j
b100000010110000010000000101 4"
0U"
b110 V"
#88
b100000001000100010000000100 2
b11000000 Z
b1000000 b
b1 j
b10000110000000110000001100000100 4"
1U"
#89
b11000011000000010000000101 2
b111100 R
b11011110 Z
b11000001 j
b100000001000000010000000100 4"
0U"
b111 V"
#90
b11011111000000110000001100000011 2
b10011 R
b1000000 Z
b0 j
b100000001000000011001110010 4"
1U"
#91
b100000001000000010000000100 2
b1000 R
b1 Z
b1000001 j
b100000001000100010000000100 4"
0U"
b1000 V"
#92
b101000001000000010101100111 2
b1100 R
b11000000 b
b1000000 j
b11000011000000010000000101 4"
1U"
#93
b100000000110000000100000100 2
b10000 R
b11000001 Z
b1000010 b
b1 j
b11011111000000110000001100000011 4"
0U"
b1001 V"
#94
b100011110110000010000000100 2
b11000000 R
b10011 Z
b110000 b
b100000001000000010000000100 4"
1U"
#95
b11001111000000110000010000000011 2
b10010 R
b1 Z
b11000001 j
b101000001000000010101100111 4"
0U"
b1010 V"
#96
b100000001010000010000000100 2
b10000 R
b1000000 b
b10000000 j
b100000000110000000100000100 4"
1U"
#97
b10000001000000010000000001 2
b10000000 b
b11000011 j
b100011110110000010000000100 4"
0U"
b1011 V"
#98
b11000001000010110000000101 2
b11000001 Z
b1001110 b
b0 j
b11001111000000110000010000000011 4"
1U"
#99
b100010011110000010000000100 2
b10100 R
b1100 Z
b1010000 b
b1 j
b100000001010000010000000100 4"
0U"
b1100 V"
#100
b10110000000001000000001100000100 2
b10010 R
b1 Z
b1000000 b
b1000001 j
b10000001000000010000000001 4"
1U"
#101
b100000001000000001100000011 2
b10000 R
b1010000 b
b11000001000010110000000101 4"
0U"
b1101 V"
#102
b100000001000000010000001110 2
b110000 b
b11010100 j
b100010011110000010000000100 4"
1U"
#103
b100000001001110100000000011 2
b10000001 Z
b1001101 b
b0 j
b10110000000001000000001100000100 4"
0U"
b1110 V"
#104
b100001100110000010000000100 2
b11000100 R
b10111 Z
b1010000 b
b1 j
b100000001000000001100000011 4"
1U"
#105
b10000101000001000000010100000100 2
b10000 R
b11000001 Z
b1000000 b
b100000001000000010000001110 4"
0U"
b1111 V"
#106
b100000001000000010000000101 2
b0 Z
b100000001001110100000000011 4"
1U"
#107
b100000001000000010101010001 2
b1 Z
b11110000 b
b101001 j
b100001100110000010000000100 4"
0U"
b10000 V"
#108
b100000001001101001100000011 2
b1000011 b
b1000001 j
b10000101000001000000010100000100 4"
1U"
#109
b100010111100000010000000100 2
b11111100 R
b10001 Z
b1000000 b
b11000001 j
b100000001000000010000000101 4"
0U"
b10001 V"
#110
b110001000001000000010100000100 2
b10000 R
b1000001 Z
b10000000 j
b100000001000000010101010001 4"
1U"
#111
b100000000110000010000000100 2
b10100 R
b1 Z
b1010000 b
b100000001001101001100000011 4"
0U"
b10010 V"
#112
b100000001000000010010100100 2
b10000 R
b10000 b
b1000 j
b100010111100000010000000100 4"
1U"
#113
b100000001000011111100000100 2
b11000001 Z
b1000001 b
b1000001 j
b110001000001000000010100000100 4"
0U"
b10011 V"
#114
b100010001000000010000000101 2
b10110000 R
b11000100 Z
b1000000 b
b11000001 j
b100000000110000010000000100 4"
1U"
#115
b111111000001000000010000000011 2
b10011 R
b0 Z
b0 j
b100000001000000010010100100 4"
0U"
b10100 V"
#116
b100000001010000010000000010 2
b10100 R
b1000001 Z
b10000001 j
b100000001000011111100000100 4"
1U"
#117
b101000001000000010100100010 2
b1100 R
b1 Z
b110000 b
b1101101 j
b100010001000000010000000101 4"
0U"
b10101 V"
#118
b100000001000001000100000100 2
b10000 R
b1001110 b
b0 j
b111111000001000000010000000011 4"
1U"
#119
b100000100110000010000000101 2
b10110000 R
b11101111 Z
b110000 b
b1 j
b100000001010000010000000010 4"
0U"
b10110 V"
#120
b11101100000000110000010000000011 2
b10010 R
b0 Z
b1000000 b
b101000001000000010100100010 4"
1U"
#121
b100000001000000010000000100 2
b10000 R
b1 Z
b11000001 j
b100000001000001000100000100 4"
0U"
b10111 V"
#122
b101000001010000010010110110 2
b10000 b
b100111 j
b100000100110000010000000101 4"
1U"
#123
b11000001001110001100000001 2
b1100 R
b1000111 b
b1 j
b11101100000000110000010000000011 4"
0U"
b11000 V"
#124
b100101111000000010000000100 2
b11111100 R
b11001110 Z
b1000000 b
b11000001 j
b100000001000000010000000100 4"
1U"
#125
b10101100000000110000001100000100 2
b1110 R
b0 Z
b110000 b
b0 j
b101000001010000010010110110 4"
0U"
b11001 V"
#126
b100000001000000010000000100 2
b10000 R
b1 Z
b1000000 b
b11000001 j
b11000001001110001100000001 4"
1U"
#127
b100000001000000010010011111 2
b0 b
b111011 j
b100101111000000010000000100 4"
0U"
b11010 V"
#128
b100000001000111000100000100 2
b10100 R
b1000100 b
b1 j
b10101100000000110000001100000100 4"
1U"
#129
b11001110000000010000000100 2
b11001000 R
b1011 Z
b1000000 b
b100000001000000010000000100 4"
0U"
b11011 V"
#130
b10111111000000110000010000000011 2
b10001 R
b1 Z
b100000001000000010010011111 4"
1U"
#131
b11000001000000001100000100 2
b10000 R
b11000001 Z
b110000 b
b10000001 j
b100000001000111000100000100 4"
0U"
b11100 V"
#132
b100000001000000010011101111 2
b1100 R
b0 Z
b11010000 b
b1100 j
b11001110000000010000000100 4"
1U"
#133
b100000001000100000000000100 2
b1 Z
b111001 b
b1000001 j
b10111111000000110000010000000011 4"
0U"
b11101 V"
#134
b101001011000000010000000100 2
b110000 R
b11100110 Z
b1000000 b
b11000001 j
b11000001000000001100000100 4"
1U"
#135
b1110010000001000000010000000100 2
b10011 R
b0 Z
b110000 b
b0 j
b100000001000000010011101111 4"
0U"
b11110 V"
#136
b100000001000000010000000100 2
b10000 R
b1 Z
b1000000 b
b11000001 j
b100000001000100000000000100 4"
1U"
#137
b100000000110000001100110010 2
b11010000 b
b10010 j
b101001011000000010000000100 4"
0U"
b11111 V"
#138
b11000001001001110100000100 2
b1000000 b
b1000001 j
b1110010000001000000010000000100 4"
1U"
#139
b11100110000000001100000101 2
b10100 R
b110001 Z
b1 j
b100000001000000010000000100 4"
0U"
b100000 V"
#140
b11001100000000110000010000000011 2
b1100 R
b11000001 Z
b100000000110000001100110010 4"
1U"
#141
b100000001000000001100000100 2
b10000 R
b11000000 Z
b110000 b
b10000001 j
b11000001001001110100000100 4"
0U"
b100001 V"
#142
b100000001000000010001001011 2
b11100000 b
b111101 j
b11100110000000001100000101 4"
1U"
#143
b100000001000000110100000100 2
b10100 R
b1000110 b
b1 j
b11001100000000110000010000000011 4"
0U"
b100010 V"
#144
b100110001000000010000000101 2
b0 R
b10010 Z
b1000000 b
b100000001000000001100000100 4"
1U"
#145
b101000001000000010000000100 2
b10001 R
b1000001 Z
b100000001000000010001001011 4"
0U"
b100011 V"
#146
b11000000110000010000000100 2
b10000 R
b1 Z
b110000 b
b11000001 j
b100000001000000110100000100 4"
1U"
#147
b100000000110000001111110110 2
b1100 R
b1000001 Z
b1110000 b
b11 j
b100110001000000010000000101 4"
0U"
b100100 V"
#148
b100000000110110111000000100 2
b10000 R
b11000001 Z
b1000100 b
b1 j
b101000001000000010000000100 4"
1U"
#149
b101010010110000010000000100 2
b10101100 R
b1000011 Z
b1010000 b
b11000000110000010000000100 4"
0U"
b100101 V"
#150
b1000000000001000000010000000100 2
b10000 R
b1 Z
b1000000 b
b100000000110000001111110110 4"
1U"
#151
b100000001010000010000000100 2
b11000001 j
b100000000110110111000000100 4"
0U"
b100110 V"
#152
b100000001000000001100001111 2
b11000001 Z
b0 b
b11111100 j
b101010010110000010000000100 4"
1U"
#153
b11000001010100011100000100 2
b1000000 Z
b1001110 b
b0 j
b1000000000001000000010000000100 4"
0U"
b100111 V"
#154
b100000011110000010000000100 2
b1110100 R
b100001 Z
b1000000 b
b1 j
b100000001010000010000000100 4"
1U"
#155
b101011000001010000010100000100 2
b1100 R
b1000001 Z
b100000001000000001100001111 4"
0U"
b101000 V"
#156
b100000001000000010000000100 2
b10000 R
b11000001 Z
b110000 b
b11000001010100011100000100 4"
1U"
#157
b100000001000000010011110011 2
b0 Z
b10010000 b
b11111000 j
b100000011110000010000000100 4"
0U"
b101001 V"
#158
b100000000111110000000000011 2
b1100 R
b1 Z
b1001010 b
b11000000 j
b101011000001010000010100000100 4"
1U"
#159
b100100001010000010000000100 2
b1000000 R
b11110 Z
b1000000 b
b0 j
b100000001000000010000000100 4"
0U"
b101010 V"
#160
b11101000001000000010000000100 2
b10011 R
b1 Z
b1 j
b100000001000000010011110011 4"
1U"
#161
b11000001010000010000000100 2
b10000 R
b1010000 b
b10000001 j
b100000000111110000000000011 4"
0U"
b101011 V"
#162
b100000000110000001111100000 2
b11010011 j
b100100001010000010000000100 4"
1U"
#163
b100000001001010100100000011 2
b1001100 b
b0 j
b11101000001000000010000000100 4"
0U"
b101100 V"
#164
b11011110000000010000000011 2
b10010000 R
b100001 Z
b1010000 b
b1 j
b11000001010000010000000100 4"
1U"
#165
b11010000000001000000010000000100 2
b10001 R
b1 Z
b110000 b
b100000000110000001111100000 4"
0U"
b101101 V"
#166
b100000001000000010000000100 2
b10000 R
b11000001 Z
b100000001001010100100000011 4"
1U"
#167
b100000001000000010101001110 2
b0 Z
b11110000 b
b10111 j
b11011110000000010000000011 4"
0U"
b101110 V"
#168
b100000001001100010100000011 2
b11000001 Z
b1000110 b
b1 j
b11010000000001000000010000000100 4"
1U"
#169
b100100001000000010000000100 2
b1110100 R
b10101 Z
b1100000 b
b11000001 j
b100000001000000010000000100 4"
0U"
b101111 V"
#170
b1100100000001000000010100000100 2
b10010 R
b1 Z
b1010000 b
b1000000 j
b100000001000000010101001110 4"
1U"
#171
b100000001000000001100000100 2
b1100 R
b1000000 b
b1 j
b100000001001100010100000011 4"
0U"
b110000 V"
#172
b100000000110000001101011100 2
b110000 b
b1000 j
b100100001000000010000000100 4"
1U"
#173
b100000001000110111100000100 2
b10000 R
b1000001 Z
b110111 b
b11000001 j
b1100100000001000000010100000100 4"
0U"
b110001 V"
#174
b100010101110000010000000100 2
b11011100 R
b111111 Z
b110000 b
b0 j
b100000001000000001100000100 4"
1U"
#175
b10011101000001000000011000000011 2
b10001 R
b1 Z
b1000000 b
b1 j
b100000000110000001101011100 4"
0U"
b110010 V"
#176
b100000001000000010100000101 2
b10000 R
b1010000 b
b1000001 j
b100000001000110111100000100 4"
1U"
0d"
#177
b11000001000000010000100000 2
b10000000 b
b11001 j
b100 r
0U"
b110011 V"
#178
b11000001000111001100000100 2
b10100 R
b10000001 Z
b1000000 b
b10000001 j
b101 r
1U"
#179
b100111111010000001100000011 2
b11010100 R
b100010 Z
b1 j
b110 r
0U"
b110100 V"
#180
b1110111000001000000001100000100 2
b10010 R
b1000001 Z
b110000 b
b1000001 j
b111 r
1U"
#181
b100000001000000010000000100 2
b10000 R
b1 Z
b10000001 j
b1000 r
0U"
b110101 V"
#182
b100000001000000010101100101 2
b1100 R
b1100000 b
b100111 j
b1001 r
1U"
#183
b100000001000000100000000100 2
b10000 R
b10000001 Z
b1000100 b
b1 j
b1010 r
0U"
b110110 V"
#184
b101100010100000010000000110 2
b10001100 R
b11 Z
b1000000 b
b1011 r
1U"
#185
b10110101000001000000010000000100 2
b10001 R
b1 Z
b1100 r
0U"
b110111 V"
#186
b100000001010000001100000101 2
b10000 R
b110000 b
b11000001 j
b1101 r
1U"
#187
b100000001000000001110011110 2
b1100 R
b11000001 Z
b11110000 b
b101111 j
b1110 r
0U"
b111000 V"
#188
b11000001000100011000000100 2
b10000 R
b10000000 Z
b1000010 b
b11000001 j
b1111 r
1U"
#189
b100000011100000010000000100 2
b11011100 R
b1110111 Z
b1000000 b
b0 j
b10000 r
0U"
b111001 V"
#190
b1100011000001000000010000000100 2
b10000 R
b1000001 Z
b1 j
b10001 r
1U"
#191
b100000001000000010000000100 2
b1100 R
b1 Z
b110000 b
b10000001 j
b10010 r
0U"
b111010 V"
#192
b100000001000000001110111111 2
b10000 R
b1110000 b
b110 j
b10011 r
1U"
#193
b11000000110010111100000100 2
b10000001 Z
b110011 b
b1000001 j
b10100 r
0U"
b111011 V"
#194
b100110111100000010000000011 2
b11100000 R
b110001 Z
b1000000 b
b11000001 j
b10101 r
1U"
#195
b110111000001010000010000000100 2
b1101 R
b11000001 Z
b11000000 j
b10110 r
0U"
b111100 V"
#196
b100000001010000010000000100 2
b10000 R
b0 Z
b10111 r
1U"
#197
b11000001000000001100011010 2
b1100 R
b11000001 Z
b10100000 b
b10111 j
b11000 r
0U"
b111101 V"
#198
b100000001000011011100000100 2
b10000 R
b0 Z
b1000111 b
b1 j
b11001 r
1U"
#199
b100110001100000001100000101 2
b11001100 R
b11010111 Z
b1000000 b
b11010 r
0U"
b111110 V"
#200
b1111000000001000000010000000011 2
b10011 R
b1000000 Z
b1000001 j
b11011 r
1U"
#201
b11000000110000010000000011 2
b10000 R
b1 Z
b1010000 b
b1 j
b11100 r
0U"
b111111 V"
#202
b100000001000000010001011111 2
b11000001 Z
b110000 b
b100000 j
b11101 r
1U"
#203
b11000000110111101000000100 2
b11000000 Z
b1001010 b
b1 j
b11110 r
0U"
b1000000 V"
#204
b100010111000000010000000100 2
b0 R
b11100010 Z
b1000000 b
b11111 r
1U"
#205
b11110011000000110000010000000100 2
b10011 R
b0 Z
b1000001 j
b100000 r
0U"
b1000001 V"
#206
b100000001010000010000000101 2
b10000 R
b1 Z
b1010000 b
b11000001 j
b100001 r
1U"
#207
b100000001000000010110000000 2
b1100 R
b1000001 Z
b100000 b
b100001 j
b100010 r
0U"
b1000010 V"
#208
b100000000111010001100000100 2
b1000010 b
b1 j
b100011 r
1U"
#209
b100100010110000010000000100 2
b110100 R
b11111 Z
b1000000 b
b100100 r
0U"
b1000011 V"
#210
b11000000000000110000010000000100 2
b10000 R
b1 Z
b100101 r
1U"
#211
b100000001000000010000000101 2
b1100 R
b1010000 b
b10000001 j
b100110 r
0U"
b1000100 V"
#212
b100000001000000010110000111 2
b10000 R
b11000001 Z
b0 b
b100 j
b100111 r
1U"
#213
b11000001010010001000000100 2
b11000000 Z
b1000111 b
b1 j
b101000 r
0U"
b1000101 V"
#214
b11011111010000010000000100 2
b10111100 R
b101001 Z
b1000000 b
b11000001 j
b101001 r
1U"
#215
b1101000001000000010000000100 2
b10000 R
b1 Z
b0 j
b101010 r
0U"
b1000110 V"
#216
b100000001000000010000000100 2
b1010000 b
b1 j
b101011 r
1U"
#217
b11000001000000010100010010 2
b10010000 b
b1000 j
b101100 r
0U"
b1000111 V"
#218
b100000000110111000000000100 2
b1100 R
b1000000 b
b1 j
b101101 r
1U"
#219
b100101001110000010000000100 2
b11000 R
b1010010 Z
b101110 r
0U"
b1001000 V"
#220
b101111000001000000010000000011 2
b10000 R
b1 Z
b101111 r
1U"
#221
b100000001000000010000000100 2
b10000001 j
b110000 r
0U"
b1001001 V"
#222
b100000001000000010100100000 2
b10000001 Z
b10010000 b
b100001 j
b110001 r
1U"
#223
b100000001000000100100000100 2
b11000000 Z
b1001000 b
b1000001 j
b110010 r
0U"
b1001010 V"
#224
b11010010000000010000000100 2
b10011100 R
b101 Z
b1000000 b
b1 j
b110011 r
1U"
#225
b110000001010000010000000100 2
b10010 R
b1000001 Z
b110100 r
0U"
b1001011 V"
#226
b100000001000000010000000100 2
b10100 R
b1 Z
b1000001 j
b110101 r
1U"
#227
b100000001000000010010000110 2
b1100 R
b1010000 b
b110100 j
b110110 r
0U"
b1001100 V"
#228
b100000000101000100100000100 2
b10000 R
b10000001 Z
b1000100 b
b1 j
b110111 r
1U"
#229
b100000101110000010000000101 2
b111100 R
b100111 Z
b1010000 b
b111000 r
0U"
b1001101 V"
#230
b10100111000001000000010000000100 2
b10010 R
b1 Z
b1000000 b
b111001 r
1U"
#231
b100000001010000010000000100 2
b10000 R
b1010000 b
b11000001 j
b111010 r
0U"
b1001110 V"
#232
b101000001000000010011010001 2
b10000 b
b11011110 j
b111011 r
1U"
#233
b11000001000100010100000100 2
b10000001 Z
b1001011 b
b1000000 j
b111100 r
0U"
b1001111 V"
#234
b100100111100000010000000100 2
b10100 R
b1110 Z
b1010000 b
b11000001 j
b111101 r
1U"
#235
b10001111000001000000010100000100 2
b10001 R
b1 Z
b110000 b
b0 j
b111110 r
0U"
b1010000 V"
#236
b100000001000000010000000100 2
b10100 R
b1000000 b
b11000001 j
b111111 r
1U"
#237
b100000001000000010101111011 2
b10000 R
b10100000 b
b11 j
b1000000 r
0U"
b1010001 V"
#238
b100000001001011000100000011 2
b1000001 Z
b1000100 b
b1 j
b1000001 r
1U"
#239
b100001110100000010000000101 2
b100100 R
b11000010 Z
b1000000 b
b11000001 j
b1000010 r
0U"
b1010010 V"
#240
b1000101000001000000010100000011 2
b10010 R
b11000000 Z
b1010000 b
b0 j
b1000011 r
1U"
#241
b100000001000000001100000100 2
b10000 R
b0 Z
b1000000 b
b10000001 j
b1000100 r
0U"
b1010011 V"
#242
b101000001000000010000001111 2
b1 Z
b10000000 b
b101001 j
b1000101 r
1U"
#243
b100000001000100101000000100 2
b1000001 Z
b1001001 b
b11000001 j
b1000110 r
0U"
b1010100 V"
#244
b100000010010000010000000100 2
b11100 R
b10011 Z
b1000000 b
b0 j
b1000111 r
1U"
#245
b10001001000000110000010000000011 2
b10001 R
b1 Z
b1 j
b1001000 r
0U"
b1010101 V"
#246
b100000000110000010100000100 2
b10000 R
b10000001 j
b1001001 r
1U"
#247
b100000001000000010010100110 2
b1000001 Z
b100000 b
b1001 j
b1001010 r
0U"
b1010110 V"
#248
b100000001001001100000000100 2
b10100 R
b1 Z
b1000101 b
b1000001 j
b1001011 r
1U"
#249
b100010011010000010000000011 2
b11011100 R
b11010011 Z
b110000 b
b1001100 r
0U"
b1010111 V"
#250
b1000111000001000000010000000100 2
b10010 R
b0 Z
b1 j
b1001101 r
1U"
#251
b100000001000000010000000100 2
b10000 R
b1 Z
b1000000 b
b1000001 j
b1001110 r
0U"
b1011000 V"
#252
b100000001000000010000100110 2
b11000001 Z
b1010000 b
b101111 j
b1001111 r
1U"
#253
b100000001010101001000000100 2
b10000000 Z
b1000010 b
b11000001 j
b1010000 r
0U"
b1011001 V"
#254
b101010011000000010000000101 2
b1010000 R
b101101 Z
b1010000 b
b1000000 j
b1010001 r
1U"
#255
b10110111000000110000001100000101 2
b10010 R
b11000001 Z
b1000000 b
b1 j
b1010010 r
0U"
b1011010 V"
#256
b100000001000000001100000100 2
b10000 R
b0 Z
b110000 b
b10000001 j
b1010011 r
1U"
#257
b100000001000000010010111101 2
b1 Z
b10000 b
b10 j
b1010100 r
0U"
b1011011 V"
#258
b100000000110010010100000100 2
b10100 R
b11000001 Z
b1000100 b
b1 j
b1010101 r
1U"
#259
b100101101100000010000000011 2
b11101000 R
b100001 Z
b1000000 b
b1010110 r
0U"
b1011100 V"
#260
b10010100000001000000010100000101 2
b10001 R
b1 Z
b10000001 j
b1010111 r
1U"
#261
b100000000110000010000000100 2
b10000 R
b1010000 b
b1 j
b1011000 r
0U"
b1011101 V"
