dual_cam_display/ip_repo/csi_to_axis_1.0/hdl/.Xil/Vivado-17059-ubuntu/hw_ila_data_1/zip_work/waveform.vcd
$date
        2017-May-09 17:37:36
$end
$version
        Vivado v2016.4 (64-bit)
$end
$timescale
        1ps
$end
$scope module dut $end
$var reg 4 " i_system_wrapper/system_i/axi_vdma_0_M_AXI_S2MM_WSTRB [3:0] $end
$var reg 32 & i_system_wrapper/system_i/axi_vdma_0_M_AXI_S2MM_WDATA [31:0] $end
$var reg 2 F i_system_wrapper/system_i/axi_vdma_0_M_AXI_S2MM_BRESP [1:0] $end
$var reg 1 H u_ila_0_axi_vdma_0_M_AXI_S2MM_AWSIZE_1 $end
$var reg 1 K u_ila_0_axi_vdma_0_M_AXI_S2MM_AWSIZE_2 $end
$var reg 1 L u_ila_0_axi_vdma_0_M_AXI_S2MM_AWSIZE_3 $end
$var reg 1 M u_ila_0_axi_vdma_0_M_AXI_S2MM_AWSIZE_4 $end
$var reg 4 N u_ila_0_axi_vdma_0_M_AXI_S2MM_AWLEN [3:0] $end
$var reg 1 R u_ila_0_axi_vdma_0_M_AXI_S2MM_AWSIZE_5 $end
$var reg 1 S u_ila_0_axi_vdma_0_M_AXI_S2MM_AWSIZE_6 $end
$var reg 1 T u_ila_0_axi_vdma_0_M_AXI_S2MM_AWSIZE_7 $end
$var reg 1 U u_ila_0_axi_vdma_0_M_AXI_S2MM_AWSIZE_8 $end
$var reg 1 V u_ila_0_axi_vdma_0_M_AXI_S2MM_AWCACHE_1 $end
$var reg 1 W u_ila_0_axi_vdma_0_M_AXI_S2MM_AWCACHE $end
$var reg 1 X u_ila_0_axi_vdma_0_M_AXI_S2MM_AWSIZE_9 $end
$var reg 1 Y u_ila_0_axi_vdma_0_M_AXI_S2MM_AWSIZE_10 $end
$var reg 1 Z u_ila_0_axi_vdma_0_M_AXI_S2MM_AWBURST $end
$var reg 1 [ u_ila_0_axi_vdma_0_M_AXI_S2MM_AWSIZE $end
$var reg 32 \ i_system_wrapper/system_i/axi_vdma_0_M_AXI_S2MM_AWADDR [31:0] $end
$var reg 4 | cam1_data_lp_p_IBUF [3:0] $end
$var reg 4 "" cam1_data_lp_n_IBUF [3:0] $end
$var reg 1 &" u_ila_0_axi_vdma_0_M_AXI_S2MM_AWREADY $end
$var reg 1 '" i_system_wrapper/system_i/axi_vdma_0_M_AXI_S2MM_AWVALID $end
$var reg 1 (" i_system_wrapper/system_i/axi_vdma_0_M_AXI_S2MM_BREADY $end
$var reg 1 )" i_system_wrapper/system_i/axi_vdma_0_M_AXI_S2MM_BVALID $end
$var reg 1 *" u_ila_0_axi_vdma_0_M_AXI_S2MM_WLAST $end
$var reg 1 +" i_system_wrapper/system_i/axi_vdma_0_M_AXI_S2MM_WREADY $end
$var reg 1 ," i_system_wrapper/system_i/axi_vdma_0_M_AXI_S2MM_WVALID $end
$var reg 1 -" \i_system_wrapper/system_i/csi2_d_phy_rx_0/U0/bits_gen[1].line_if_inst/data_s $end
$var reg 1 ." \i_system_wrapper/system_i/csi2_d_phy_rx_0/U0/bits_gen[3].line_if_inst/data_s $end
$var reg 1 /" \i_system_wrapper/system_i/csi2_d_phy_rx_0/U0/bits_gen[2].line_if_inst/data_s $end
$var reg 1 0" \i_system_wrapper/system_i/csi2_d_phy_rx_0/U0/bits_gen[0].line_if_inst/data_s $end
$var reg 1 1" _TRIGGER $end
$var reg 1 2" _WINDOW $end
$var reg 1 3" _GAP $end
$upscope $end
$enddefinitions $end
#0
$dumpvars
b0 "
b0 &
b0 F
0H
0K
0L
0M
b0 N
0R
0S
0T
0U
1V
1W
0X
0Y
0Z
0[
b0 \
b1011 |
b1111 ""
1&"
0'"
1("
0)"
0*"
0+"
0,"
0-"
0."
0/"
00"
01"
12"
03"
$end
#1
b1000 |
#2
b0 |
b1011 ""
#3
b0 ""
#6
10"
#7
00"
#21
1-"
1."
10"
#22
0."
00"
#23
0-"
#26
1/"
#27
1-"
10"
#28
0-"
00"
#29
0/"
#30
10"
#31
00"
#32
1/"
#33
0/"
#34
1-"
#35
1."
10"
#36
0-"
0."
1/"
00"
#37
0/"
#41
10"
#42
1-"
00"
#43
1/"
10"
#44
1."
#45
0/"
00"
#46
0-"
0."
#47
10"
#48
1-"
00"
#49
0-"
#51
1/"
10"
#52
00"
#53
1-"
1."
10"
#54
0."
0/"
00"
#55
0-"
1/"
#56
1."
0/"
#57
0."
#58
10"
#59
1-"
1."
1/"
#60
0-"
00"
#61
0/"
#62
0."
#64
10"
#65
b1111 "
b100000001000000010000000100 &
00"
#66
1/"
#67
10"
#68
1-"
00"
#69
1."
10"
#70
0-"
0."
0/"
00"
#75
b111 N
1Z
b101110000000000000000000000000 \
1'"
1-"
1."
1/"
10"
#76
b0 N
0Z
b0 \
0&"
0'"
0."
#77
1&"
1,"
1."
0/"
#78
0-"
0."
1/"
00"
#79
1+"
0/"
#80
b1000001000000010011000111 &
#82
b11000001000110001000000100 &
1-"
#83
b100011111010000010000000011 &
b111 N
1Z
b101110000000000000000000100000 \
1'"
0-"
1/"
10"
#84
b1110011000001000000010000000100 &
b0 N
0Z
b0 \
0&"
0'"
1."
0/"
00"
#85
b100000000110000010000000100 &
1&"
1-"
0."
#86
b100000001000000010010100100 &
1*"
0-"
#87
b11000000110000001000000100 &
0*"
10"
#88
b100011111000000010000000011 &
1-"
00"
#89
0-"
#90
b1000000010000000100 &
1."
#91
b11000001000000010000000011 &
b111 N
1Z
b101110000000000000000001000000 \
1'"
0."
10"
#92
b100000000110000010001000101 &
b0 N
0Z
b0 \
0&"
0'"
#93
b100000000110011100000000100 &
1&"
1-"
1."
#94
b100011000100000010000000100 &
1*"
0."
00"
#95
b100000000001000000001100000100 &
0*"
0-"
1/"
#96
b11000000110000001100000100 &
0/"
#98
b11000000110000001111111001 &
10"
#99
b100000001000000111000000100 &
b111 N
1Z
b101110000000000000000001100000 \
1'"
1-"
1/"
00"
#100
b11000011100000010000000100 &
b0 N
0Z
b0 \
0&"
0'"
1)"
0-"
0/"
10"
11"
#101
b1101011000000110000001100000011 &
1&"
0)"
1-"
00"
#102
b11000001000000001100000100 &
1*"
0-"
#103
b11000001000000001111001100 &
0*"
#104
b100000000110010000100000100 &
10"
#105
00"
#106
b11110000010000001100000100 &
#107
b11110111000001000000001100000100 &
b111 N
1Z
b101110000000000000000010000000 \
1'"
1-"
1."
1/"
10"
#108
b11000001000000001100000100 &
b0 N
0Z
b0 \
0&"
0'"
1)"
0-"
0."
#109
b100000000110000010011011100 &
1&"
0)"
1-"
00"
#110
b11000000111001011100000011 &
1*"
0-"
0/"
10"
#111
b100011111010000010000000011 &
0*"
00"
#112
b11101100000000110000001100000011 &
#114
b11000001000000001100000100 &
#115
b100000000110000001111001101 &
b111 N
1Z
b101110000000000000000010100000 \
1'"
1-"
1."
10"
#116
b100000001000101111000000100 &
b0 N
0Z
b0 \
0&"
0'"
1)"
0-"
0."
00"
#117
b11110001100000010000000100 &
1&"
0)"
1/"
10"
#118
b1000001000001000000010000000100 &
1*"
0/"
00"
#119
b100000001000000010000000100 &
0*"
1."
#120
b11000001000000010100100010 &
0."
#121
10"
#122
b100000001000110010000000100 &
1-"
00"
#123
b100001010110000010000000011 &
b111 N
1Z
b101110000000000000000011000000 \
1'"
1/"
10"
#124
b1011001000001000000001100000100 &
b0 N
0Z
b0 \
0&"
0'"
1)"
0-"
1."
0/"
00"
#125
b100000000110000001100000100 &
1&"
0)"
0."
10"
#126
b11000000110000010101110111 &
1*"
00"
#127
b100000001001001100000000100 &
0*"
10"
#128
b100000010010000010000000101 &
1-"
00"
#129
0-"
#130
b11000001000000010000000100 &
#131
b101000001000000010000000100 &
b111 N
1Z
b101110000000000000000011100000 \
1'"
1-"
1."
1/"
10"
#132
b100000001000000010000000110 &
b0 N
0Z
b0 \
0&"
0'"
1)"
0."
0/"
00"
#133
b100000000111000001100000011 &
1&"
0)"
0-"
1."
10"
#134
b11111000000000001100000011 &
1*"
1-"
0."
00"
#135
b11111000001000000010100000011 &
0*"
0-"
1/"
#136
b11000001000000010000000101 &
1."
0/"
#137
0."
#138
b100000001000000001110000010 &
#139
b100000001001000100000000100 &
b111 N
1Z
b101110000000000000000100000000 \
1'"
1-"
1."
1/"
10"
#140
b11010001000000001100000101 &
b0 N
0Z
b0 \
0&"
0'"
1)"
0-"
0."
0/"
00"
#141
b10000011000001000000010100000100 &
1&"
0)"
1."
#142
b100000001000000001100000100 &
1*"
0."
#143
b100000001000000010010001100 &
0*"
#144
b100000001001111000000000100 &
10"
#145
00"
#146
b11010000100000010000000100 &
#147
b10001111000000110000010000000011 &
b111 N
1Z
b101110000000000000000100100000 \
1'"
1/"
10"
#148
b11000000110000001100000100 &
b0 N
0Z
b0 \
0&"
0'"
1)"
1-"
0/"
00"
#149
b100000001000000010110101010 &
1&"
0)"
#150
b11000001001101101100000011 &
1*"
0-"
10"
#151
b100110110110000001100000110 &
0*"
1-"
00"
#152
b11000110000000110000010000000011 &
0-"
1/"
#153
0/"
#154
b100000001000000001100000100 &
#155
b100000000110000010010001100 &
b111 N
1Z
b101110000000000000000101000000 \
1'"
1/"
10"
#156
b11000001001111110000000011 &
b0 N
0Z
b0 \
0&"
0'"
1)"
1-"
0/"
00"
#157
b100001110010000010000000011 &
1&"
0)"
0-"
10"
#158
b1111010000001000000001100000100 &
1*"
1/"
00"
#159
b11000000110000010000000100 &
0*"
1."
0/"
#160
b11000001000000001111110011 &
0."
#162
b100000000110100001000000100 &
#163
b100111101000000001100000011 &
b111 N
1Z
b101110000000000000000101100000 \
1'"
1."
1/"
10"
#164
b11100101000001000000010000000100 &
b0 N
0Z
b0 \
0&"
0'"
1)"
0/"
#165
b100000000110000010000000011 &
1&"
0)"
1/"
00"
#166
b100000000110000010100111110 &
1*"
0."
0/"
#167
b11000000111011110000000011 &
0*"
#168
b100110011000000001100000100 &
#170
b1001001000001000000010000000011 &
1."
#171
b100000000110000010000000011 &
b111 N
1Z
b101110000000000000000110000000 \
1'"
1-"
0."
1/"
#172
b100000000110000010001100110 &
b0 N
0Z
b0 \
0&"
0'"
1)"
0-"
10"
#173
b100000001000000010000000100 &
1&"
0)"
1."
00"
#174
b100000001110000010000000101 &
1*"
0."
0/"
#175
b11101111000000110000010000000011 &
0*"
#176
b100000000110000010000000011 &
#178
b11000000110000010100110110 &
#179
b11000001000011100000000100 &
b111 N
1Z
b101110000000000000000110100000 \
1'"
1."
10"
#180
b11110111000000010000000100 &
b0 N
0Z
b0 \
0&"
0'"
1)"
0."
1/"
00"
#181
b10010010000001000000010000000100 &
1&"
0)"
10"
#182
b100000001000000010000000011 &
1*"
1."
0/"
00"
#183
b100000000110000010101100100 &
0*"
0."
#184
b100000001000010110100000100 &
#186
b100111000000000001100000011 &
#187
b10100000000000110000010000000100 &
b111 N
1Z
b101110000000000000000111000000 \
1'"
1-"
1."
10"
#188
b100000001000000010000000100 &
b0 N
0Z
b0 \
0&"
0'"
1)"
0-"
0."
#189
b100000001000000001101000000 &
1&"
0)"
1-"
1."
00"
#190
b11000001001111011000000011 &
1*"
0-"
0."
10"
#191
b11010111000000010000000100 &
0*"
00"
#192
b11110010000001000000010100000100 &
#194
b100000001000000010000000100 &
#195
b100000001000000010001000101 &
b111 N
1Z
b101110000000000000000111100000 \
1'"
1-"
1."
#196
b100000001000100110000000100 &
b0 N
0Z
b0 \
0&"
0'"
1)"
0."
10"
#197
b100100010010000010000000100 &
1&"
0)"
0-"
1/"
00"
#198
b1000101000001000000010000000100 &
1*"
0/"
#199
b11000000110000001100000100 &
0*"
#200
b11000001000000010010111001 &
#201
10"
#202
b100000001001000010000000011 &
00"
#203
b101110001110000001100000100 &
b111 N
1Z
b101110000000000000001000000000 \
1'"
1-"
1/"
10"
#204
b11000001000000001100000100 &
b0 N
0Z
b0 \
0&"
0'"
1)"
#205
b100000001010000001100000100 &
1&"
0)"
0-"
1."
0/"
#206
b100000001000000001111010100 &
1*"
0."
00"
#207
b100000001001110100000000011 &
0*"
10"
#208
b100001101010000010000000100 &
00"
#210
b11001100000000110000010000000011 &
#211
b100000001010000001100000011 &
b111 N
1Z
b101110000000000000001000100000 \
1'"
1."
1/"
10"
#212
b11000001000000001100001111 &
b0 N
0Z
b0 \
0&"
0'"
1)"
1-"
0."
0/"
00"
#213
b100000001000101011100000100 &
1&"
0)"
0-"
1."
10"
#214
b100111001100000010000000011 &
1*"
1-"
0."
00"
#215
b11101000000001000000010000000011 &
0*"
0-"
#216
b100000001000000010000000100 &
1."
#217
0."
#218
b11000001000000001100000010 &
10"
#219
b100000000110011000100000100 &
b111 N
1Z
b101110000000000000001001000000 \
1'"
1-"
1."
00"
#220
b100110001010000001100000100 &
b0 N
0Z
b0 \
0&"
0'"
1)"
1/"
#221
b1011011000001000000010000000011 &
1&"
0)"
0-"
#222
b11000000110000010000000100 &
1*"
0/"
#223
b100000001000000001110010001 &
0*"
0."
#224
b100000001010101011000000100 &
10"
#225
00"
#226
b100000001010000010000000100 &
1/"
#227
b10011101000000110000010000000011 &
b111 N
1Z
b101110000000000000001001100000 \
1'"
1."
0/"
10"
#228
b11000001000000010000000011 &
b0 N
0Z
b0 \
0&"
0'"
1)"
0."
1/"
00"
#229
b101000000110000010010000011 &
1&"
0)"
0/"
10"
#230
b11000000110001110000000100 &
1*"
00"
#231
b100000111010000010000000100 &
0*"
#232
b1000001000000010000000100 &
1/"
#233
0/"
#234
b100000001000000010000000100 &
#235
b11000001000000010000000110 &
b111 N
1Z
b101110000000000000001010000000 \
1'"
1."
#236
b100000000111001000000000100 &
b0 N
0Z
b0 \
0&"
0'"
1)"
1-"
0."
10"
#237
b100010001110000010000000100 &
1&"
0)"
0-"
1."
#238
b11000000000000110000010000000101 &
1*"
0."
1/"
00"
#239
b11000001010000010000000100 &
0*"
1."
0/"
#240
b11000001000000010011000100 &
0."
#241
10"
#242
b100000000111010010100000100 &
1-"
00"
#243
b100000100010000010000000011 &
b111 N
1Z
b101110000000000000001010100000 \
1'"
0-"
1/"
#244
b11010111000000110000010000000100 &
b0 N
0Z
b0 \
0&"
0'"
1)"
1."
0/"
10"
#245
b100000001000000010000000011 &
1&"
0)"
1-"
00"
#246
b11000001000000001110001100 &
1*"
0-"
0."
10"
#247
b100000000110000011100000100 &
0*"
#248
b11010001110000010000000100 &
1-"
00"
#249
0-"
1/"
#250
b11000100000000110000010000000100 &
0/"
#251
b100000001000000010000000100 &
b111 N
1Z
b101110000000000000001011000000 \
1'"
1-"
1."
1/"
10"
#252
b100000000110000010000011001 &
b0 N
0Z
b0 \
0&"
0'"
1)"
0-"
0/"
#253
b100000001001100101100000011 &
1&"
0)"
0."
1/"
00"
#254
b100010001110000010000000100 &
1*"
0/"
#255
b101100000001000000010100000011 &
0*"
1/"
#256
b100000001000000010000000100 &
0/"
#258
b11000001000000001111011101 &
10"
#259
b11000001001111000100000011 &
b111 N
1Z
b101110000000000000001011100000 \
1'"
1-"
1/"
#260
b11001111110000010000000100 &
b0 N
0Z
b0 \
0&"
0'"
1)"
0/"
#261
b11101000000000110000001100000011 &
1&"
0)"
0-"
1."
00"
#262
b11000001000000010000000011 &
1*"
0."
#263
b100000000110000010011001011 &
0*"
#264
b100000001000000110100000100 &
10"
#265
00"
#266
b100010010000000010000000100 &
1/"
#267
b11000001000000010000000100 &
b111 N
1Z
b101110000000000000001100000000 \
1'"
1-"
1."
0/"
#268
b100000001000000001100000100 &
b0 N
0Z
b0 \
0&"
0'"
1)"
0-"
0."
10"
#269
b100000001000000001110111101 &
1&"
0)"
1-"
#270
b11000001001111001000000011 &
1*"
0-"
#271
b11001101110000010000000100 &
0*"
1-"
00"
#272
b10110001000001000000010000000100 &
0-"
#273
1."
#274
b100000001000000010000000011 &
0."
#275
b100000000110000010010001110 &
b111 N
1Z
b101110000000000000001100100000 \
1'"
1-"
1."
#276
b100000000111010110100000011 &
b0 N
0Z
b0 \
0&"
0'"
1)"
10"
#277
b11101000110000001100000101 &
1&"
0)"
0-"
1/"
00"
#278
b11110011000000110000010000000100 &
1*"
0."
0/"
10"
#279
b100000001100000010000000100 &
0*"
00"
#280
b101000001000000010010101100 &
#281
10"
#282
b100000001000100100000000011 &
1-"
00"
#283
b11010110000000010000000011 &
b111 N
1Z
b101110000000000000001101000000 \
1'"
#284
b11110111000000110000001100000100 &
b0 N
0Z
b0 \
0&"
0'"
1)"
1."
1/"
10"
#285
b100000000110000010000000100 &
1&"
0)"
0."
0/"
00"
#286
b100000001000000010001100001 &
1*"
0-"
10"
#287
b100000001011000000000000100 &
0*"
00"
#288
b101001000100000010000000011 &
1-"
#289
b111001000100000000000000011 &
0-"
1/"
#290
b1101111000001000000001100000011 &
1."
0/"
#291
b100000001000000010000000101 &
b111 N
1Z
b101110000000000000001101100000 \
1'"
1/"
10"
#292
b100000000110000001001110000 &
b0 N
0Z
b0 \
0&"
0'"
1)"
1-"
0."
0/"
00"
#293
b100000001011011101100000011 &
1&"
0)"
0-"
1."
1/"
#294
b101100000000000010000000011 &
1*"
0."
0/"
#295
b11010000000000110000010000000100 &
0*"
1/"
#296
b100000001000000010000000011 &
0/"
#297
b100000001110000010000010011 &
#298
b100000000110000010000010101 &
10"
#299
b11000001001100110000000011 &
b111 N
1Z
b101110000000000000001110000000 \
1'"
1-"
1."
#300
b11111111000000001100000011 &
b0 N
0Z
b0 \
0&"
0'"
1)"
0-"
0."
1/"
#301
b1011110000001000000010000000011 &
1&"
0)"
0/"
#302
b11000001000000010100000100 &
1*"
#303
b100000001000000010011001111 &
0*"
00"
#304
b10000001000110001100000100 &
10"
#305
b100100001000010001100000100 &
00"
#306
b100111111000000001100000100 &
#307
b1100011000001000000001100000100 &
b111 N
1Z
b101110000000000000001110100000 \
1'"
1-"
1/"
#308
b100000001010000010000000100 &
b0 N
0Z
b0 \
0&"
0'"
1)"
0-"
0/"
10"
#309
b11000001000000010000001100 &
1&"
0)"
1."
#310
b100000001010110100000000100 &
1*"
0."
00"
#311
b100111100000000010000000010 &
0*"
#312
b1001000000001000000010000000100 &
#313
b1001010000001000000000000000100 &
1."
#314
b11000001000000001100000100 &
0."
#315
b100000000110000010011001100 &
b111 N
1Z
b101110000000000000001111000000 \
1'"
1."
10"
#316
b11000001000010110100000100 &
b0 N
0Z
b0 \
0&"
0'"
1)"
1/"
#317
b100111010000000001100000100 &
1&"
0)"
1-"
0."
0/"
00"
#318
b1000011000001000000010000000100 &
1*"
0-"
1/"
#319
b100000001000000010000000100 &
0*"
1."
0/"
#320
b11000001000000010001000100 &
0."
#321
b11000001010000010001000100 &
10"
#322
b11000000110010111100000101 &
00"
#323
b100111111100000001100000011 &
b111 N
1Z
b101110000000000000001111100000 \
1'"
1-"
1."
#324
b11111101000000110000010000000011 &
b0 N
0Z
b0 \
0&"
0'"
1)"
0-"
0."
10"
#325
b100000001000000010000000110 &
1&"
0)"
1."
1/"
#326
b100000001000000001110100110 &
1*"
0."
0/"
#327
b100000001011100001000000011 &
0*"
#328
b101010010000000001100000100 &
1-"
00"
#329
b101010010010000001100000100 &
0-"
1/"
#330
b10011101000000110000001100000011 &
0/"
#331
b100000001010000010000000011 &
b111 N
1Z
b101110000000000000010000000000 \
1'"
1/"
10"
#332
b100000000110000010000010000 &
b0 N
0Z
b0 \
0&"
0'"
1-"
00"
#333
b11000001000100111100000100 &
1&"
1)"
1."
0/"
10"
#334
b101001111010000010000000100 &
0)"
1*"
0."
00"
#335
b1011000001000000001100000011 &
0*"
0-"
#336
b11000001000000010000000011 &
1."
#337
b11000001000000010000001011 &
0."
#338
b100000001000000010011111000 &
#339
b100000001001010101000000100 &
b111 N
1Z
b101110000000000000010000100000 \
1'"
1-"
1/"
10"
#340
b11100110000000010000000011 &
b0 N
0Z
b0 \
0&"
0'"
1)"
0/"
#341
b1111010000000110000001100000011 &
1&"
0)"
1."
00"
#342
b100000001000000001100000100 &
1*"
0-"
0."
10"
#343
b100000001000000010100111111 &
0*"
00"
#344
b100000000111111011100000100 &
10"
#345
1-"
00"
#346
b101111100000000001100000011 &
0-"
#347
b10001100000000110000010000000011 &
b111 N
1Z
b101110000000000000010001000000 \
1'"
1-"
1."
1/"
10"
#348
b100000001000000001100000100 &
b0 N
0Z
b0 \
0&"
0'"
1)"
0-"
0."
#349
b100000001010000001101101000 &
1&"
0)"
1."
0/"
#350
b11000000110100001000000100 &
1*"
0."
00"
#351
b11011011000000001100000100 &
0*"
#352
b11011100000000110000010100000011 &
1/"
#353
0/"
#354
b11000001000000001100000101 &
#355
b100000001000000001111111100 &
b111 N
1Z
b101110000000000000010001100000 \
1'"
1-"
1."
1/"
10"
#356
b100000000110000011000000100 &
b0 N
0Z
b0 \
0&"
0'"
1)"
0."
0/"
#357
b101100000100000010000000101 &
1&"
0)"
0-"
00"
#358
b1100000001000000010000000011 &
1*"
1/"
#359
b100000001000000010000000011 &
0*"
0/"
#360
b100000001000000010110110101 &
#362
b100000000110100010000000100 &
#363
b100100000110000010000000100 &
b111 N
1Z
b101110000000000000010010000000 \
1'"
1-"
1."
#364
b1001010000001000000010000000011 &
b0 N
0Z
b0 \
0&"
0'"
1)"
0."
1/"
10"
#365
b100000001000000010100000100 &
1&"
0)"
0-"
1."
0/"
00"
#366
b11000001000000010001010101 &
1*"
0."
10"
#367
b100000001001010011000000100 &
0*"
#368
b11000000110000010000000100 &
00"
#369
b1000000110000010000000100 &
#370
b1010100000001000000001100000100 &
1."
#371
b11000000110000001100000100 &
b111 N
1Z
b101110000000000000010010100000 \
1'"
1-"
1/"
10"
#372
b100000000110000001111101101 &
b0 N
0Z
b0 \
0&"
0'"
1)"
#373
b11000000111111110000000011 &
1&"
0)"
0-"
0."
00"
#374
b100111011100000001100000100 &
1*"
0/"
#375
b1010000000001000000010000000100 &
0*"
1/"
#376
b11000001000000010000000100 &
0/"
#377
b1000001000000010000100100 &
#378
b100000001000000010011110010 &
#379
b100000000110000011100000100 &
b111 N
1Z
b101110000000000000010011000000 \
1'"
1."
10"
#380
b100010100110000010000000011 &
b0 N
0Z
b0 \
0&"
0'"
1)"
1-"
0."
#381
b10100100000001000000010000000100 &
1&"
0)"
0-"
1."
1/"
#382
b11000000110000010000000011 &
1*"
0/"
00"
#383
b100000000110000010011101011 &
0*"
0."
#384
b100000001000010111000000100 &
#386
b101011110000000010000000011 &
1/"
#387
b1010011000001000000001100000100 &
b111 N
1Z
b101110000000000000010011100000 \
1'"
1-"
10"
#388
b11000001000000001100000100 &
b0 N
0Z
b0 \
0&"
0'"
1)"
0-"
0/"
#389
b100000000110000001110001000 &
1&"
0)"
#390
b11000001001100110100000011 &
1*"
#391
b100000011010000010000000100 &
0*"
00"
#392
b11101101000001000000010000000011 &
#393
1."
#394
b11000001000000010000000100 &
0."
#395
b100000000110000001111000000 &
b111 N
1Z
b101110000000000000010100000000 \
1'"
1-"
1/"
#396
b11000001000011011000000100 &
b0 N
0Z
b0 \
0&"
0'"
1)"
0-"
0/"
10"
#397
b100111110010000001100000011 &
1&"
0)"
1."
1/"
#398
b10111000001000000010100000100 &
1*"
0."
0/"
00"
#399
b100000000110000010000000011 &
0*"
1."
#400
b11000000110000010000111001 &
0."
#401
b11000000110000010000110001 &
10"
#402
b100000001001011110100000100 &
1-"
00"
#403
b11000001010000010000000100 &
b111 N
1Z
b101110000000000000010100100000 \
1'"
1."
10"
#404
b1010111000001000000010000000100 &
b0 N
0Z
b0 \
0&"
0'"
1)"
0-"
#405
b100000000110000010000000100 &
1&"
0)"
0."
1/"
#406
b11000001000000010000110111 &
1*"
0/"
00"
#407
b11000001000011011000000100 &
0*"
10"
#408
b101101011100000001100000011 &
1-"
00"
#409
0-"
#410
b10100111000001000000001100000011 &
1."
#411
b11000000110000010000000100 &
b111 N
1Z
b101110000000000000010101000000 \
1'"
1-"
0."
#412
b100000001000000010011101011 &
b0 N
0Z
b0 \
0&"
0'"
1)"
0-"
10"
#413
b100000001000111001100000100 &
1&"
0)"
1-"
1."
1/"
00"
#414
b100100101000000010000000100 &
1*"
0-"
0."
0/"
#415
b10110101000001000000001100000100 &
0*"
1/"
#416
b11000001000000010000000100 &
1."
0/"
#417
0."
#418
b11000001000000010111000100 &
10"
#419
b100000001000011000000000100 &
b111 N
1Z
b101110000000000000010101100000 \
1'"
1."
1/"
#420
b101000110010000010000000011 &
b0 N
0Z
b0 \
0&"
0'"
1)"
0."
0/"
#421
b11111100000000110000001100000011 &
1&"
0)"
1."
1/"
00"
#422
b11000001000000010000000100 &
1*"
0."
0/"
10"
#423
b101000000110000010010100011 &
0*"
00"
#424
b11000001000001111000000100 &
10"
#425
b1000001000001111000000100 &
1-"
00"
#426
b100000010000000010000000100 &
0-"
1/"
#427
b11011000001000000010000000100 &
b111 N
1Z
b101110000000000000010110000000 \
1'"
1-"
10"
#428
b100000001010000010000000100 &
b0 N
0Z
b0 \
0&"
0'"
1)"
0-"
1."
0/"
#429
b11000000110000001100111110 &
1&"
0)"
1-"
0."
#430
b100000001010011101000000100 &
1*"
0-"
#431
b100011010000000010000000100 &
0*"
1-"
00"
#432
b101000001000000010000000100 &
0-"
#434
b100000001000000010000000100 &
#435
b100000001000000010010010111 &
b111 N
1Z
b101110000000000000010110100000 \
1'"
1-"
1/"
10"
#436
b100000000110011100100000100 &
b0 N
0Z
b0 \
0&"
0'"
1)"
0-"
0/"
#437
b100110000010000001100000100 &
1&"
0)"
1."
1/"
00"
#438
b11111001000000110000010000000011 &
1*"
0."
0/"
#439
b100000001000000010000000100 &
0*"
1."
#440
b100000001000000001110000111 &
0."
#441
b100000001010000001110000111 &
#442
b100000000110000001100000100 &
#443
b100011110110000010000000100 &
b111 N
1Z
b101110000000000000010111000000 \
1'"
1/"
10"
#444
b10100001000001000000010000000100 &
b0 N
0Z
b0 \
0&"
0'"
1)"
1."
0/"
#445
b100000001000000010000000011 &
1&"
0)"
1-"
#446
b100000001000000010010001011 &
1*"
0-"
0."
#447
b100000000110000101100000100 &
0*"
#448
b100000000010000010000000100 &
00"
#449
b10000100000000010000010000000100 &
1/"
#450
b11010100000000110000001100000100 &
1."
0/"
#451
b100000001000000010000000100 &
b111 N
1Z
b101110000000000000010111100000 \
1'"
1-"
0."
1/"
10"
#452
b11000001000000010000000010 &
b0 N
0Z
b0 \
0&"
0'"
1)"
0/"
#453
b100000001000100010000000100 &
1&"
0)"
#454
b11010010110000010000000101 &
1*"
00"
#455
b11000000000000110000010100000100 &
0*"
0-"
1/"
#456
b100000001000000010000000100 &
0/"
#457
b100000001010000010000100100 &
#458
b100000000110000010000100000 &
#459
b100000001000010100100000100 &
b111 N
1Z
b101110000000000000011000000000 \
1'"
1."
1/"
10"
#460
b100010010000000010000000100 &
b0 N
0Z
b0 \
0&"
0'"
1)"
0."
0/"
#461
b110011000001000000010000000100 &
1&"
0)"
1-"
00"
#462
b100000001010000010000000011 &
1*"
0-"
#463
b11000001000000010001000000 &
0*"
#464
b100000000111011000000000100 &
#465
b110100000101011000000000100 &
#466
b11110001100000001100000100 &
#467
b1011000001000000010000000100 &
b111 N
1Z
b101110000000000000011000100000 \
1'"
1-"
1."
1/"
#468
b11000000110000010000000010 &
b0 N
0Z
b0 \
0&"
0'"
1)"
0-"
0."
0/"
10"
#469
b101000001000000010111100110 &
1&"
0)"
1-"
1."
#470
b11000001010001011100000100 &
1*"
0-"
0."
#471
b100110011000000001100000100 &
0*"
00"
#472
b10110001000001000000010000000100 &
#473
b10110001000001010000010000000100 &
1."
#474
b100000000110000001100000100 &
0."
#475
b100000001000000010000111011 &
b111 N
1Z
b101110000000000000011001000000 \
1'"
1/"
#476
b100000001000011000000000100 &
b0 N
0Z
b0 \
0&"
0'"
1)"
1-"
1."
0/"
10"
#477
b100010000010000010000000100 &
1&"
0)"
00"
#478
b101001000001010000010000000100 &
1*"
0-"
0."
1/"
#479
b11000001000000010000000101 &
0*"
1."
0/"
#480
b100000000110000010011000101 &
0."
#481
b110000000110000010011000101 &
10"
#482
b11000001000011110000000101 &
00"
#483
b100001011100000010000000100 &
b111 N
1Z
b101110000000000000011001100000 \
1'"
1-"
1."
1/"
#484
b1001000000001000000010000000100 &
b0 N
0Z
b0 \
0&"
0'"
1)"
0-"
0."
10"
#485
b11000001000000010000000100 &
1&"
0)"
0/"
#486
b10000001000000001110101011 &
b1 N
1Z
b101110000000000000011010000000 \
1'"
1*"
#487
b100000001000110010100000100 &
b0 N
0Z
b0 \
0&"
0'"
0*"
#488
b100000100110000010000000100 &
1&"
00"
#489
b10000110000100110000010000000100 &
#490
b11000111000000110000010000000100 &
1."
#491
b100000001000000001100000011 &
10"
#492
b11000001000000010001111011 &
1)"
1-"
0."
#493
b100000001000111000100000100 &
0)"
0-"
1/"
00"
#494
b11000010010000010000000100 &
1*"
0/"
10"
#495
b11111011000000110000010000000100 &
0*"
1/"
00"
#496
b10000001000000001100000011 &
1*"
0/"
#497
0*"
0+"
0,"
#499
1/"
#500
1)"
10"
#501
0)"
1."
0/"
00"
#502
0."
#503
1."
1/"
10"
#504
1-"
00"
#508
1)"
#510
0)"
#511
b1100 |
b1100 ""
0/"
#512
b1111 |
b1111 ""
#513
0-"
10"
#514
0."
#515
1."
#516
1-"
#517
0-"
#518
0."
#519
1."
#520
00"
#521
10"
#522
0."
#523
1."
00"
#525
10"
#526
0."
#527
1."
#528
1-"
00"
#529
0-"
0."
10"
#531
1."
#532
1-"
00"
#533
0-"
0."
10"
#535
1."
#536
00"
#537
0."
10"
#539
1."
#540
1-"
00"
#541
0-"
0."
#542
10"
#543
1."
#544
00"
#545
0."
10"
#547
1."
#548
1-"
00"
#549
0-"
0."
10"
#551
1."
#552
1-"
00"
#553
0-"
0."
10"
#555
1."
#556
1-"
00"
#557
0-"
10"
#558
0."
#559
1."
#560
1-"
00"
