dual_cam_tpg_demo/.Xil/Vivado-10744-thebe.esat.kuleuven.be/hw_ila_data_4/zip_work/waveform.vcd
$date
        2019-Aug-06 23:38:09
$end
$version
        Vivado v2018.2 (64-bit)
$end
$timescale
        1ps
$end
$scope module dut $end
$var reg 32 " design_1_i/axi_vdma_0_M_AXI_S2MM_AWADDR [31:0] $end
$var reg 1 B design_1_i/axi_vdma_0_M_AXI_S2MM_AWBURST $end
$var reg 8 C design_1_i/axi_vdma_0_M_AXI_S2MM_AWLEN [7:0] $end
$var reg 2 K design_1_i/axi_vdma_0_M_AXI_S2MM_BRESP [1:0] $end
$var reg 64 M design_1_i/axi_vdma_0_M_AXI_S2MM_WDATA [63:0] $end
$var reg 48 /" design_1_i/v_tpg_0_m_axis_video_TDATA [47:0] $end
$var reg 8 _" design_1_i/axi_vdma_0_M_AXI_S2MM_WSTRB [7:0] $end
$var reg 1 g" design_1_i/axi_intc_0_irq $end
$var reg 1 h" design_1_i/axi_vdma_0_M_AXI_S2MM_AWREADY $end
$var reg 1 i" u_ila_0_axi_vdma_0_M_AXI_S2MM_AWVALID $end
$var reg 1 j" design_1_i/axi_vdma_0_M_AXI_S2MM_BREADY $end
$var reg 1 k" design_1_i/axi_vdma_0_M_AXI_S2MM_BVALID $end
$var reg 1 l" design_1_i/axi_vdma_0_M_AXI_S2MM_WLAST $end
$var reg 1 m" design_1_i/axi_vdma_0_M_AXI_S2MM_WREADY $end
$var reg 1 n" design_1_i/axi_vdma_0_M_AXI_S2MM_WVALID $end
$var reg 1 o" design_1_i/v_tpg_0_m_axis_video_TLAST $end
$var reg 1 p" design_1_i/v_tpg_0_m_axis_video_TREADY $end
$var reg 1 q" _TRIGGER $end
$var reg 1 r" _WINDOW $end
$var reg 1 s" _GAP $end
$upscope $end
$enddefinitions $end
#0
$dumpvars
b100000101000100000000000 "
1B
b1111111 C
b0 K
b1111110101011001001010011111110101011000001010101111110101011000 M
b110011001011001000000000110011001011000100000000 /"
b11111111 _"
1g"
0h"
1i"
1j"
0k"
0l"
1m"
1n"
0o"
1p"
0q"
1r"
0s"
$end
#1
b101101000101000111111000101101000101001111111000101100100101001 M
b110010111011001000000000110011001011001000000000 /"
#2
b10100011111100010110110010100011111100010110100010100011111100 M
b110010111011001100000000110010111011001100000000 /"
#3
b1111110001011100001001111111110001011011001001111111110001011011 M
b110010101011010000000000110010101011001100000000 /"
#4
b101110100100110111111000101110100100110111111000101110000100111 M
b110010101011010000000000110010101011010000000000 /"
#5
b10010111111011010111100010011011111011010111010010011011111100 M
b110010011011010100000000110010011011010100000000 /"
1l"
#6
b1000111101110100000000001000111101110100000000001000111101110 M
b110010001011011000000000110010011011011000000000 /"
0l"
0m"
0n"
#7
b110010001011011100000000110010001011011000000000 /"
1n"
#8
b110001111011011100000000110001111011011100000000 /"
#9
b110001101011100000000000110001111011100000000000 /"
#10
b110001101011100100000000110001101011100000000000 /"
#11
b110001011011100100000000110001011011100100000000 /"
#12
b110001001011101000000000110001011011101000000000 /"
#13
b110001001011101100000000110001001011101000000000 /"
#14
b110000111011101100000000110000111011101100000000 /"
#15
b110000101011110000000000110000111011110000000000 /"
#16
b110000101011110100000000110000101011110100000000 /"
#17
b110000011011111000000000110000011011110100000000 /"
#18
b110000001011111000000000110000011011111000000000 /"
#19
b110000001011111100000000110000001011111100000000 /"
#20
b101111111100000000000000101111111011111100000000 /"
#21
b101111101100000000000000101111111100000000000000 /"
#22
b101111101100000100000000101111101100000100000000 /"
1k"
#23
b101111011100001000000000101111011100000100000000 /"
0k"
#24
b101111001100001000000000101111011100001000000000 /"
#25
b101110111100001100000000101111001100001100000000 /"
#26
b101110111100010000000000101110111100001100000000 /"
#27
b101110101100010000000000101110101100010000000000 /"
#28
b101110011100010100000000101110101100010100000000 /"
#29
b101110011100011000000000101110011100010100000000 /"
#30
b101110001100011000000000101110001100011000000000 /"
#31
b101101111100011100000000101110001100011100000000 /"
#32
b101101111100100000000000101101111100011100000000 /"
#33
b101101101100100000000000101101101100100000000000 /"
#34
b101101011100100100000000101101101100100100000000 /"
#35
b101101001100101000000000101101011100100100000000 /"
#36
b101101001100101000000000101101001100101000000000 /"
#37
b101100111100101100000000101100111100101000000000 /"
#38
b101100101100101100000000101100111100101100000000 /"
#39
b101100101100110000000000101100101100110000000000 /"
#40
b101100011100110100000001101100011100110000000000 /"
#41
b101100001100110100000001101100001100110100000001 /"
#42
b101011111100111000000001101100001100111000000001 /"
#43
b101011111100111100000001101011111100111000000001 /"
#44
b101011101100111100000001101011101100111100000001 /"
#45
b101011011101000000000001101011101100111100000001 /"
#46
b101011001101000000000001101011011101000000000001 /"
#47
b101011001101000100000001101011001101000100000001 /"
#48
b101010111101001000000001101010111101000100000001 /"
0p"
#140
1m"
#141
b1110110110000001000100001110111010000001000100001110111010000000 M
#142
b1000001000010000111011011000001000010000111011011000000100010000 M
#143
b111111101100100000110000111111101101100000110000111111101101 M
#144
b1110110010000100000011111110110010000100000011111110110010000011 M
#145
b1000010100001110111010111000010100001110111011001000010100001110 M
#146
b111011101011100001100000111011101011100001100000111011101011 M
#147
b1110101010000111000011011110101010000111000011011110101110000111 M
#148
b1000100100001101111010101000100000001101111010101000100000001101 M
1h"
#149
b0 "
0B
b0 C
b110011101001100010010000110011101001100010010000110011101001 M
0h"
0i"
#150
b100000101000110000000000 "
1B
b1111111 C
b1110100010001010000011001110100110001010000011001110100110001010 M
1i"
1p"
#151
b1000110000001011111010001000101100001011111010001000101100001100 M
b101010101101001000000010101010111101001000000010 /"
#152
b101111100111100011000000101111100111100011000000101111101000 M
b101010101101001100000010101010101101001100000010 /"
#153
b1110011110001110000010101110011110001101000010111110011110001101 M
b101010011101001100000010101010011101001100000010 /"
#154
b1000111100001010111001101000111000001010111001101000111000001010 M
b101010001101010000000010101010001101010000000010 /"
#155
b101011100101100100000000101011100110100011110000101011100110 M
b101001111101010100000010101010001101010000000010 /"
#156
b1110010110010001000010011110010110010000000010011110010110010000 M
b101001111101010100000010101001111101010100000010 /"
#157
b1001001000001001111001001001001000001001111001001001000100001001 M
b101001101101011000000011101001101101010100000010 /"
#158
b100011100011100100110000100111100100100100100000100111100100 M
b101001011101011000000011101001011101011000000011 /"
#159
b1110001110010100000010001110001110010011000010001110001110010011 M
b101001001101011100000011101001011101011100000011 /"
#160
b1001010100001000111000101001010100001000111000101001010000001000 M
b101001001101011100000011101001001101011100000011 /"
#161
b11111100001100101100000011111100010100101010000100011100010 M
b101000111101100000000011101000111101100000000011 /"
#162
b1110000110010111000001111110000110010111000001111110000110010110 M
b101000101101100100000011101000101101100000000011 /"
#163
b1001100000000111111000001001100000000111111000001001011100000111 M
b101000011101100100000100101000101101100100000100 /"
#164
b11011011111100110010000011011100000100110000000011011100000 M
b101000011101101000000100101000011101100100000100 /"
#165
b1101111110011010000001101101111110011010000001101101111110011001 M
b101000001101101000000100101000001101101000000100 /"
#166
b1001101100000110110111101001101100000110110111101001101000000110 M
b100111111101101100000100100111111101101100000100 /"
#167
b10111011101100111000000010111011110100111000000010111011110 M
b100111101101101100000100100111111101101100000100 /"
#168
b1101110010011101000001011101110110011101000001011101110110011100 M
b100111011101110000000101100111101101110000000101 /"
#169
b1001111000000101110111001001111000000101110111001001110100000101 M
b100111011101110000000101100111011101110000000101 /"
#170
b10011011011100111110000010011011011100111110000010111011100 M
b100111001101110100000101100111001101110100000101 /"
#171
b1101101010100000000001001101101110100000000001001101101110011111 M
b100110111101111000000101100111001101110100000101 /"
#172
b1010000100000100110110101010000100000100110110101010000100000100 M
b100110101101111000000110100110111101111000000101 /"
#173
b10011011001101000100000010011011001101000100000010011011001 M
b100110101101111100000110100110101101111000000110 /"
#174
b1101100010100011000000111101100010100011000000111101100110100010 M
b100110011101111100000110100110011101111100000110 /"
#175
b1010010000000011110101111010010000000011110110001010010000000011 M
b100110001110000000000110100110001101111100000110 /"
#176
b1111010111101001010000001111010111101001010000001111010111 M
b100101111110000000000111100110001110000000000110 /"
#177
b1101011010100110000000111101011010100110000000111101011010100101 M
b100101111110000100000111100101111110000000000111 /"
#178
b1010011100000010110101011010011100000010110101011010011100000011 M
b100101101110000100000111100101101110000100000111 /"
#179
b1011010100101010000000001011010101101010000000001011010101 M
b100101011110001000000111100101011110000100000111 /"
#180
b1101001110101001000000101101010010101001000000101101010010101000 M
b100101001110001000001000100101011110001000001000 /"
#181
b1010101000000010110100111010101000000010110100111010101000000010 M
b100100111110001100001000100101001110001000001000 /"
#182
b1011010010101010110000001011010010101010110000001011010011 M
b100100111110001100001000100100111110001100001000 /"
#183
b1101000110101100000000011101000110101100000000011101001010101011 M
b100100101110010000001001100100101110001100001000 /"
#184
b1010110100000001110100001010110100000001110100011010110000000001 M
b100100011110010000001001100100101110010000001001 /"
#185
b111001111101011100000000111010000101011100000000111010000 M
b100100001110010100001001100100011110010000001001 /"
#186
b1100111110101111000000011100111110101111000000011100111110101110 M
b100100001110010100001001100100001110010100001001 /"
#187
b1011000000000001110011101011000000000001110011101010111100000001 M
b100011111110011000001010100011111110010100001010 /"
#188
b111001101101100010000000111001101101100000000000111001110 M
b100011101110011000001010100011101110011000001010 /"
#189
b1100110010110010000000001100110010110010000000011100110110110001 M
b100011011110011100001010100011101110011000001010 /"
#190
b1011001100000000110010111011001100000000110011001011001000000000 M
b100011001110011100001011100011011110011100001010 /"
#191
b11001010101101000000000011001011101100110000000011001011 M
b100011001110011100001011100011001110011100001011 /"
#192
b1100101010110101000000001100101010110100000000001100101010110100 M
b100010111110100000001011100010111110100000001011 /"
#193
b1011011000000000110010011011011000000000110010011011010100000000 M
b100010101110100000001100100010101110100000001011 /"
#194
b11001000101101110000000011001000101101100000000011001001 M
b100010011110100100001100100010101110100100001100 /"
#195
b1100011110111000000000001100011110110111000000001100100010110111 M
b100010011110100100001100100010011110100100001100 /"
#196
b1011100100000000110001101011100000000000110001111011100000000000 M
b100010001110101000001101100010001110100100001100 /"
#197
b11000101101110010000000011000110101110010000000011000110 M
b100001111110101000001101100001111110101000001101 /"
#198
b1100010010111010000000001100010110111010000000001100010110111010 M
b100001101110101100001101100001111110101000001101 /"
#199
b1011101100000000110001001011101100000000110001001011101100000000 M
b100001011110101100001110100001101110101100001110 /"
#200
b11000011101111000000000011000011101111000000000011000011 M
b100001011110101100001110100001011110101100001110 /"
#201
b1100001010111101000000001100001010111101000000001100001010111101 M
b100001001110110000001110100001001110110000001110 /"
#202
b1011111000000000110000011011111000000000110000011011111000000000 M
b100000111110110000001111100000111110110000001111 /"
#203
b11000000101111110000000011000000101111110000000011000001 M
b100000101110110100001111100000111110110000001111 /"
#204
b1011111111000000000000001011111111000000000000001100000010111111 M
b100000011110110100010000100000101110110100001111 /"
#205
b1100000100000000101111101100000100000000101111111100000000000000 M
b100000011110110100010000100000011110110100010000 /"
#206
b10111101110000100000000010111110110000010000000010111110 M
b100000001110111000010000100000001110111000010000 /"
#207
b1011110011000011000000001011110111000010000000001011110111000010 M
b11111111110111000010001100000001110111000010001 /"
#208
b1100010000000000101110111100001100000000101111001100001100000000 M
b11111101110111100010001011111111110111000010001 /"
#209
b10111010110001000000000010111011110001000000000010111011 M
b11111101110111100010010011111101110111100010001 /"
#210
b1011100111000101000000001011101011000101000000001011101011000101 M
b11111011110111100010010011111011110111100010010 /"
#211
b1100011000000000101110011100011000000000101110011100011000000000 M
b11111001111000000010010011111001111000000010010 /"
#212
b10111000110001110000000010111000110001110000000010111000 M
b11110111111000000010011011111001111000000010011 /"
#213
b1011011111001000000000001011011111001000000000001011011111000111 M
b11110101111000100010011011110111111000000010011 /"
#214
b1100100100000000101101101100100100000000101101101100100000000000 M
b11110101111000100010100011110101111000100010011 /"
#215
b10110101110010100000000010110101110010010000000010110110 M
b11110011111000100010100011110011111000100010100 /"
#216
b1011010011001010000000001011010011001010000000001011010011001010 M
b11110001111001000010100011110001111000100010100 /"
#217
b1100101100000000101100111100101100000000101100111100101100000000 M
b11101111111001000010101011110001111001000010101 /"
#218
b10110010110011000000000010110010110011000000000010110011 M
b11101101111001000010101011101111111001000010101 /"
#219
b1011000111001101000000001011000111001101000000001011001011001100 M
b11101101111001100010110011101101111001100010110 /"
#220
b1100111000000001101100001100111000000001101100001100110100000001 M
b11101011111001100010110011101011111001100010110 /"
#221
b110101111110011110000000110101111110011100000000110110000 M
b11101001111001100010111011101011111001100010110 /"
#222
b1010111011001111000000011010111011001111000000011010111111001111 M
b11100111111010000010111011101001111010000010111 /"
#223
b1101000000000001101011011101000000000001101011101101000000000001 M
b11100111111010000011000011100111111010000010111 /"
#224
b110101100110100010000000110101100110100010000000110101101 M
b11100101111010000011000011100101111010000011000 /"
#225
b1010101111010010000000011010101111010010000000011010110011010001 M
b11100011111010100011000011100011111010100011000 /"
#226
b1101001100000010101010101101001100000010101010111101001000000001 M
b11100001111010100011001011100011111010100011001 /"
#227
b1010101001110100110000001010101010110100110000001010101010 M
b11011111111010100011001011100001111010100011001 /"
#228
b1010100011010100000000101010100011010100000000101010100111010100 M
b11011111111011000011010011011111111010100011010 /"
#229
b1101010100000010101001111101010100000010101010001101010100000010 M
b11011101111011000011010011011101111011000011010 /"
#230
b1010100110110101100000001010100111110101010000001010100111 M
b11011011111011000011011011011011111011000011011 /"
#231
b1010010111010111000000111010010111010110000000111010011011010110 M
b11011001111011000011011011011011111011000011011 /"
#232
b1101011100000011101001001101011100000011101001011101011100000011 M
b11011001111011100011100011011001111011100011100 /"
#233
b1110100011110110000000001110100100110110000000001110100100 M
b11010111111011100011100011010111111011100011100 /"
#234
b1010001011011001000000111010001011011001000000111010001111011000 M
b11010101111011100011101011010101111011100011101 /"
#235
b1101101000000100101000011101100100000100101000101101100100000011 M
b11010011111100000011101011010101111011100011101 /"
#236
b10010100000110110100000010010100001110110100000010010100001 M
b11010001111100000011110011010011111100000011110 /"
#237
b1001111111011011000001001001111111011011000001001010000011011011 M
b11010001111100000011110011010001111100000011110 /"
#238
b1101110000000100100111101101110000000100100111111101101100000100 M
b11001111111100000011111011001111111100000011111 /"
#239
b10110011101110111000000010110011101110111000000010110011110 M
b11001101111100100011111011001111111100100011111 /"
#240
b1001110011011101000001011001110011011101000001011001110111011101 M
b11001011111100100100000011001101111100100100000 /"
#241
b1101111000000101100110111101111000000101100111001101111000000101 M
b11001011111100100100000011001011111100100100000 /"
#242
b11010011010110111110000011010011010110111100000010110011011 M
b11001001111100100100001011001001111100100100001 /"
#243
b1001100111011111000001101001100111011111000001101001101011011111 M
b11000111111101000100001011000111111101000100001 /"
#244
b1110000000000110100110001110000000000110100110001110000000000110 M
b11000101111101000100010011000111111101000100010 /"
#245
b11110010111111000010000011110010111111000000000011010011000 M
b11000101111101000100011011000101111101000100010 /"
#246
b1001011011100001000001111001011011100001000001111001011111100001 M
b11000011111101000100011011000011111101000100011 /"
#247
b1110001000000111100101011110001000000111100101011110001000000111 M
b11000001111101100100100011000001111101000100011 /"
#248
b100010010100111000110000100010010100111000100000100010010101 M
b10111111111101100100100011000001111101100100100 /"
#249
b1001001111100011000010001001001111100011000010001001001111100011 M
b10111101111101100100101010111111111101100100100 /"
#250
b1110010000001001100100101110010000001000100100101110010000001000 M
b10111101111101100100101010111101111101100100101 /"
#251
b100110010001111001010000100110010001111001000000100110010010 M
b10111011111101100100110010111011111101100100110 /"
#252
b1001000011100101000010011001000011100101000010011001000011100101 M
b10111001111110000100110010111011111101100100110 /"
#253
b1110011000001010100011111110011000001010100011111110011000001001 M
b10110111111110000100111010111001111110000100111 /"
#254
b101010001110111001110000101010001110111001100000101010001110 M
b10110111111110000101000010110111111110000100111 /"
#255
b1000110011100111000010101000110111100111000010101000110111100111 M
b10110101111110000101000010110101111110000101000 /"
#256
b1110100000001011100011001110100000001011100011001110011100001011 M
b10110011111110000101001010110101111110000101000 /"
#257
b101110001010111010000000101110001011111010000000101110001011 M
b10110001111110000101001010110011111110000101001 /"
#258
b1000100111101001000011001000101011101001000011001000101011101001 M
b10110001111110100101010010110001111110100101010 /"
#259
b1110101000001100100010011110100100001100100010011110100100001100 M
b10101111111110100101010010101111111110100101010 /"
#260
b110110000111111010100000110110001000111010100000110010001000 M
b10101101111110100101011010101111111110100101011 /"
#261
b1000011011101011000011011000011111101011000011011000011111101010 M
b10101011111110100101100010101101111110100101011 /"
#262
b1110101100001110100001011110101100001110100001101110101100001101 M
b10101011111110100101100010101011111110100101100 /"
#263
b111010000100111011000000111010000101111011000000111010000101 M
b10101001111110100101101010101001111110100101100 /"
#264
b1000001111101100000011111000001111101100000011101000010011101100 M
b10100111111111000101101010101001111110100101101 /"
#265
b1110110100001111100000101110110100001111100000111110110100001111 M
b10100111111111000101110010100111111111000101110 /"
#266
b1000010000001111011010001000010000001111011010000111110000010 M
b10100101111111000101111010100101111111000101110 /"
#267
b1000000011101110000100001000000011101110000100001000000111101110 M
b10100011111111000101111010100011111111000101111 /"
1l"
#268
b1110111100010001011111111110111000010001100000001110111000010000 M
b10100001111111000110000010100011111111000110000 /"
0l"
0m"
#269
b10100001111111000110000010100001111111000110000 /"
#270
b10011111111111000110001010011111111111000110001 /"
#271
b10011101111111000110010010011111111111000110001 /"
#272
b10011011111111000110010010011101111111000110010 /"
#273
b10011011111111100110011010011011111111100110011 /"
#274
b10011001111111100110100010011001111111100110011 /"
#275
b10010111111111100110100010011001111111100110100 /"
#276
b10010111111111100110101010010111111111100110101 /"
#277
b10010101111111100110101010010101111111100110101 /"
#278
b10010011111111100110110010010011111111100110110 /"
#279
b10010001111111100110111010010011111111100110110 /"
#280
b10010001111111100110111010010001111111100110111 /"
#281
b10001111111111100111000010001111111111100111000 /"
#282
b10001101111111100111001010001111111111100111000 /"
#283
b10001101111111100111001010001101111111100111001 /"
#284
b10001011111111100111010010001011111111100111010 /"
1k"
#285
b10001001111111100111011010001011111111100111010 /"
0k"
#286
b10001001111111100111011010001001111111100111011 /"
#287
b10000111111111100111100010000111111111100111100 /"
#288
b10000101111111100111101010000101111111100111100 /"
#289
b10000011111111100111101010000101111111100111101 /"
#290
b10000011111111100111110010000011111111100111110 /"
#291
b10000001111111100111111010000001111111100111110 /"
#292
b1111111111111100111111010000001111111100111111 /"
#293
b1111111111111101000000001111111111111101000000 /"
#294
b1111101111111101000001001111101111111101000000 /"
#295
b1111011111111101000001001111101111111101000001 /"
#296
b1111011111111101000010001111011111111101000010 /"
#297
b1111001111111101000011001111001111111101000010 /"
#298
b1110111111111101000100001111001111111101000011 /"
#299
b1110111111111101000100001110111111111101000100 /"
#300
b1110101111111101000101001110101111111101000101 /"
#301
b1110011111111101000110001110101111111101000101 /"
#302
b1110011111111101000110001110011111111101000110 /"
#303
b1110001111111101000111001110001111111101000111 /"
#304
b1101111111111101001000001110001111111101000111 /"
#305
b1101111111111101001000001101111111111101001000 /"
#306
b1101101111111101001001001101101111111101001001 /"
#307
b1101011111111101001010001101101111111101001001 /"
#308
b1101011111111101001011001101011111111101001010 /"
#309
b1101001111111101001011001101011111111101001011 /"
#310
b1101001111111101001100001101001111111101001100 /"
#311
b1100111111111101001101001100111111111101001100 /"
#312
b1100101111111101001101001100111111111101001101 /"
#313
b1100101111111001001110001100101111111101001110 /"
#314
b1100011111111001001111001100011111111001001111 /"
#315
b1100001111111001010000001100011111111001001111 /"
#316
b1100001111111001010000001100001111111001010000 /"
#317
b1011111111111001010001001100001111111001010001 /"
#318
b1011111111111001010010001011111111111001010001 /"
0p"
#434
1m"
#435
b1000101111110111011110001000101111110111011110001000101111111 M
#436
b111110111110000000100100111110111101111000100100111111011101111 M
#437
b1111000000010010011111001111000000010010011111001111000000010010 M
#438
b1001101111011111100010001001101111011111100000001001101111100 M
#439
b111101011110001000100110111101011110001000100110111101011110001 M
#440
b1111001000010100011110011111000100010100011110011111000100010100 M
#441
b1010101111000111100100001010001111000111100100001010001111000 M
#442
b111011011110011000101010111011111110010000101010111011111110010 M
1h"
1p"
#443
b0 "
0B
b0 C
b1111001100010110011101101111001100010110011101101111001100010101 M
b1011101111111001010011001011101111111001010010 /"
0h"
0i"
#444
b100000101001000000000000 "
1B
b1011111 C
b1011001110101111100110001011001110101111100110001011001110101 M
b1011011111111001010011001011101111111001010011 /"
1i"
#445
b111001111110100000101110111010011110100000101110111010011110100 M
b1011011111111001010100001011011111111001010100 /"
#446
b1111010000011000011100111111010000010111011100111111010000010111 M
b1011001111110101010101001011001111110101010100 /"
#447
b1100001110001111101010001100001110010111101010001100001110010 M
b1011001111110101010101001011001111110101010101 /"
#448
b111000011110101000110010111000111110101000110000111000111110101 M
b1010111111110101010110001010111111110101010110 /"
#449
b1111011000011001011011111111010100011001011100001111010100011001 M
b1010101111110101010111001010111111110101010111 /"
#450
b1101001101110111101100001101001101111111101100001101001101111 M
b1010101111110101011000001010101111110101010111 /"
#451
b110110111110110000110110110110111110110000110100110111011110110 M
b1010011111110101011000001010101111110101011000 /"
#452
b1111011100011011011011001111011100011011011011011111011000011011 M
b1010011111110001011001001010011111110101011001 /"
#453
b1110001101011111101110001110001101100111101110001110001101100 M
b1010001111110001011010001010001111110001011010 /"
#454
b110101011110111000111010110101011110111000111000110101111110111 M
b1010001111110001011011001010001111110001011010 /"
#455
b1111100000011101011010011111100000011101011010101111100000011101 M
b1001111111110001011011001001111111110001011011 /"
#456
b1111001101000111110000001111001101000111110000001111001101001 M
b1001101111110001011100001001111111110001011100 /"
#457
b110011111111001000111110110011111111000000111100110100011111000 M
b1001101111110001011101001001101111110001011101 /"
#458
b1111100100011111011001101111100100011111011001111111100100011111 M
b1001011111101101011110001001101111101101011101 /"
1o"
#459
b10000001100101111110010010000001100101111110010010000001100110 M
#460
b110010011111010001000010110010011111001001000000110010111111001 M
#461
b1111101000100001011000111111101000100001011000111111101000100001 M
#462
b10001001100010111110100010001001100010111110100010001001100011 M
#463
b110000111111010001000110110000111111010001000110110001011111010 M
#464
b1111101100100100011000001111101100100011011000001111101100100011 M
#465
b10010001011111111110110010010001011111111110110010010001100000 M
#466
b101111011111011001001010101111011111011001001010101111011111011 M
#467
b1111110000100110010111011111101100100110010111011111101100100101 M
#468
b10011101011100111111000010011001011100111111000010011001011101 M
#469
b101101111111100001001110101101111111100001001110101101111111100 M
b100000000001000111101110100000000001000111101110 /"
0o"
#470
b1111110000101000010110101111110000101000010110101111110000101000 M
b100000010001000011101110100000000001000111101110 /"
#471
b10100101011001111111000010100101011001111111000010100001011010 M
b100000010001000011101101100000010001000011101110 /"
#472
b101100011111101001010100101100011111101001010010101100011111101 M
b100000100001000011101101100000100001000011101101 /"
#473
b1111110100101010010101111111110100101010010101111111110100101010 M
b100000110000111111101101100000110000111111101101 /"
#474
b10101101010110111111010010101101010110111111010010101101010111 M
b100001000000111111101100100000110000111111101100 /"
#475
b101010111111101001011000101010111111101001011000101010111111101 M
b100001010000111011101100100001000000111111101100 /"
#476
b1111111000101101010101001111110100101100010101001111110100101100 M
b100001010000111011101011100001010000111011101100 /"
#477
b10111001010011111111100010110101010011111111100010110101010100 M
b100001100000111011101011100001100000111011101011 /"
#478
b101001011111110001011100101001011111110001011100101001111111110 M
b100001110000110111101011100001110000111011101011 /"
#479
b1111111000101111010100011111111000101111010100011111111000101111 M
b100010000000110111101010100001110000110111101010 /"
#480
b11000001010000111111100011000001010000111111100011000001010001 M
b100010010000110111101010100010000000110111101010 /"
#481
b100111111111110001100010100111111111110001100000101000011111110 M
b100010010000110011101001100010010000110011101001 /"
#482
b1111111000110010010011101111111000110001010011111111111000110001 M
b100010100000110011101001100010100000110011101001 /"
#483
b11001101001101111111110011001001001101111111110011001001001110 M
b100010110000110011101000100010100000110011101001 /"
#484
b100110011111111001100110100110011111111001100110100110111111111 M
b100011000000101111101000100010110000101111101000 /"
#485
b1111111100110100010010111111111100110100010011001111111100110100 M
b100011000000101111100111100011000000101111101000 /"
#486
b11010101001010111111110011010101001011111111110011010101001011 M
b100011010000101111100111100011010000101111100111 /"
#487
b100100111111111001101100100100111111111001101010100101011111111 M
b100011100000101011100111100011100000101011100111 /"
#488
b1111111100110111010010001111111100110110010010011111111100110110 M
b100011110000101011100110100011100000101011100110 /"
#489
b11100001000111111111110011011101001000111111110011011101001000 M
b100100000000101011100110100011110000101011100110 /"
#490
b100011011111111001110000100011111111111001110000100011111111111 M
b100100000000100111100101100100000000101011100101 /"
#491
b1111111100111001010001101111111100111001010001101111111100111001 M
b100100010000100111100101100100010000100111100101 /"
#492
b11101001000101111111110011101001000101111111110011101001000101 M
b100100100000100111100100100100100000100111100100 /"
#493
b100010011111111001110110100010011111111001110110100010011111111 M
b100100110000100111100100100100100000100111100100 /"
#494
b1111111100111100010000111111111100111100010000111111111100111011 M
b100100110000100011100011100100110000100011100011 /"
#495
b11110101000010111111110011110101000010111111110011110001000010 M
b100101000000100011100011100101000000100011100011 /"
#496
b100000111111111001111100100000111111111001111010100000111111111 M
b100101010000100011100010100101010000100011100010 /"
#497
b1111111100111111010000001111111100111110010000001111111100111110 M
b100101100000011111100010100101010000100011100010 /"
#498
b100000000111111111111110011111100111111111111110011111101000000 M
b100101110000011111100001100101100000011111100001 /"
#499
b11111011111111010000000011111011111111010000000011111111111111 M
b100101110000011111100001100101110000011111100001 /"
#500
b1111111101000001001111011111111101000001001111101111111101000001 M
b100110000000011111100000100110000000011111100000 /"
#501
b100001000111100111111110100001000111101111111110100001000111101 M
b100110010000011011100000100110000000011011100000 /"
#502
b11101111111111010000110011110011111111010000110011110011111111 M
b100110100000011011011111100110010000011011011111 /"
#503
b1111111101000100001110111111111101000100001110111111111101000100 M
b100110100000011011011111100110100000011011011111 /"
#504
b100010100111010111111110100010100111010111111110100010100111010 M
b100110110000011011011110100110110000011011011110 /"
#505
b11100111111111010001100011100111111111010001100011100111111111 M
b100111000000010111011110100111000000010111011110 /"
#506
b1111111101000111001110001111111101000111001110001111111101000110 M
b100111010000010111011101100111000000010111011101 /"
#507
b100100000110111111111110100100000110111111111110100011100111000 M
b100111010000010111011100100111010000010111011101 /"
#508
b11011011111111010010010011011011111111010010000011011111111111 M
b100111100000010111011100100111100000010111011100 /"
#509
b1111111101001010001101011111111101001001001101101111111101001001 M
b100111110000010011011011100111110000010111011100 /"
#510
b100101100110101111111110100101100110101111111110100101000110101 M
b101000000000010011011011100111110000010011011011 /"
#511
b11010011111111010011000011010011111111010010110011010011111111 M
b101000010000010011011010101000000000010011011011 /"
#512
b1111111101001101001100111111111101001100001100111111111101001100 M
b101000010000010011011010101000010000010011011010 /"
1q"
#513
b100111000110010111111100100110100110010111111110100110100110011 M
b101000100000010011011001101000100000010011011001 /"
#514
b11000111111110010011110011000111111110010011100011001011111110 M
b101000110000001111011001101000100000010011011001 /"
#515
b1111111001010000001100001111111001001111001100011111111001001111 M
b101001000000001111011000101000110000001111011000 /"
#516
b101000100110000111111100101000000110000111111100101000000110000 M
b101001000000001111010111101001000000001111011000 /"
#517
b10111111111110010100010010111111111110010100010010111111111110 M
b101001010000001111010111101001010000001111010111 /"
#518
b1111111001010011001011101111111001010010001011101111111001010010 M
b101001100000001111010110101001010000001111010111 /"
#519
b101010000101101111111100101001100101101111111100101001100101110 M
b101001110000001111010110101001100000001111010110 /"
#520
b10110011111101010101000010110011111101010101000010110111111101 M
b101001110000001011010101101001110000001011010101 /"
#521
b1111110101010101001011001111110101010101001011001111110101010101 M
b101010000000001011010101101010000000001011010101 /"
#522
b101011100101011111111010101011000101011111111010101011000101011 M
b101010010000001011010100101010000000001011010100 /"
#523
b10101011111101010101110010101011111101010101110010101011111101 M
b101010100000001011010011101010010000001011010100 /"
#524
b1111110001011000001010011111110101011000001010101111110101011000 M
b101010100000001011010011101010100000001011010011 /"
#525
b101101000101000111111000101100100101001111111000101100100101001 M
b101010110000001011010010101010110000001011010011 /"
#526
b10100011111100010110100010100011111100010110100010100011111100 M
b101011000000000111010010101010110000001011010010 /"
#527
b1111110001011011001001111111110001011011001001111111110001011011 M
b101011000000000111010001101011000000000111010001 /"
#528
b101110100100110111111000101110000100110111111000101110000100111 M
b101011010000000111010000101011010000000111010001 /"
#529
b10010111111011010111010010011011111011010111010010011011111011 M
b101011100000000111010000101011100000000111010000 /"
#530
b1111101101011110001001011111101101011110001001011111101101011110 M
b101011110000000111001111101011100000000111001111 /"
#531
b110000000100100111110110101111100100100111110110101111100100100 M
b101011110000000111001111101011110000000111001111 /"
#532
b10001111111010011000000010001111111011011000000010010011111011 M
b101100000000000111001110101100000000000111001110 /"
#533
b1111101001100010001000111111101001100001001000111111101001100001 M
b101100010000000111001101101100000000000111001110 /"
#534
b110001100100010111110100110001000100010111110100110001000100010 M
b101100100000000111001101101100010000000111001101 /"
#535
b10000111111010011000110010000111111010011000110010000111111010 M
b101100100000000011001100101100100000000011001100 /"
#536
b1111100101100101001000001111100101100100001000011111100101100100 M
b101100110000000011001011101100110000000011001100 /"
#537
b110011000100000111110010110010100100000111110010110010100100000 M
b101101000000000011001011101100110000000011001011 /"
#538
b1111111111001011001110001111111111001011001100001111111111001 M
b101101000000000011001010101101000000000011001010 /"
#539
b1111100001101000000111101111100001100111000111111111100001100111 M
b101101010000000011001010101101010000000011001010 /"
#540
b110100100011110111110000110100000011110111110000110100000011110 M
b101101100000000011001001101101100000000011001001 /"
#541
b1110111110111011010100001110111111000011010010001110111111000 M
b101101110000000011001000101101100000000011001001 /"
#542
b1111011101101011000111001111011101101010000111011111011101101010 M
b101101110000000011001000101101110000000011001000 /"
#543
b110110000011100111101110110110000011100111101110110101100011100 M
b101110000000000011000111101110000000000011000111 /"
#544
b1101111110110011011010001101111110110011011000001101111110111 M
b101110010000000011000110101110000000000011000111 /"
#545
b1111011001101110000110101111011001101101000110111111011001101101 M
b101110010000000011000110101110010000000011000110 /"
